%!PS-Adobe-3.0 EPSF-3.0
%%DocumentNeededResources: font Courier
%%+ font Courier-Bold
%%+ font Courier-Oblique
%%+ font Courier-BoldOblique
%%+ font Symbol
%%Title: R Graphics Output
%%Creator: R Software
%%Pages: (atend)
%%BoundingBox: 0 0 567 454
%%EndComments
%%BeginProlog
/bp  { gs sRGB gs } def
% begin .ps.prolog
/gs  { gsave } bind def
/gr  { grestore } bind def
/ep  { showpage gr gr } bind def
/m   { moveto } bind def
/l  { rlineto } bind def
/np  { newpath } bind def
/cp  { closepath } bind def
/f   { fill } bind def
/o   { stroke } bind def
/c   { newpath 0 360 arc } bind def
/r   { 4 2 roll moveto 1 copy 3 -1 roll exch 0 exch rlineto 0 rlineto -1 mul 0 exch rlineto closepath } bind def
/p1  { stroke } bind def
/p2  { gsave bg fill grestore newpath } bind def
/p3  { gsave bg fill grestore stroke } bind def
/p6  { gsave bg eofill grestore newpath } bind def
/p7  { gsave bg eofill grestore stroke } bind def
/t   { 5 -2 roll moveto gsave rotate
       1 index stringwidth pop
       mul neg 0 rmoveto show grestore } bind def
/ta  { 4 -2 roll moveto gsave rotate show } bind def
/tb  { 2 -1 roll 0 rmoveto show } bind def
/cl  { grestore gsave newpath 3 index 3 index moveto 1 index
       4 -1 roll lineto  exch 1 index lineto lineto
       closepath clip newpath } bind def
/rgb { setrgbcolor } bind def
/s   { scalefont setfont } bind def
% end   .ps.prolog
/sRGB { [ /CIEBasedABC
          << /DecodeLMN
               [ { dup 0.03928 le
                        {12.92321 div}
                        {0.055 add 1.055 div 2.4 exp }
                     ifelse
                 } bind dup dup
               ]
             /MatrixLMN [0.412457 0.212673 0.019334
                         0.357576 0.715152 0.119192
                         0.180437 0.072175 0.950301]
             /WhitePoint [0.9505 1.0 1.0890]
           >>
         ] setcolorspace } bind def
/srgb { setcolor } bind def
%%IncludeResource: font Courier
/Courier findfont
dup length dict begin
  {1 index /FID ne {def} {pop pop} ifelse} forall
  /Encoding ISOLatin1Encoding def
  currentdict
  end
/Font1 exch definefont pop
%%IncludeResource: font Courier-Bold
/Courier-Bold findfont
dup length dict begin
  {1 index /FID ne {def} {pop pop} ifelse} forall
  /Encoding ISOLatin1Encoding def
  currentdict
  end
/Font2 exch definefont pop
%%IncludeResource: font Courier-Oblique
/Courier-Oblique findfont
dup length dict begin
  {1 index /FID ne {def} {pop pop} ifelse} forall
  /Encoding ISOLatin1Encoding def
  currentdict
  end
/Font3 exch definefont pop
%%IncludeResource: font Courier-BoldOblique
/Courier-BoldOblique findfont
dup length dict begin
  {1 index /FID ne {def} {pop pop} ifelse} forall
  /Encoding ISOLatin1Encoding def
  currentdict
  end
/Font4 exch definefont pop
%%IncludeResource: font Symbol
/Symbol findfont
dup length dict begin
  {1 index /FID ne {def} {pop pop} ifelse} forall
  currentdict
  end
/Font5 exch definefont pop
%%EndProlog
%%Page: 1 1
bp
0.00 0.00 566.93 453.54 cl
0.00 0.00 566.93 453.54 cl
0.00 0.00 566.93 453.54 cl
0.00 0.00 566.93 453.54 cl
0.00 0.00 566.93 453.54 cl
0.00 0.00 566.93 453.54 cl
0.00 0.00 566.93 453.54 cl
0.00 0.00 566.93 453.54 cl
0.00 0.00 566.93 453.54 cl
0.00 0.00 566.93 453.54 cl
/bg { 1 1 1 srgb } def
1 1 1 srgb
1.07 setlinewidth
[] 0 setdash
1 setlinecap
1 setlinejoin
10.00 setmiterlimit
0.00 0.00 566.93 453.54 r p3
0.00 0.00 566.93 453.54 cl
58.00 53.36 561.45 448.06 cl
0 0 0.5020 srgb
0.71 setlinewidth
[] 0 setdash
1 setlinecap
1 setlinejoin
10.00 setmiterlimit
228.44 188.25 1.42 c p1
405.89 82.62 1.42 c p1
207.56 213.45 1.42 c p1
209.11 224.66 1.42 c p1
257.33 136.64 1.42 c p1
264.40 131.28 1.42 c p1
288.37 116.50 1.42 c p1
207.03 191.00 1.42 c p1
200.93 209.08 1.42 c p1
278.02 126.53 1.42 c p1
224.91 180.77 1.42 c p1
211.28 180.02 1.42 c p1
355.12 94.97 1.42 c p1
289.26 124.49 1.42 c p1
263.38 143.36 1.42 c p1
186.89 235.29 1.42 c p1
230.56 176.60 1.42 c p1
223.41 179.09 1.42 c p1
254.19 139.68 1.42 c p1
205.82 237.71 1.42 c p1
202.80 175.68 1.42 c p1
249.36 140.02 1.42 c p1
219.73 163.70 1.42 c p1
328.54 101.47 1.42 c p1
281.20 124.93 1.42 c p1
368.20 87.61 1.42 c p1
204.84 194.24 1.42 c p1
250.19 168.22 1.42 c p1
220.19 175.85 1.42 c p1
206.96 199.80 1.42 c p1
266.56 141.46 1.42 c p1
163.81 272.36 1.42 c p1
171.62 380.89 1.42 c p1
236.41 165.73 1.42 c p1
333.94 95.74 1.42 c p1
203.58 197.40 1.42 c p1
329.52 100.97 1.42 c p1
257.02 141.14 1.42 c p1
352.82 95.60 1.42 c p1
381.14 84.78 1.42 c p1
196.20 241.61 1.42 c p1
169.18 256.29 1.42 c p1
209.20 214.95 1.42 c p1
180.01 256.49 1.42 c p1
194.88 213.74 1.42 c p1
244.12 153.08 1.42 c p1
222.12 171.54 1.42 c p1
347.12 94.86 1.42 c p1
328.83 97.76 1.42 c p1
231.09 163.45 1.42 c p1
227.59 166.20 1.42 c p1
222.13 171.70 1.42 c p1
264.39 135.08 1.42 c p1
216.11 192.02 1.42 c p1
200.92 187.84 1.42 c p1
257.17 140.78 1.42 c p1
326.93 102.40 1.42 c p1
255.45 141.39 1.42 c p1
311.95 106.31 1.42 c p1
236.74 154.39 1.42 c p1
215.29 189.14 1.42 c p1
197.16 207.27 1.42 c p1
213.16 164.71 1.42 c p1
299.43 112.06 1.42 c p1
302.03 112.23 1.42 c p1
246.31 154.81 1.42 c p1
189.22 223.43 1.42 c p1
222.49 180.33 1.42 c p1
286.33 119.26 1.42 c p1
237.10 167.55 1.42 c p1
213.72 197.33 1.42 c p1
415.90 81.27 1.42 c p1
358.38 91.56 1.42 c p1
259.02 140.34 1.42 c p1
301.96 111.35 1.42 c p1
213.97 192.88 1.42 c p1
214.54 198.48 1.42 c p1
243.40 162.34 1.42 c p1
274.81 128.11 1.42 c p1
266.38 144.93 1.42 c p1
228.62 173.04 1.42 c p1
206.91 195.36 1.42 c p1
263.42 132.40 1.42 c p1
359.52 93.16 1.42 c p1
235.18 169.96 1.42 c p1
311.06 104.70 1.42 c p1
354.70 92.43 1.42 c p1
257.42 130.93 1.42 c p1
237.77 162.72 1.42 c p1
389.40 85.59 1.42 c p1
206.06 186.86 1.42 c p1
191.30 193.41 1.42 c p1
206.44 192.29 1.42 c p1
307.95 113.36 1.42 c p1
281.47 122.05 1.42 c p1
353.52 93.88 1.42 c p1
177.44 250.07 1.42 c p1
257.99 141.08 1.42 c p1
360.54 90.19 1.42 c p1
228.17 160.49 1.42 c p1
299.49 121.47 1.42 c p1
224.10 176.21 1.42 c p1
196.63 236.39 1.42 c p1
281.63 122.13 1.42 c p1
275.28 139.55 1.42 c p1
221.03 173.73 1.42 c p1
288.13 120.17 1.42 c p1
459.16 77.90 1.42 c p1
289.82 119.78 1.42 c p1
341.70 108.91 1.42 c p1
323.01 104.02 1.42 c p1
244.48 169.51 1.42 c p1
218.48 191.05 1.42 c p1
357.31 89.78 1.42 c p1
249.37 170.76 1.42 c p1
352.76 93.10 1.42 c p1
214.30 168.47 1.42 c p1
326.62 107.28 1.42 c p1
311.12 156.73 1.42 c p1
279.41 121.85 1.42 c p1
182.68 238.25 1.42 c p1
274.79 133.27 1.42 c p1
281.94 123.32 1.42 c p1
245.25 148.41 1.42 c p1
380.03 105.38 1.42 c p1
380.79 86.25 1.42 c p1
224.76 180.93 1.42 c p1
256.41 150.84 1.42 c p1
366.38 87.76 1.42 c p1
245.03 140.32 1.42 c p1
212.50 175.18 1.42 c p1
213.53 205.49 1.42 c p1
200.96 194.88 1.42 c p1
244.28 170.08 1.42 c p1
195.73 215.53 1.42 c p1
272.43 123.62 1.42 c p1
210.71 207.37 1.42 c p1
327.94 109.47 1.42 c p1
369.07 100.86 1.42 c p1
234.97 159.40 1.42 c p1
162.01 278.98 1.42 c p1
205.25 218.48 1.42 c p1
192.97 243.96 1.42 c p1
274.15 124.63 1.42 c p1
175.91 239.91 1.42 c p1
196.99 238.01 1.42 c p1
224.94 184.65 1.42 c p1
420.76 82.61 1.42 c p1
291.01 133.17 1.42 c p1
311.24 113.83 1.42 c p1
323.48 106.80 1.42 c p1
381.32 87.64 1.42 c p1
231.12 176.64 1.42 c p1
311.84 111.83 1.42 c p1
239.46 164.36 1.42 c p1
299.41 130.16 1.42 c p1
204.74 231.19 1.42 c p1
262.17 147.42 1.42 c p1
145.73 297.83 1.42 c p1
251.01 145.46 1.42 c p1
314.17 106.75 1.42 c p1
265.68 236.75 1.42 c p1
329.61 124.84 1.42 c p1
184.62 224.03 1.42 c p1
316.41 108.73 1.42 c p1
245.63 159.63 1.42 c p1
284.47 118.12 1.42 c p1
370.19 106.30 1.42 c p1
268.34 150.07 1.42 c p1
519.29 75.81 1.42 c p1
402.29 84.44 1.42 c p1
194.04 213.77 1.42 c p1
238.91 160.12 1.42 c p1
230.76 170.30 1.42 c p1
413.79 94.38 1.42 c p1
159.55 298.37 1.42 c p1
251.58 135.21 1.42 c p1
262.80 188.20 1.42 c p1
299.46 180.29 1.42 c p1
298.60 243.01 1.42 c p1
370.71 90.19 1.42 c p1
293.85 115.57 1.42 c p1
243.89 223.90 1.42 c p1
226.85 174.24 1.42 c p1
303.80 120.17 1.42 c p1
270.66 171.16 1.42 c p1
284.16 118.55 1.42 c p1
256.08 156.31 1.42 c p1
306.50 110.48 1.42 c p1
240.58 164.06 1.42 c p1
168.06 249.35 1.42 c p1
363.63 87.96 1.42 c p1
270.53 194.07 1.42 c p1
145.35 358.16 1.42 c p1
402.28 82.44 1.42 c p1
311.93 105.56 1.42 c p1
238.27 140.44 1.42 c p1
301.67 124.52 1.42 c p1
241.65 203.74 1.42 c p1
318.00 106.46 1.42 c p1
173.18 247.82 1.42 c p1
246.90 161.24 1.42 c p1
367.18 104.85 1.42 c p1
212.57 207.28 1.42 c p1
277.19 142.12 1.42 c p1
281.15 128.79 1.42 c p1
289.73 117.45 1.42 c p1
404.21 81.90 1.42 c p1
255.17 155.97 1.42 c p1
186.38 228.28 1.42 c p1
368.52 94.83 1.42 c p1
172.92 260.34 1.42 c p1
371.53 89.14 1.42 c p1
268.67 155.57 1.42 c p1
270.57 130.17 1.42 c p1
283.22 160.60 1.42 c p1
255.28 192.40 1.42 c p1
223.06 191.63 1.42 c p1
244.49 151.00 1.42 c p1
376.79 93.59 1.42 c p1
276.56 118.01 1.42 c p1
200.51 249.80 1.42 c p1
166.35 250.76 1.42 c p1
224.93 299.85 1.42 c p1
238.01 173.68 1.42 c p1
484.67 77.14 1.42 c p1
218.42 191.94 1.42 c p1
226.22 162.69 1.42 c p1
241.16 179.81 1.42 c p1
350.99 92.91 1.42 c p1
223.87 193.43 1.42 c p1
253.34 133.78 1.42 c p1
439.26 79.70 1.42 c p1
207.97 189.83 1.42 c p1
413.53 83.51 1.42 c p1
300.04 115.03 1.42 c p1
281.46 140.35 1.42 c p1
154.97 352.06 1.42 c p1
189.66 199.60 1.42 c p1
317.63 112.54 1.42 c p1
223.22 173.02 1.42 c p1
284.59 125.83 1.42 c p1
235.82 166.22 1.42 c p1
270.93 136.62 1.42 c p1
424.72 80.10 1.42 c p1
271.94 133.42 1.42 c p1
261.30 266.42 1.42 c p1
227.10 179.01 1.42 c p1
262.01 142.59 1.42 c p1
214.96 183.85 1.42 c p1
219.88 208.83 1.42 c p1
205.93 204.24 1.42 c p1
232.91 178.60 1.42 c p1
394.63 85.55 1.42 c p1
297.61 138.07 1.42 c p1
363.59 91.46 1.42 c p1
259.95 135.70 1.42 c p1
243.65 156.82 1.42 c p1
190.17 234.28 1.42 c p1
206.34 171.84 1.42 c p1
268.42 125.27 1.42 c p1
215.65 160.44 1.42 c p1
169.89 355.24 1.42 c p1
288.46 118.86 1.42 c p1
275.98 128.99 1.42 c p1
236.56 163.50 1.42 c p1
246.79 147.23 1.42 c p1
184.68 230.30 1.42 c p1
294.83 126.81 1.42 c p1
216.25 159.74 1.42 c p1
207.30 192.73 1.42 c p1
254.53 137.44 1.42 c p1
152.26 270.68 1.42 c p1
273.26 147.07 1.42 c p1
421.32 81.20 1.42 c p1
144.28 291.90 1.42 c p1
329.10 100.26 1.42 c p1
278.64 122.03 1.42 c p1
441.97 78.20 1.42 c p1
423.00 80.59 1.42 c p1
220.51 174.11 1.42 c p1
285.34 116.05 1.42 c p1
398.17 84.24 1.42 c p1
279.84 130.53 1.42 c p1
215.53 182.38 1.42 c p1
220.82 159.28 1.42 c p1
238.26 165.25 1.42 c p1
249.86 148.76 1.42 c p1
456.30 76.84 1.42 c p1
172.57 227.38 1.42 c p1
305.10 104.00 1.42 c p1
238.54 148.02 1.42 c p1
176.41 262.62 1.42 c p1
211.40 201.79 1.42 c p1
232.67 157.18 1.42 c p1
284.21 119.06 1.42 c p1
292.49 115.46 1.42 c p1
450.86 77.46 1.42 c p1
203.93 172.39 1.42 c p1
190.48 207.29 1.42 c p1
334.14 95.62 1.42 c p1
196.05 220.36 1.42 c p1
239.36 154.64 1.42 c p1
152.96 269.35 1.42 c p1
261.47 141.72 1.42 c p1
180.05 222.90 1.42 c p1
243.83 147.44 1.42 c p1
179.42 227.59 1.42 c p1
268.12 127.31 1.42 c p1
170.01 244.92 1.42 c p1
177.55 215.12 1.42 c p1
281.64 120.77 1.42 c p1
193.77 211.18 1.42 c p1
235.60 164.92 1.42 c p1
211.81 178.46 1.42 c p1
268.84 126.12 1.42 c p1
298.16 113.18 1.42 c p1
206.17 191.52 1.42 c p1
363.97 87.88 1.42 c p1
177.00 285.92 1.42 c p1
329.89 96.30 1.42 c p1
353.76 90.67 1.42 c p1
171.62 247.80 1.42 c p1
342.38 92.41 1.42 c p1
211.90 172.65 1.42 c p1
295.10 114.41 1.42 c p1
216.64 200.37 1.42 c p1
284.42 125.34 1.42 c p1
170.68 322.31 1.42 c p1
251.39 142.97 1.42 c p1
161.06 331.41 1.42 c p1
145.09 296.23 1.42 c p1
154.97 261.56 1.42 c p1
203.11 189.61 1.42 c p1
163.27 270.50 1.42 c p1
123.64 313.11 1.42 c p1
168.45 331.82 1.42 c p1
350.79 97.12 1.42 c p1
315.49 99.38 1.42 c p1
211.47 176.57 1.42 c p1
161.81 338.96 1.42 c p1
176.13 221.52 1.42 c p1
128.25 357.80 1.42 c p1
153.28 292.16 1.42 c p1
180.80 296.62 1.42 c p1
349.16 90.97 1.42 c p1
187.28 202.79 1.42 c p1
165.40 286.32 1.42 c p1
139.40 364.27 1.42 c p1
201.38 176.39 1.42 c p1
331.13 98.82 1.42 c p1
172.41 286.60 1.42 c p1
168.99 302.41 1.42 c p1
223.12 251.88 1.42 c p1
276.67 118.24 1.42 c p1
221.18 200.43 1.42 c p1
192.63 218.64 1.42 c p1
175.68 355.50 1.42 c p1
175.80 245.98 1.42 c p1
219.10 212.01 1.42 c p1
187.66 265.07 1.42 c p1
189.44 302.40 1.42 c p1
323.43 98.89 1.42 c p1
167.90 266.49 1.42 c p1
182.56 276.35 1.42 c p1
372.81 87.10 1.42 c p1
216.68 201.61 1.42 c p1
226.91 189.02 1.42 c p1
165.68 261.03 1.42 c p1
369.20 87.02 1.42 c p1
186.12 289.54 1.42 c p1
197.28 216.88 1.42 c p1
177.62 234.29 1.42 c p1
168.68 291.01 1.42 c p1
341.32 100.20 1.42 c p1
219.45 213.99 1.42 c p1
156.67 277.49 1.42 c p1
275.96 110.78 1.42 c p1
185.77 254.84 1.42 c p1
255.12 153.57 1.42 c p1
344.41 97.62 1.42 c p1
143.83 377.29 1.42 c p1
351.19 95.59 1.42 c p1
346.12 94.84 1.42 c p1
184.05 205.96 1.42 c p1
159.32 351.71 1.42 c p1
264.08 134.99 1.42 c p1
181.44 264.62 1.42 c p1
196.63 219.07 1.42 c p1
243.39 154.23 1.42 c p1
213.65 193.03 1.42 c p1
314.00 106.40 1.42 c p1
233.27 151.98 1.42 c p1
306.08 111.66 1.42 c p1
234.30 159.39 1.42 c p1
259.56 140.32 1.42 c p1
167.85 241.55 1.42 c p1
216.30 181.95 1.42 c p1
173.93 231.82 1.42 c p1
161.60 280.48 1.42 c p1
208.85 196.54 1.42 c p1
201.23 262.70 1.42 c p1
304.78 117.35 1.42 c p1
187.01 248.08 1.42 c p1
210.70 376.66 1.42 c p1
300.20 113.74 1.42 c p1
135.20 354.36 1.42 c p1
189.85 234.21 1.42 c p1
183.77 321.83 1.42 c p1
197.18 271.78 1.42 c p1
196.94 201.46 1.42 c p1
189.82 290.23 1.42 c p1
154.94 350.07 1.42 c p1
332.24 101.31 1.42 c p1
361.56 89.43 1.42 c p1
195.11 252.39 1.42 c p1
134.41 380.62 1.42 c p1
224.41 204.62 1.42 c p1
255.24 136.00 1.42 c p1
228.61 213.85 1.42 c p1
234.93 169.73 1.42 c p1
164.69 256.11 1.42 c p1
237.62 160.52 1.42 c p1
185.40 372.51 1.42 c p1
239.96 148.44 1.42 c p1
371.16 91.58 1.42 c p1
250.94 292.78 1.42 c p1
173.34 282.52 1.42 c p1
286.93 184.28 1.42 c p1
246.29 137.09 1.42 c p1
237.89 195.27 1.42 c p1
246.94 167.12 1.42 c p1
264.79 180.67 1.42 c p1
226.38 244.17 1.42 c p1
314.13 150.20 1.42 c p1
157.23 360.75 1.42 c p1
144.31 342.35 1.42 c p1
227.48 200.77 1.42 c p1
183.10 316.96 1.42 c p1
165.28 286.52 1.42 c p1
152.71 262.13 1.42 c p1
297.33 127.74 1.42 c p1
247.96 152.27 1.42 c p1
248.30 245.25 1.42 c p1
171.20 338.39 1.42 c p1
214.77 168.98 1.42 c p1
340.88 115.22 1.42 c p1
240.80 252.40 1.42 c p1
275.89 144.59 1.42 c p1
182.93 249.97 1.42 c p1
192.69 265.33 1.42 c p1
226.51 230.67 1.42 c p1
186.62 264.99 1.42 c p1
219.69 159.45 1.42 c p1
181.78 278.57 1.42 c p1
298.62 117.64 1.42 c p1
197.16 242.49 1.42 c p1
428.14 78.97 1.42 c p1
251.14 198.02 1.42 c p1
329.40 102.93 1.42 c p1
166.80 327.92 1.42 c p1
176.12 290.77 1.42 c p1
178.75 290.55 1.42 c p1
190.78 293.90 1.42 c p1
172.98 292.92 1.42 c p1
136.92 318.39 1.42 c p1
253.62 156.65 1.42 c p1
277.98 129.75 1.42 c p1
310.42 116.84 1.42 c p1
195.19 261.41 1.42 c p1
195.10 267.87 1.42 c p1
255.51 162.90 1.42 c p1
165.80 294.81 1.42 c p1
343.59 94.44 1.42 c p1
148.66 352.54 1.42 c p1
252.64 161.52 1.42 c p1
269.11 140.20 1.42 c p1
213.18 201.31 1.42 c p1
294.36 118.59 1.42 c p1
201.76 317.77 1.42 c p1
163.34 357.88 1.42 c p1
256.20 214.30 1.42 c p1
268.38 137.00 1.42 c p1
307.17 108.33 1.42 c p1
205.08 250.76 1.42 c p1
197.12 237.29 1.42 c p1
215.94 180.57 1.42 c p1
342.65 93.54 1.42 c p1
240.61 170.23 1.42 c p1
252.26 149.67 1.42 c p1
210.06 372.07 1.42 c p1
159.45 322.36 1.42 c p1
216.44 376.54 1.42 c p1
323.00 99.60 1.42 c p1
159.66 340.51 1.42 c p1
173.20 357.65 1.42 c p1
173.36 297.58 1.42 c p1
193.61 301.75 1.42 c p1
235.37 167.50 1.42 c p1
239.34 146.43 1.42 c p1
380.76 85.46 1.42 c p1
263.83 255.92 1.42 c p1
181.67 304.66 1.42 c p1
328.62 134.13 1.42 c p1
286.47 121.58 1.42 c p1
163.27 235.12 1.42 c p1
251.70 272.05 1.42 c p1
226.70 189.09 1.42 c p1
277.40 122.34 1.42 c p1
156.26 226.19 1.42 c p1
235.40 195.19 1.42 c p1
212.74 309.40 1.42 c p1
213.07 348.70 1.42 c p1
321.75 101.07 1.42 c p1
182.33 370.44 1.42 c p1
228.34 270.36 1.42 c p1
221.03 267.72 1.42 c p1
205.08 194.30 1.42 c p1
233.80 295.54 1.42 c p1
213.82 212.33 1.42 c p1
230.78 348.03 1.42 c p1
194.43 239.57 1.42 c p1
357.10 111.29 1.42 c p1
292.87 113.92 1.42 c p1
180.74 280.88 1.42 c p1
433.09 79.15 1.42 c p1
323.07 100.12 1.42 c p1
358.56 98.51 1.42 c p1
336.65 100.27 1.42 c p1
203.44 231.13 1.42 c p1
180.24 241.38 1.42 c p1
527.34 73.92 1.42 c p1
241.52 210.31 1.42 c p1
271.13 296.95 1.42 c p1
220.60 222.67 1.42 c p1
189.21 241.49 1.42 c p1
264.09 131.24 1.42 c p1
180.26 224.00 1.42 c p1
294.64 148.48 1.42 c p1
228.79 249.63 1.42 c p1
296.42 138.45 1.42 c p1
208.79 271.77 1.42 c p1
163.69 274.18 1.42 c p1
233.68 173.89 1.42 c p1
147.70 364.60 1.42 c p1
277.23 126.95 1.42 c p1
265.05 156.10 1.42 c p1
230.75 178.42 1.42 c p1
339.90 225.37 1.42 c p1
244.14 220.45 1.42 c p1
281.78 117.18 1.42 c p1
220.21 169.65 1.42 c p1
216.43 187.41 1.42 c p1
189.62 368.43 1.42 c p1
267.59 124.42 1.42 c p1
261.97 145.35 1.42 c p1
166.59 376.41 1.42 c p1
372.35 94.42 1.42 c p1
253.08 133.34 1.42 c p1
266.24 158.11 1.42 c p1
203.50 207.28 1.42 c p1
297.92 111.49 1.42 c p1
319.42 103.39 1.42 c p1
149.20 344.55 1.42 c p1
243.47 148.38 1.42 c p1
283.18 115.56 1.42 c p1
232.89 373.82 1.42 c p1
207.28 228.22 1.42 c p1
203.03 252.41 1.42 c p1
164.54 311.88 1.42 c p1
178.33 324.06 1.42 c p1
233.98 154.25 1.42 c p1
164.96 308.94 1.42 c p1
410.43 89.14 1.42 c p1
291.90 120.89 1.42 c p1
130.07 281.64 1.42 c p1
207.16 274.27 1.42 c p1
262.51 144.49 1.42 c p1
184.08 248.53 1.42 c p1
202.77 215.72 1.42 c p1
331.37 105.15 1.42 c p1
188.76 267.40 1.42 c p1
256.39 148.91 1.42 c p1
243.85 152.52 1.42 c p1
226.22 213.50 1.42 c p1
255.38 136.98 1.42 c p1
242.83 159.45 1.42 c p1
231.06 152.69 1.42 c p1
164.98 288.01 1.42 c p1
265.18 149.33 1.42 c p1
205.45 197.99 1.42 c p1
214.50 213.78 1.42 c p1
246.43 161.90 1.42 c p1
184.39 249.31 1.42 c p1
247.70 189.38 1.42 c p1
205.66 176.85 1.42 c p1
275.00 133.97 1.42 c p1
162.50 249.51 1.42 c p1
198.89 246.10 1.42 c p1
183.27 231.98 1.42 c p1
157.37 318.96 1.42 c p1
257.09 134.32 1.42 c p1
150.04 296.63 1.42 c p1
173.69 383.54 1.42 c p1
431.91 83.05 1.42 c p1
189.45 275.83 1.42 c p1
257.60 177.81 1.42 c p1
249.46 184.92 1.42 c p1
309.34 112.71 1.42 c p1
181.81 309.85 1.42 c p1
295.46 119.31 1.42 c p1
267.92 147.54 1.42 c p1
263.77 136.49 1.42 c p1
285.65 116.10 1.42 c p1
335.11 99.89 1.42 c p1
158.70 277.50 1.42 c p1
165.67 334.35 1.42 c p1
171.17 220.48 1.42 c p1
286.34 115.27 1.42 c p1
219.99 178.88 1.42 c p1
247.04 131.81 1.42 c p1
247.52 148.88 1.42 c p1
174.16 216.67 1.42 c p1
313.86 101.44 1.42 c p1
379.73 86.11 1.42 c p1
270.60 122.80 1.42 c p1
334.69 101.72 1.42 c p1
265.04 120.40 1.42 c p1
178.80 316.72 1.42 c p1
160.88 230.39 1.42 c p1
230.36 170.36 1.42 c p1
287.48 117.46 1.42 c p1
196.32 261.07 1.42 c p1
537.33 74.01 1.42 c p1
177.88 298.01 1.42 c p1
154.66 305.97 1.42 c p1
360.21 90.88 1.42 c p1
232.72 143.01 1.42 c p1
256.96 130.59 1.42 c p1
306.15 108.94 1.42 c p1
283.36 118.93 1.42 c p1
143.01 302.82 1.42 c p1
226.21 171.46 1.42 c p1
283.31 121.23 1.42 c p1
363.94 88.72 1.42 c p1
191.71 197.40 1.42 c p1
335.51 101.11 1.42 c p1
339.82 96.94 1.42 c p1
512.86 75.24 1.42 c p1
223.64 162.56 1.42 c p1
185.30 250.17 1.42 c p1
426.13 80.20 1.42 c p1
355.13 92.33 1.42 c p1
233.32 166.64 1.42 c p1
294.83 111.77 1.42 c p1
316.22 102.57 1.42 c p1
175.83 275.67 1.42 c p1
219.21 205.12 1.42 c p1
242.44 164.11 1.42 c p1
336.30 96.75 1.42 c p1
166.98 346.32 1.42 c p1
181.33 228.70 1.42 c p1
288.44 117.38 1.42 c p1
189.69 242.27 1.42 c p1
156.36 252.52 1.42 c p1
228.48 174.90 1.42 c p1
169.94 270.44 1.42 c p1
225.61 206.44 1.42 c p1
161.93 262.86 1.42 c p1
169.25 317.69 1.42 c p1
299.17 106.81 1.42 c p1
179.69 293.78 1.42 c p1
214.30 165.76 1.42 c p1
227.09 193.35 1.42 c p1
188.12 255.31 1.42 c p1
260.68 141.93 1.42 c p1
234.05 166.41 1.42 c p1
292.48 110.82 1.42 c p1
156.05 357.24 1.42 c p1
211.81 209.98 1.42 c p1
302.85 117.65 1.42 c p1
168.78 278.45 1.42 c p1
182.73 211.27 1.42 c p1
222.17 164.03 1.42 c p1
339.53 97.32 1.42 c p1
156.07 319.94 1.42 c p1
188.66 310.04 1.42 c p1
134.21 356.52 1.42 c p1
202.33 242.96 1.42 c p1
261.55 136.48 1.42 c p1
189.55 220.95 1.42 c p1
169.06 272.95 1.42 c p1
195.40 261.31 1.42 c p1
183.30 372.04 1.42 c p1
233.67 150.89 1.42 c p1
170.96 411.51 1.42 c p1
158.18 269.60 1.42 c p1
218.13 229.58 1.42 c p1
132.51 353.98 1.42 c p1
255.01 147.15 1.42 c p1
141.56 356.55 1.42 c p1
287.69 117.94 1.42 c p1
292.26 111.49 1.42 c p1
325.57 99.14 1.42 c p1
182.87 302.19 1.42 c p1
219.42 163.63 1.42 c p1
221.60 192.01 1.42 c p1
173.69 278.47 1.42 c p1
145.02 343.47 1.42 c p1
158.81 264.56 1.42 c p1
175.13 271.04 1.42 c p1
411.76 80.91 1.42 c p1
174.01 273.97 1.42 c p1
165.63 324.67 1.42 c p1
209.85 208.86 1.42 c p1
401.09 81.89 1.42 c p1
170.71 371.09 1.42 c p1
262.04 140.86 1.42 c p1
201.47 295.10 1.42 c p1
148.80 376.55 1.42 c p1
156.76 338.11 1.42 c p1
177.22 289.59 1.42 c p1
177.42 262.38 1.42 c p1
211.81 181.43 1.42 c p1
157.14 353.09 1.42 c p1
232.77 154.29 1.42 c p1
406.85 95.09 1.42 c p1
255.56 146.23 1.42 c p1
188.23 323.67 1.42 c p1
248.93 159.68 1.42 c p1
192.56 298.27 1.42 c p1
185.51 270.83 1.42 c p1
190.23 294.34 1.42 c p1
213.21 185.80 1.42 c p1
174.98 285.71 1.42 c p1
197.45 204.58 1.42 c p1
188.62 266.74 1.42 c p1
158.31 343.87 1.42 c p1
167.94 289.78 1.42 c p1
181.61 254.34 1.42 c p1
162.74 279.82 1.42 c p1
180.89 270.00 1.42 c p1
237.59 145.56 1.42 c p1
152.60 270.09 1.42 c p1
173.53 273.27 1.42 c p1
190.03 258.70 1.42 c p1
185.66 243.52 1.42 c p1
191.12 291.76 1.42 c p1
177.35 390.80 1.42 c p1
164.25 254.46 1.42 c p1
177.15 306.29 1.42 c p1
172.54 274.51 1.42 c p1
159.19 318.47 1.42 c p1
163.40 370.06 1.42 c p1
167.08 280.24 1.42 c p1
154.77 345.45 1.42 c p1
163.18 328.43 1.42 c p1
152.23 388.67 1.42 c p1
261.28 142.75 1.42 c p1
180.03 273.47 1.42 c p1
192.95 203.73 1.42 c p1
148.65 344.46 1.42 c p1
179.05 221.44 1.42 c p1
286.82 120.70 1.42 c p1
146.81 347.21 1.42 c p1
169.09 275.34 1.42 c p1
160.21 269.42 1.42 c p1
302.31 103.21 1.42 c p1
173.74 281.85 1.42 c p1
154.06 272.61 1.42 c p1
150.03 347.80 1.42 c p1
196.59 266.11 1.42 c p1
162.64 346.47 1.42 c p1
218.12 241.72 1.42 c p1
163.03 354.77 1.42 c p1
270.76 124.98 1.42 c p1
281.37 129.36 1.42 c p1
331.79 95.52 1.42 c p1
268.64 140.31 1.42 c p1
191.55 310.57 1.42 c p1
226.61 187.83 1.42 c p1
186.73 321.67 1.42 c p1
141.86 271.25 1.42 c p1
214.85 189.50 1.42 c p1
192.35 353.16 1.42 c p1
188.72 286.54 1.42 c p1
153.33 268.26 1.42 c p1
232.96 261.50 1.42 c p1
171.16 328.27 1.42 c p1
151.67 343.19 1.42 c p1
314.09 114.82 1.42 c p1
192.41 232.64 1.42 c p1
215.71 181.86 1.42 c p1
153.19 318.18 1.42 c p1
167.87 275.16 1.42 c p1
154.70 299.53 1.42 c p1
200.13 254.50 1.42 c p1
199.10 225.30 1.42 c p1
357.04 94.85 1.42 c p1
255.00 136.92 1.42 c p1
174.95 275.12 1.42 c p1
183.26 237.24 1.42 c p1
166.50 263.36 1.42 c p1
185.63 285.05 1.42 c p1
171.89 360.05 1.42 c p1
139.40 350.63 1.42 c p1
310.89 105.43 1.42 c p1
192.64 236.20 1.42 c p1
289.30 122.67 1.42 c p1
152.61 328.32 1.42 c p1
203.57 179.45 1.42 c p1
218.95 182.25 1.42 c p1
183.70 267.98 1.42 c p1
162.78 276.40 1.42 c p1
191.97 235.16 1.42 c p1
147.02 304.87 1.42 c p1
283.16 123.71 1.42 c p1
224.88 190.51 1.42 c p1
165.82 340.07 1.42 c p1
196.34 372.73 1.42 c p1
325.22 129.02 1.42 c p1
153.24 334.93 1.42 c p1
215.45 167.06 1.42 c p1
232.86 270.67 1.42 c p1
156.10 328.10 1.42 c p1
227.55 174.63 1.42 c p1
207.77 290.95 1.42 c p1
207.59 216.47 1.42 c p1
233.47 200.91 1.42 c p1
290.75 295.40 1.42 c p1
158.91 270.74 1.42 c p1
277.99 118.11 1.42 c p1
170.69 250.16 1.42 c p1
210.84 324.04 1.42 c p1
212.73 309.96 1.42 c p1
237.10 196.58 1.42 c p1
189.59 256.37 1.42 c p1
206.33 222.32 1.42 c p1
188.16 235.81 1.42 c p1
258.89 132.77 1.42 c p1
193.29 284.37 1.42 c p1
188.05 262.00 1.42 c p1
151.27 329.57 1.42 c p1
196.29 246.86 1.42 c p1
237.47 154.94 1.42 c p1
189.03 270.93 1.42 c p1
206.25 328.81 1.42 c p1
292.34 186.96 1.42 c p1
186.63 395.80 1.42 c p1
159.42 293.20 1.42 c p1
268.98 131.86 1.42 c p1
299.16 218.72 1.42 c p1
167.82 277.93 1.42 c p1
178.88 224.12 1.42 c p1
181.24 266.00 1.42 c p1
158.53 297.40 1.42 c p1
204.19 181.00 1.42 c p1
156.08 264.77 1.42 c p1
208.53 204.00 1.42 c p1
130.23 359.54 1.42 c p1
138.46 338.72 1.42 c p1
167.03 315.64 1.42 c p1
189.67 284.69 1.42 c p1
216.16 167.08 1.42 c p1
171.69 247.12 1.42 c p1
198.17 242.60 1.42 c p1
185.45 223.63 1.42 c p1
283.81 132.54 1.42 c p1
386.48 84.77 1.42 c p1
252.71 132.17 1.42 c p1
189.36 205.23 1.42 c p1
171.14 236.03 1.42 c p1
334.09 97.33 1.42 c p1
162.27 388.88 1.42 c p1
186.00 227.60 1.42 c p1
221.34 202.96 1.42 c p1
374.53 85.81 1.42 c p1
283.91 122.36 1.42 c p1
264.65 124.25 1.42 c p1
152.49 273.86 1.42 c p1
147.67 291.42 1.42 c p1
176.99 349.46 1.42 c p1
211.03 170.20 1.42 c p1
157.15 340.25 1.42 c p1
214.29 206.36 1.42 c p1
216.65 157.78 1.42 c p1
214.40 209.11 1.42 c p1
138.53 327.30 1.42 c p1
217.86 190.90 1.42 c p1
196.84 205.62 1.42 c p1
176.80 239.34 1.42 c p1
164.97 316.94 1.42 c p1
192.83 190.55 1.42 c p1
143.70 335.79 1.42 c p1
184.57 295.79 1.42 c p1
338.21 97.34 1.42 c p1
154.26 331.58 1.42 c p1
202.02 203.45 1.42 c p1
162.56 312.86 1.42 c p1
191.00 241.84 1.42 c p1
173.07 318.46 1.42 c p1
210.86 244.59 1.42 c p1
178.50 357.86 1.42 c p1
226.81 166.09 1.42 c p1
162.15 280.03 1.42 c p1
296.21 107.41 1.42 c p1
165.03 354.96 1.42 c p1
283.55 120.75 1.42 c p1
165.03 295.42 1.42 c p1
265.40 139.63 1.42 c p1
240.66 141.83 1.42 c p1
260.51 136.16 1.42 c p1
197.31 337.69 1.42 c p1
159.74 320.96 1.42 c p1
168.15 248.66 1.42 c p1
189.42 220.73 1.42 c p1
189.11 244.39 1.42 c p1
172.11 372.48 1.42 c p1
225.45 172.91 1.42 c p1
162.40 317.14 1.42 c p1
317.28 99.67 1.42 c p1
340.36 102.84 1.42 c p1
224.13 183.16 1.42 c p1
184.86 263.73 1.42 c p1
204.50 242.22 1.42 c p1
166.28 227.82 1.42 c p1
220.46 196.88 1.42 c p1
196.80 240.38 1.42 c p1
176.37 283.65 1.42 c p1
159.62 361.97 1.42 c p1
205.92 220.44 1.42 c p1
163.89 261.19 1.42 c p1
174.03 270.55 1.42 c p1
141.83 366.15 1.42 c p1
166.49 274.32 1.42 c p1
200.42 210.65 1.42 c p1
182.79 255.72 1.42 c p1
230.86 167.16 1.42 c p1
195.29 248.51 1.42 c p1
261.04 137.32 1.42 c p1
295.19 117.90 1.42 c p1
145.07 379.56 1.42 c p1
228.88 165.03 1.42 c p1
201.55 202.21 1.42 c p1
176.05 305.62 1.42 c p1
204.15 197.47 1.42 c p1
263.54 140.84 1.42 c p1
181.89 224.17 1.42 c p1
206.05 200.31 1.42 c p1
148.81 256.46 1.42 c p1
216.55 166.86 1.42 c p1
293.79 113.27 1.42 c p1
239.21 205.94 1.42 c p1
243.85 160.03 1.42 c p1
183.47 231.40 1.42 c p1
176.61 276.74 1.42 c p1
195.79 231.83 1.42 c p1
155.59 289.53 1.42 c p1
129.46 325.92 1.42 c p1
158.44 371.35 1.42 c p1
152.32 309.22 1.42 c p1
185.32 267.05 1.42 c p1
120.56 332.95 1.42 c p1
241.43 148.26 1.42 c p1
148.68 351.19 1.42 c p1
277.64 130.22 1.42 c p1
275.05 134.52 1.42 c p1
161.32 377.56 1.42 c p1
155.61 303.61 1.42 c p1
417.97 81.44 1.42 c p1
172.46 245.27 1.42 c p1
242.62 153.78 1.42 c p1
231.67 230.63 1.42 c p1
166.04 261.19 1.42 c p1
206.71 182.06 1.42 c p1
170.19 236.35 1.42 c p1
165.69 302.50 1.42 c p1
265.84 126.91 1.42 c p1
229.09 193.51 1.42 c p1
134.89 362.85 1.42 c p1
128.06 301.16 1.42 c p1
149.53 338.39 1.42 c p1
219.44 337.91 1.42 c p1
532.85 74.07 1.42 c p1
238.18 149.85 1.42 c p1
283.75 116.60 1.42 c p1
288.57 112.06 1.42 c p1
204.18 273.61 1.42 c p1
169.70 315.17 1.42 c p1
250.43 214.40 1.42 c p1
229.82 155.63 1.42 c p1
173.39 237.91 1.42 c p1
231.78 182.07 1.42 c p1
158.78 328.37 1.42 c p1
295.93 119.45 1.42 c p1
249.32 137.55 1.42 c p1
190.38 300.78 1.42 c p1
287.37 120.20 1.42 c p1
200.73 186.84 1.42 c p1
180.41 309.56 1.42 c p1
169.36 244.15 1.42 c p1
169.00 310.36 1.42 c p1
382.15 85.68 1.42 c p1
244.54 172.52 1.42 c p1
212.00 198.27 1.42 c p1
176.26 286.73 1.42 c p1
289.89 116.41 1.42 c p1
165.46 261.70 1.42 c p1
176.63 238.61 1.42 c p1
204.08 174.45 1.42 c p1
201.71 246.01 1.42 c p1
204.91 323.90 1.42 c p1
146.04 298.23 1.42 c p1
166.11 243.29 1.42 c p1
141.20 320.99 1.42 c p1
194.12 207.64 1.42 c p1
262.68 127.45 1.42 c p1
201.22 206.04 1.42 c p1
339.86 91.58 1.42 c p1
248.99 147.48 1.42 c p1
231.79 159.26 1.42 c p1
269.98 124.90 1.42 c p1
253.60 136.52 1.42 c p1
134.23 310.17 1.42 c p1
149.79 307.23 1.42 c p1
180.36 274.79 1.42 c p1
164.69 295.47 1.42 c p1
228.93 156.97 1.42 c p1
202.33 207.10 1.42 c p1
269.72 124.20 1.42 c p1
263.03 123.54 1.42 c p1
302.71 106.45 1.42 c p1
167.01 301.81 1.42 c p1
411.43 81.30 1.42 c p1
185.11 333.93 1.42 c p1
236.67 147.64 1.42 c p1
206.37 191.02 1.42 c p1
265.29 126.56 1.42 c p1
201.32 218.44 1.42 c p1
177.44 238.69 1.42 c p1
241.62 166.97 1.42 c p1
292.59 116.33 1.42 c p1
195.41 334.34 1.42 c p1
262.21 147.58 1.42 c p1
213.69 237.09 1.42 c p1
237.93 166.38 1.42 c p1
225.54 172.12 1.42 c p1
278.20 156.68 1.42 c p1
302.14 105.13 1.42 c p1
222.39 168.47 1.42 c p1
373.85 87.99 1.42 c p1
290.42 113.14 1.42 c p1
250.36 165.95 1.42 c p1
150.03 324.87 1.42 c p1
325.42 98.38 1.42 c p1
248.15 152.07 1.42 c p1
301.40 103.86 1.42 c p1
186.73 212.89 1.42 c p1
190.75 220.31 1.42 c p1
152.53 323.47 1.42 c p1
230.23 159.34 1.42 c p1
198.33 212.82 1.42 c p1
206.83 185.05 1.42 c p1
241.64 141.43 1.42 c p1
190.02 188.75 1.42 c p1
215.82 177.81 1.42 c p1
212.95 185.99 1.42 c p1
179.15 260.85 1.42 c p1
219.48 182.04 1.42 c p1
205.38 253.99 1.42 c p1
184.88 223.19 1.42 c p1
145.66 358.62 1.42 c p1
196.71 207.01 1.42 c p1
315.08 109.17 1.42 c p1
211.15 184.07 1.42 c p1
172.37 233.06 1.42 c p1
303.14 117.40 1.42 c p1
263.87 141.84 1.42 c p1
193.98 195.64 1.42 c p1
256.65 129.89 1.42 c p1
211.73 172.77 1.42 c p1
245.37 133.06 1.42 c p1
226.36 161.75 1.42 c p1
213.15 223.03 1.42 c p1
383.84 86.23 1.42 c p1
211.62 160.19 1.42 c p1
269.02 119.39 1.42 c p1
149.76 361.19 1.42 c p1
183.53 267.46 1.42 c p1
158.95 369.88 1.42 c p1
200.64 184.54 1.42 c p1
206.46 178.12 1.42 c p1
173.10 234.46 1.42 c p1
295.95 114.49 1.42 c p1
251.91 162.77 1.42 c p1
203.60 191.76 1.42 c p1
263.32 133.75 1.42 c p1
172.00 337.22 1.42 c p1
222.06 190.69 1.42 c p1
229.67 184.88 1.42 c p1
337.76 95.46 1.42 c p1
366.28 86.89 1.42 c p1
199.60 220.67 1.42 c p1
352.52 88.51 1.42 c p1
222.37 182.57 1.42 c p1
197.20 203.47 1.42 c p1
244.24 140.60 1.42 c p1
240.76 140.10 1.42 c p1
198.51 188.68 1.42 c p1
163.82 281.04 1.42 c p1
179.28 209.09 1.42 c p1
138.01 337.44 1.42 c p1
177.72 279.46 1.42 c p1
198.49 227.29 1.42 c p1
160.03 367.19 1.42 c p1
272.75 132.71 1.42 c p1
254.77 137.86 1.42 c p1
295.41 128.69 1.42 c p1
276.20 116.88 1.42 c p1
153.53 355.84 1.42 c p1
187.09 226.93 1.42 c p1
321.13 107.16 1.42 c p1
160.01 224.28 1.42 c p1
237.19 166.02 1.42 c p1
182.67 230.92 1.42 c p1
278.24 124.80 1.42 c p1
149.64 345.21 1.42 c p1
186.77 264.10 1.42 c p1
158.01 373.48 1.42 c p1
185.67 260.61 1.42 c p1
204.60 183.79 1.42 c p1
253.48 154.94 1.42 c p1
173.94 284.58 1.42 c p1
282.85 115.14 1.42 c p1
313.29 103.92 1.42 c p1
254.16 135.95 1.42 c p1
144.19 324.68 1.42 c p1
150.06 349.76 1.42 c p1
146.61 301.96 1.42 c p1
368.21 90.59 1.42 c p1
166.14 295.20 1.42 c p1
193.36 201.80 1.42 c p1
173.04 322.23 1.42 c p1
204.37 206.87 1.42 c p1
275.11 120.46 1.42 c p1
161.34 321.77 1.42 c p1
196.81 238.70 1.42 c p1
184.50 240.45 1.42 c p1
217.24 173.54 1.42 c p1
152.50 349.67 1.42 c p1
161.57 338.46 1.42 c p1
183.45 259.38 1.42 c p1
144.37 330.43 1.42 c p1
223.87 158.36 1.42 c p1
205.01 200.43 1.42 c p1
175.12 254.78 1.42 c p1
195.64 202.69 1.42 c p1
226.13 160.35 1.42 c p1
314.73 108.30 1.42 c p1
202.12 226.65 1.42 c p1
157.51 328.47 1.42 c p1
236.89 422.30 1.42 c p1
220.77 166.93 1.42 c p1
229.12 170.95 1.42 c p1
253.22 172.32 1.42 c p1
154.19 292.56 1.42 c p1
197.39 197.47 1.42 c p1
288.37 110.36 1.42 c p1
248.57 164.48 1.42 c p1
134.48 363.74 1.42 c p1
179.42 338.10 1.42 c p1
130.14 343.05 1.42 c p1
181.30 222.21 1.42 c p1
293.14 113.18 1.42 c p1
211.46 189.91 1.42 c p1
184.31 191.92 1.42 c p1
177.85 244.28 1.42 c p1
165.43 366.00 1.42 c p1
216.86 192.11 1.42 c p1
194.90 199.17 1.42 c p1
215.23 204.17 1.42 c p1
178.82 293.62 1.42 c p1
307.31 108.13 1.42 c p1
209.21 184.85 1.42 c p1
188.27 207.36 1.42 c p1
417.19 81.24 1.42 c p1
365.64 91.30 1.42 c p1
159.29 257.50 1.42 c p1
168.95 264.92 1.42 c p1
164.63 285.33 1.42 c p1
195.18 232.55 1.42 c p1
212.44 218.05 1.42 c p1
206.06 194.07 1.42 c p1
218.96 166.59 1.42 c p1
191.25 216.41 1.42 c p1
166.79 237.89 1.42 c p1
254.45 124.25 1.42 c p1
210.04 203.43 1.42 c p1
154.21 249.33 1.42 c p1
149.46 288.41 1.42 c p1
182.32 282.54 1.42 c p1
163.74 294.27 1.42 c p1
305.69 105.94 1.42 c p1
222.66 161.43 1.42 c p1
326.00 96.93 1.42 c p1
272.04 117.00 1.42 c p1
161.82 309.83 1.42 c p1
201.47 218.59 1.42 c p1
160.74 383.02 1.42 c p1
259.92 133.79 1.42 c p1
280.28 145.70 1.42 c p1
164.20 278.00 1.42 c p1
216.83 219.05 1.42 c p1
237.26 154.28 1.42 c p1
224.66 304.19 1.42 c p1
249.82 173.60 1.42 c p1
212.70 305.58 1.42 c p1
364.11 89.41 1.42 c p1
248.56 155.75 1.42 c p1
142.30 314.85 1.42 c p1
174.16 260.50 1.42 c p1
308.54 111.68 1.42 c p1
318.28 103.77 1.42 c p1
166.96 312.70 1.42 c p1
137.16 375.61 1.42 c p1
165.27 343.95 1.42 c p1
177.31 256.98 1.42 c p1
192.55 336.79 1.42 c p1
176.12 260.13 1.42 c p1
181.07 259.26 1.42 c p1
165.68 277.76 1.42 c p1
216.24 193.51 1.42 c p1
308.76 111.97 1.42 c p1
251.84 154.27 1.42 c p1
273.99 137.14 1.42 c p1
160.32 288.79 1.42 c p1
189.04 259.24 1.42 c p1
193.34 243.26 1.42 c p1
188.95 199.01 1.42 c p1
186.82 288.05 1.42 c p1
210.30 179.43 1.42 c p1
152.80 342.23 1.42 c p1
156.45 332.38 1.42 c p1
263.01 123.49 1.42 c p1
182.85 242.33 1.42 c p1
194.13 245.66 1.42 c p1
277.30 127.02 1.42 c p1
168.93 295.18 1.42 c p1
166.93 279.22 1.42 c p1
285.47 118.86 1.42 c p1
165.12 355.56 1.42 c p1
275.62 120.78 1.42 c p1
180.05 254.72 1.42 c p1
230.85 175.63 1.42 c p1
164.62 315.26 1.42 c p1
250.79 139.37 1.42 c p1
165.96 284.69 1.42 c p1
208.45 192.75 1.42 c p1
225.73 183.28 1.42 c p1
133.35 320.39 1.42 c p1
175.89 291.08 1.42 c p1
207.62 193.20 1.42 c p1
220.04 175.63 1.42 c p1
194.50 232.32 1.42 c p1
229.47 175.55 1.42 c p1
161.63 287.18 1.42 c p1
160.53 283.26 1.42 c p1
255.95 128.98 1.42 c p1
395.27 82.37 1.42 c p1
179.32 227.54 1.42 c p1
215.19 307.90 1.42 c p1
197.08 245.49 1.42 c p1
176.97 279.98 1.42 c p1
213.64 253.99 1.42 c p1
241.47 143.83 1.42 c p1
178.78 325.67 1.42 c p1
158.24 288.54 1.42 c p1
263.57 231.26 1.42 c p1
175.66 240.26 1.42 c p1
231.48 210.25 1.42 c p1
314.30 123.89 1.42 c p1
170.41 360.17 1.42 c p1
160.17 260.32 1.42 c p1
233.65 177.86 1.42 c p1
188.01 213.75 1.42 c p1
177.67 258.13 1.42 c p1
168.03 374.75 1.42 c p1
172.43 269.26 1.42 c p1
171.53 289.79 1.42 c p1
417.88 91.29 1.42 c p1
0 0 0 srgb
1.07 setlinewidth
[] 0 setdash
np
46.38 53.36 m
0 2.84 l
o
np
80.88 53.36 m
0 2.84 l
o
np
105.36 53.36 m
0 2.84 l
o
np
124.35 53.36 m
0 5.67 l
o
np
139.87 53.36 m
0 2.84 l
o
np
152.99 53.36 m
0 2.84 l
o
np
164.35 53.36 m
0 2.84 l
o
np
174.37 53.36 m
0 2.84 l
o
np
183.34 53.36 m
0 8.51 l
o
np
242.32 53.36 m
0 2.84 l
o
np
276.83 53.36 m
0 2.84 l
o
np
301.31 53.36 m
0 2.84 l
o
np
320.30 53.36 m
0 5.67 l
o
np
335.81 53.36 m
0 2.84 l
o
np
348.93 53.36 m
0 2.84 l
o
np
360.29 53.36 m
0 2.84 l
o
np
370.32 53.36 m
0 2.84 l
o
np
379.28 53.36 m
0 8.51 l
o
np
438.27 53.36 m
0 2.84 l
o
np
472.77 53.36 m
0 2.84 l
o
np
497.25 53.36 m
0 2.84 l
o
np
516.24 53.36 m
0 5.67 l
o
np
531.75 53.36 m
0 2.84 l
o
np
544.87 53.36 m
0 2.84 l
o
np
556.24 53.36 m
0 2.84 l
o
np
566.26 53.36 m
0 2.84 l
o
np
46.38 448.06 m
0 -2.83 l
o
np
80.88 448.06 m
0 -2.83 l
o
np
105.36 448.06 m
0 -2.83 l
o
np
124.35 448.06 m
0 -5.67 l
o
np
139.87 448.06 m
0 -2.83 l
o
np
152.99 448.06 m
0 -2.83 l
o
np
164.35 448.06 m
0 -2.83 l
o
np
174.37 448.06 m
0 -2.83 l
o
np
183.34 448.06 m
0 -8.50 l
o
np
242.32 448.06 m
0 -2.83 l
o
np
276.83 448.06 m
0 -2.83 l
o
np
301.31 448.06 m
0 -2.83 l
o
np
320.30 448.06 m
0 -5.67 l
o
np
335.81 448.06 m
0 -2.83 l
o
np
348.93 448.06 m
0 -2.83 l
o
np
360.29 448.06 m
0 -2.83 l
o
np
370.32 448.06 m
0 -2.83 l
o
np
379.28 448.06 m
0 -8.50 l
o
np
438.27 448.06 m
0 -2.83 l
o
np
472.77 448.06 m
0 -2.83 l
o
np
497.25 448.06 m
0 -2.83 l
o
np
516.24 448.06 m
0 -5.67 l
o
np
531.75 448.06 m
0 -2.83 l
o
np
544.87 448.06 m
0 -2.83 l
o
np
556.24 448.06 m
0 -2.83 l
o
np
566.26 448.06 m
0 -2.83 l
o
np
46.38 53.36 m
0 2.84 l
o
np
80.88 53.36 m
0 2.84 l
o
np
105.36 53.36 m
0 2.84 l
o
np
124.35 53.36 m
0 5.67 l
o
np
139.87 53.36 m
0 2.84 l
o
np
152.99 53.36 m
0 2.84 l
o
np
164.35 53.36 m
0 2.84 l
o
np
174.37 53.36 m
0 2.84 l
o
np
183.34 53.36 m
0 8.51 l
o
np
242.32 53.36 m
0 2.84 l
o
np
276.83 53.36 m
0 2.84 l
o
np
301.31 53.36 m
0 2.84 l
o
np
320.30 53.36 m
0 5.67 l
o
np
335.81 53.36 m
0 2.84 l
o
np
348.93 53.36 m
0 2.84 l
o
np
360.29 53.36 m
0 2.84 l
o
np
370.32 53.36 m
0 2.84 l
o
np
379.28 53.36 m
0 8.51 l
o
np
438.27 53.36 m
0 2.84 l
o
np
472.77 53.36 m
0 2.84 l
o
np
497.25 53.36 m
0 2.84 l
o
np
516.24 53.36 m
0 5.67 l
o
np
531.75 53.36 m
0 2.84 l
o
np
544.87 53.36 m
0 2.84 l
o
np
556.24 53.36 m
0 2.84 l
o
np
566.26 53.36 m
0 2.84 l
o
0 0 1 srgb
1.07 setlinewidth
[ 3.20 1.07 1.07 1.07] 0 setdash
0 setlinecap
np
95.28 53.36 m
0 394.70 l
o
1 0 0 srgb
1.07 setlinewidth
[ 3.20 1.07] 0 setdash
np
138.75 53.36 m
0 394.70 l
o
0 0 0 srgb
0.53 setlinewidth
[ 0.53 1.60] 0 setdash
np
58.00 131.11 m
503.45 0 l
o
np
58.00 250.71 m
503.45 0 l
o
np
58.00 370.32 m
503.45 0 l
o
np
132.11 53.36 m
0 394.70 l
o
np
230.08 53.36 m
0 394.70 l
o
np
328.05 53.36 m
0 394.70 l
o
np
426.03 53.36 m
0 394.70 l
o
np
524.00 53.36 m
0 394.70 l
o
1.07 setlinewidth
[ 1.07 3.20] 0 setdash
np
58.00 71.30 m
503.45 0 l
o
np
58.00 190.91 m
503.45 0 l
o
np
58.00 310.52 m
503.45 0 l
o
np
58.00 430.12 m
503.45 0 l
o
np
80.88 53.36 m
0 394.70 l
o
np
183.34 53.36 m
0 394.70 l
o
np
276.83 53.36 m
0 394.70 l
o
np
379.28 53.36 m
0 394.70 l
o
np
472.77 53.36 m
0 394.70 l
o
0.2000 0.2000 0.2000 srgb
1.07 setlinewidth
[] 0 setdash
1 setlinecap
58.00 53.36 503.45 394.70 r p1
0.00 0.00 566.93 453.54 cl
0.00 0.00 566.93 453.54 cl
0.00 0.00 566.93 453.54 cl
0.00 0.00 566.93 453.54 cl
0.00 0.00 566.93 453.54 cl
0.00 0.00 566.93 453.54 cl
0.00 0.00 566.93 453.54 cl
0.00 0.00 566.93 453.54 cl
0.00 0.00 566.93 453.54 cl
0.00 0.00 566.93 453.54 cl
0.00 0.00 566.93 453.54 cl
0.00 0.00 566.93 453.54 cl
0.00 0.00 566.93 453.54 cl
0.00 0.00 566.93 453.54 cl
0.00 0.00 566.93 453.54 cl
0.00 0.00 566.93 453.54 cl
/Font1 findfont 20 s
0.3020 0.3020 0.3020 srgb
53.02 65.68 (0) 1 0 t
53.02 185.29 (10) 1 0 t
53.02 304.90 (20) 1 0 t
53.02 424.50 (30) 1 0 t
0.00 0.00 566.93 453.54 cl
0.00 0.00 566.93 453.54 cl
0.2000 0.2000 0.2000 srgb
1.07 setlinewidth
[] 0 setdash
0 setlinecap
1 setlinejoin
10.00 setmiterlimit
np
62.98 71.30 m
-4.98 0 l
o
np
62.98 190.91 m
-4.98 0 l
o
np
62.98 310.52 m
-4.98 0 l
o
np
62.98 430.12 m
-4.98 0 l
o
0.00 0.00 566.93 453.54 cl
0.00 0.00 566.93 453.54 cl
0.00 0.00 566.93 453.54 cl
0.00 0.00 566.93 453.54 cl
0.00 0.00 566.93 453.54 cl
0.00 0.00 566.93 453.54 cl
0.00 0.00 566.93 453.54 cl
0.00 0.00 566.93 453.54 cl
0.00 0.00 566.93 453.54 cl
0.00 0.00 566.93 453.54 cl
0.2000 0.2000 0.2000 srgb
1.07 setlinewidth
[] 0 setdash
0 setlinecap
1 setlinejoin
10.00 setmiterlimit
np
80.88 58.34 m
0 -4.98 l
o
np
183.34 58.34 m
0 -4.98 l
o
np
276.83 58.34 m
0 -4.98 l
o
np
379.28 58.34 m
0 -4.98 l
o
np
472.77 58.34 m
0 -4.98 l
o
0.00 0.00 566.93 453.54 cl
0.00 0.00 566.93 453.54 cl
/Font1 findfont 20 s
0.3020 0.3020 0.3020 srgb
80.88 37.14 (30) .5 0 t
183.34 37.14 (100) .5 0 t
276.83 37.14 (300) .5 0 t
379.28 37.14 (1000) .5 0 t
472.77 37.14 (3000) .5 0 t
0.00 0.00 566.93 453.54 cl
0.00 0.00 566.93 453.54 cl
0.00 0.00 566.93 453.54 cl
0.00 0.00 566.93 453.54 cl
0.00 0.00 566.93 453.54 cl
0.00 0.00 566.93 453.54 cl
/Font1 findfont 22 s
0 0 0 srgb
309.72 8.93 (170-231 Flux Density) .5 0 t
0.00 0.00 566.93 453.54 cl
0.00 0.00 566.93 453.54 cl
/Font1 findfont 22 s
0 0 0 srgb
17.84 250.71 (170-231 Density Error \(%\)) .5 90 t
0.00 0.00 566.93 453.54 cl
0.00 0.00 566.93 453.54 cl
0.00 0.00 566.93 453.54 cl
0.00 0.00 566.93 453.54 cl
0.00 0.00 566.93 453.54 cl
0.00 0.00 566.93 453.54 cl
0.00 0.00 566.93 453.54 cl
0.00 0.00 566.93 453.54 cl
0.00 0.00 566.93 453.54 cl
0.00 0.00 566.93 453.54 cl
0.00 0.00 566.93 453.54 cl
0.00 0.00 566.93 453.54 cl
ep
%%Trailer
%%Pages: 1
%%EOF
