%!PS-Adobe-3.0 EPSF-3.0
%%DocumentNeededResources: font Courier
%%+ font Courier-Bold
%%+ font Courier-Oblique
%%+ font Courier-BoldOblique
%%+ font Symbol
%%Title: R Graphics Output
%%Creator: R Software
%%Pages: (atend)
%%BoundingBox: 0 0 567 454
%%EndComments
%%BeginProlog
/bp  { gs sRGB gs } def
% begin .ps.prolog
/gs  { gsave } bind def
/gr  { grestore } bind def
/ep  { showpage gr gr } bind def
/m   { moveto } bind def
/l  { rlineto } bind def
/np  { newpath } bind def
/cp  { closepath } bind def
/f   { fill } bind def
/o   { stroke } bind def
/c   { newpath 0 360 arc } bind def
/r   { 4 2 roll moveto 1 copy 3 -1 roll exch 0 exch rlineto 0 rlineto -1 mul 0 exch rlineto closepath } bind def
/p1  { stroke } bind def
/p2  { gsave bg fill grestore newpath } bind def
/p3  { gsave bg fill grestore stroke } bind def
/p6  { gsave bg eofill grestore newpath } bind def
/p7  { gsave bg eofill grestore stroke } bind def
/t   { 5 -2 roll moveto gsave rotate
       1 index stringwidth pop
       mul neg 0 rmoveto show grestore } bind def
/ta  { 4 -2 roll moveto gsave rotate show } bind def
/tb  { 2 -1 roll 0 rmoveto show } bind def
/cl  { grestore gsave newpath 3 index 3 index moveto 1 index
       4 -1 roll lineto  exch 1 index lineto lineto
       closepath clip newpath } bind def
/rgb { setrgbcolor } bind def
/s   { scalefont setfont } bind def
% end   .ps.prolog
/sRGB { [ /CIEBasedABC
          << /DecodeLMN
               [ { dup 0.03928 le
                        {12.92321 div}
                        {0.055 add 1.055 div 2.4 exp }
                     ifelse
                 } bind dup dup
               ]
             /MatrixLMN [0.412457 0.212673 0.019334
                         0.357576 0.715152 0.119192
                         0.180437 0.072175 0.950301]
             /WhitePoint [0.9505 1.0 1.0890]
           >>
         ] setcolorspace } bind def
/srgb { setcolor } bind def
%%IncludeResource: font Courier
/Courier findfont
dup length dict begin
  {1 index /FID ne {def} {pop pop} ifelse} forall
  /Encoding ISOLatin1Encoding def
  currentdict
  end
/Font1 exch definefont pop
%%IncludeResource: font Courier-Bold
/Courier-Bold findfont
dup length dict begin
  {1 index /FID ne {def} {pop pop} ifelse} forall
  /Encoding ISOLatin1Encoding def
  currentdict
  end
/Font2 exch definefont pop
%%IncludeResource: font Courier-Oblique
/Courier-Oblique findfont
dup length dict begin
  {1 index /FID ne {def} {pop pop} ifelse} forall
  /Encoding ISOLatin1Encoding def
  currentdict
  end
/Font3 exch definefont pop
%%IncludeResource: font Courier-BoldOblique
/Courier-BoldOblique findfont
dup length dict begin
  {1 index /FID ne {def} {pop pop} ifelse} forall
  /Encoding ISOLatin1Encoding def
  currentdict
  end
/Font4 exch definefont pop
%%IncludeResource: font Symbol
/Symbol findfont
dup length dict begin
  {1 index /FID ne {def} {pop pop} ifelse} forall
  currentdict
  end
/Font5 exch definefont pop
%%EndProlog
%%Page: 1 1
bp
0.00 0.00 566.93 453.54 cl
0.00 0.00 566.93 453.54 cl
0.00 0.00 566.93 453.54 cl
0.00 0.00 566.93 453.54 cl
0.00 0.00 566.93 453.54 cl
0.00 0.00 566.93 453.54 cl
0.00 0.00 566.93 453.54 cl
0.00 0.00 566.93 453.54 cl
0.00 0.00 566.93 453.54 cl
0.00 0.00 566.93 453.54 cl
/bg { 1 1 1 srgb } def
1 1 1 srgb
1.07 setlinewidth
[] 0 setdash
1 setlinecap
1 setlinejoin
10.00 setmiterlimit
0.00 0.00 566.93 453.54 r p3
0.00 0.00 566.93 453.54 cl
58.00 53.36 561.45 448.06 cl
0 0 0.5020 srgb
0.71 setlinewidth
[] 0 setdash
1 setlinecap
1 setlinejoin
10.00 setmiterlimit
319.28 91.10 1.42 c p1
288.54 101.64 1.42 c p1
242.40 133.51 1.42 c p1
261.99 107.71 1.42 c p1
174.39 186.64 1.42 c p1
282.39 103.49 1.42 c p1
268.66 112.14 1.42 c p1
270.38 128.43 1.42 c p1
254.54 138.09 1.42 c p1
278.16 115.57 1.42 c p1
211.79 148.41 1.42 c p1
208.25 144.56 1.42 c p1
234.39 155.84 1.42 c p1
180.06 234.70 1.42 c p1
223.61 151.71 1.42 c p1
222.15 136.87 1.42 c p1
216.29 144.04 1.42 c p1
339.60 86.46 1.42 c p1
263.66 111.86 1.42 c p1
218.63 193.24 1.42 c p1
421.90 81.94 1.42 c p1
378.64 82.04 1.42 c p1
297.96 98.58 1.42 c p1
283.99 102.07 1.42 c p1
279.23 107.84 1.42 c p1
435.90 77.58 1.42 c p1
306.27 117.65 1.42 c p1
220.91 158.94 1.42 c p1
319.47 101.06 1.42 c p1
332.52 91.04 1.42 c p1
233.44 138.33 1.42 c p1
363.84 88.40 1.42 c p1
340.49 89.11 1.42 c p1
320.37 121.69 1.42 c p1
161.50 104.17 1.42 c p1
144.51 348.44 1.42 c p1
207.36 138.01 1.42 c p1
308.97 89.02 1.42 c p1
210.76 151.44 1.42 c p1
134.44 250.29 1.42 c p1
262.81 111.73 1.42 c p1
153.23 102.09 1.42 c p1
349.06 89.88 1.42 c p1
253.23 111.92 1.42 c p1
265.00 120.93 1.42 c p1
325.50 91.43 1.42 c p1
263.49 108.73 1.42 c p1
262.00 114.44 1.42 c p1
278.88 108.58 1.42 c p1
324.60 88.57 1.42 c p1
288.81 101.37 1.42 c p1
278.57 104.83 1.42 c p1
147.66 232.91 1.42 c p1
518.03 73.81 1.42 c p1
164.06 209.71 1.42 c p1
302.83 97.15 1.42 c p1
254.25 143.03 1.42 c p1
200.77 194.13 1.42 c p1
291.04 102.67 1.42 c p1
286.36 106.31 1.42 c p1
212.54 139.02 1.42 c p1
232.36 161.17 1.42 c p1
221.01 144.75 1.42 c p1
169.28 218.35 1.42 c p1
270.77 345.20 1.42 c p1
221.04 114.49 1.42 c p1
197.01 210.19 1.42 c p1
306.30 95.54 1.42 c p1
346.55 87.15 1.42 c p1
222.72 161.57 1.42 c p1
237.49 125.32 1.42 c p1
191.16 197.01 1.42 c p1
204.10 185.94 1.42 c p1
280.25 103.32 1.42 c p1
195.52 155.76 1.42 c p1
159.67 99.55 1.42 c p1
182.80 216.15 1.42 c p1
156.84 105.82 1.42 c p1
269.53 128.05 1.42 c p1
220.48 167.63 1.42 c p1
217.64 218.21 1.42 c p1
216.64 154.39 1.42 c p1
179.58 139.24 1.42 c p1
250.94 113.85 1.42 c p1
238.26 127.38 1.42 c p1
156.87 102.57 1.42 c p1
252.56 111.48 1.42 c p1
283.09 99.46 1.42 c p1
168.27 293.84 1.42 c p1
296.22 101.43 1.42 c p1
230.14 123.07 1.42 c p1
212.70 148.56 1.42 c p1
222.46 143.26 1.42 c p1
214.28 218.79 1.42 c p1
237.94 113.95 1.42 c p1
185.82 236.60 1.42 c p1
205.22 146.11 1.42 c p1
226.10 231.43 1.42 c p1
213.81 239.67 1.42 c p1
141.18 71.41 1.42 c p1
160.48 242.57 1.42 c p1
259.68 141.33 1.42 c p1
156.36 102.40 1.42 c p1
153.82 279.41 1.42 c p1
157.18 343.40 1.42 c p1
223.20 167.47 1.42 c p1
165.67 97.89 1.42 c p1
179.45 219.37 1.42 c p1
186.67 193.70 1.42 c p1
204.62 218.27 1.42 c p1
216.56 162.08 1.42 c p1
278.32 109.80 1.42 c p1
159.56 105.02 1.42 c p1
133.79 249.01 1.42 c p1
171.95 202.19 1.42 c p1
271.88 114.30 1.42 c p1
164.04 100.54 1.42 c p1
169.26 100.28 1.42 c p1
188.98 155.01 1.42 c p1
160.46 102.60 1.42 c p1
145.66 345.63 1.42 c p1
278.72 107.78 1.42 c p1
156.56 102.91 1.42 c p1
227.84 155.63 1.42 c p1
259.78 114.03 1.42 c p1
149.05 329.14 1.42 c p1
229.21 181.74 1.42 c p1
194.98 150.69 1.42 c p1
175.04 252.11 1.42 c p1
229.09 154.43 1.42 c p1
321.89 99.91 1.42 c p1
188.70 175.26 1.42 c p1
246.52 120.89 1.42 c p1
166.62 100.50 1.42 c p1
152.06 102.56 1.42 c p1
248.93 162.68 1.42 c p1
166.04 101.19 1.42 c p1
241.37 228.84 1.42 c p1
317.60 100.25 1.42 c p1
155.79 266.24 1.42 c p1
169.62 310.83 1.42 c p1
276.43 105.95 1.42 c p1
224.10 197.88 1.42 c p1
175.02 311.94 1.42 c p1
149.02 116.01 1.42 c p1
346.04 88.51 1.42 c p1
322.17 101.99 1.42 c p1
202.13 187.39 1.42 c p1
194.51 230.69 1.42 c p1
171.65 273.14 1.42 c p1
145.96 105.35 1.42 c p1
211.99 169.22 1.42 c p1
245.25 125.45 1.42 c p1
196.00 245.73 1.42 c p1
260.17 118.61 1.42 c p1
138.64 231.95 1.42 c p1
246.28 212.66 1.42 c p1
221.15 148.99 1.42 c p1
158.93 100.70 1.42 c p1
284.69 133.94 1.42 c p1
211.25 152.68 1.42 c p1
217.72 149.92 1.42 c p1
174.86 181.36 1.42 c p1
129.87 104.94 1.42 c p1
265.85 113.41 1.42 c p1
295.42 100.18 1.42 c p1
420.69 78.32 1.42 c p1
176.47 234.50 1.42 c p1
158.05 268.93 1.42 c p1
202.83 167.37 1.42 c p1
221.23 112.90 1.42 c p1
212.39 168.79 1.42 c p1
169.30 167.83 1.42 c p1
184.16 209.07 1.42 c p1
162.51 274.69 1.42 c p1
206.10 185.66 1.42 c p1
336.80 87.41 1.42 c p1
145.63 368.57 1.42 c p1
183.90 101.67 1.42 c p1
166.02 233.43 1.42 c p1
155.36 105.74 1.42 c p1
206.62 154.58 1.42 c p1
157.66 101.41 1.42 c p1
214.40 150.14 1.42 c p1
195.52 182.73 1.42 c p1
226.35 151.86 1.42 c p1
227.20 171.01 1.42 c p1
130.75 102.16 1.42 c p1
186.69 192.52 1.42 c p1
193.24 267.65 1.42 c p1
165.19 221.83 1.42 c p1
198.74 178.56 1.42 c p1
155.99 100.46 1.42 c p1
177.34 197.74 1.42 c p1
155.85 102.67 1.42 c p1
151.15 100.93 1.42 c p1
162.98 100.21 1.42 c p1
166.34 243.48 1.42 c p1
157.85 180.66 1.42 c p1
225.66 132.54 1.42 c p1
172.36 286.03 1.42 c p1
281.93 104.16 1.42 c p1
201.64 238.96 1.42 c p1
281.48 102.31 1.42 c p1
170.52 174.48 1.42 c p1
151.49 246.21 1.42 c p1
219.29 229.23 1.42 c p1
316.60 113.12 1.42 c p1
230.15 128.82 1.42 c p1
233.56 132.28 1.42 c p1
244.77 111.34 1.42 c p1
280.46 102.88 1.42 c p1
147.98 288.65 1.42 c p1
193.38 178.27 1.42 c p1
166.19 297.00 1.42 c p1
238.34 172.44 1.42 c p1
183.30 219.11 1.42 c p1
162.03 166.90 1.42 c p1
228.86 138.71 1.42 c p1
174.68 151.01 1.42 c p1
240.10 138.24 1.42 c p1
199.52 169.52 1.42 c p1
185.92 190.59 1.42 c p1
351.19 85.64 1.42 c p1
222.90 178.94 1.42 c p1
446.74 76.07 1.42 c p1
146.83 114.28 1.42 c p1
250.16 122.08 1.42 c p1
369.45 82.07 1.42 c p1
251.65 118.98 1.42 c p1
168.73 106.75 1.42 c p1
262.78 116.44 1.42 c p1
165.74 290.73 1.42 c p1
187.20 238.99 1.42 c p1
251.35 123.73 1.42 c p1
146.99 104.47 1.42 c p1
220.26 128.23 1.42 c p1
230.80 121.11 1.42 c p1
155.50 103.67 1.42 c p1
308.65 92.58 1.42 c p1
161.87 299.30 1.42 c p1
212.40 224.79 1.42 c p1
233.65 127.14 1.42 c p1
146.70 220.29 1.42 c p1
217.82 125.82 1.42 c p1
249.82 162.04 1.42 c p1
205.19 177.02 1.42 c p1
174.32 103.83 1.42 c p1
203.69 179.20 1.42 c p1
346.69 82.21 1.42 c p1
196.64 155.32 1.42 c p1
152.69 104.61 1.42 c p1
200.72 274.08 1.42 c p1
309.93 95.56 1.42 c p1
193.49 219.56 1.42 c p1
184.49 187.95 1.42 c p1
160.08 103.21 1.42 c p1
187.47 189.23 1.42 c p1
156.16 99.48 1.42 c p1
163.44 295.19 1.42 c p1
226.39 141.14 1.42 c p1
241.55 114.54 1.42 c p1
175.97 104.00 1.42 c p1
153.20 349.11 1.42 c p1
243.20 126.97 1.42 c p1
154.14 256.26 1.42 c p1
178.90 185.59 1.42 c p1
157.32 419.25 1.42 c p1
175.19 223.35 1.42 c p1
216.63 185.09 1.42 c p1
288.12 104.33 1.42 c p1
295.48 209.65 1.42 c p1
221.59 229.69 1.42 c p1
205.49 279.12 1.42 c p1
284.85 159.04 1.42 c p1
222.47 103.28 1.42 c p1
178.29 259.30 1.42 c p1
385.90 106.03 1.42 c p1
262.80 138.74 1.42 c p1
191.86 217.78 1.42 c p1
256.42 205.60 1.42 c p1
259.39 188.03 1.42 c p1
377.25 88.12 1.42 c p1
239.09 134.14 1.42 c p1
170.28 241.91 1.42 c p1
378.90 84.38 1.42 c p1
414.23 82.59 1.42 c p1
348.52 95.28 1.42 c p1
408.03 82.25 1.42 c p1
247.36 198.25 1.42 c p1
286.77 245.07 1.42 c p1
267.61 186.11 1.42 c p1
151.88 335.81 1.42 c p1
275.74 143.82 1.42 c p1
178.24 332.92 1.42 c p1
238.95 156.09 1.42 c p1
160.94 261.73 1.42 c p1
170.85 226.19 1.42 c p1
146.02 210.79 1.42 c p1
163.83 101.01 1.42 c p1
176.65 264.61 1.42 c p1
187.28 234.08 1.42 c p1
128.49 104.01 1.42 c p1
139.61 250.30 1.42 c p1
171.92 197.83 1.42 c p1
257.23 104.50 1.42 c p1
275.11 109.63 1.42 c p1
165.31 195.77 1.42 c p1
158.02 106.60 1.42 c p1
153.73 104.10 1.42 c p1
146.35 104.08 1.42 c p1
172.43 300.08 1.42 c p1
173.10 416.95 1.42 c p1
214.33 147.51 1.42 c p1
200.13 120.74 1.42 c p1
311.50 97.00 1.42 c p1
334.59 92.65 1.42 c p1
314.96 101.36 1.42 c p1
203.26 168.50 1.42 c p1
220.68 146.73 1.42 c p1
276.96 109.31 1.42 c p1
214.61 165.18 1.42 c p1
265.39 112.41 1.42 c p1
263.62 178.56 1.42 c p1
186.95 192.38 1.42 c p1
166.29 105.08 1.42 c p1
347.92 95.46 1.42 c p1
405.31 81.03 1.42 c p1
239.84 136.29 1.42 c p1
213.92 169.08 1.42 c p1
132.99 197.78 1.42 c p1
256.43 113.34 1.42 c p1
213.86 183.06 1.42 c p1
156.33 101.77 1.42 c p1
253.02 112.58 1.42 c p1
151.00 283.16 1.42 c p1
192.52 161.84 1.42 c p1
263.78 115.26 1.42 c p1
332.62 89.64 1.42 c p1
162.92 296.43 1.42 c p1
196.05 148.02 1.42 c p1
427.56 77.54 1.42 c p1
180.66 219.03 1.42 c p1
248.55 123.25 1.42 c p1
194.08 217.24 1.42 c p1
251.03 119.13 1.42 c p1
236.11 141.26 1.42 c p1
349.36 86.10 1.42 c p1
250.88 199.11 1.42 c p1
381.93 80.10 1.42 c p1
227.91 153.28 1.42 c p1
170.12 241.97 1.42 c p1
170.33 232.05 1.42 c p1
177.69 213.50 1.42 c p1
316.80 95.86 1.42 c p1
292.72 159.95 1.42 c p1
268.45 133.07 1.42 c p1
272.59 118.23 1.42 c p1
358.33 85.32 1.42 c p1
169.28 173.05 1.42 c p1
166.54 141.27 1.42 c p1
217.10 190.87 1.42 c p1
249.78 113.16 1.42 c p1
162.48 257.84 1.42 c p1
144.71 193.23 1.42 c p1
159.02 104.07 1.42 c p1
231.95 126.15 1.42 c p1
415.26 78.37 1.42 c p1
469.17 75.30 1.42 c p1
318.62 92.57 1.42 c p1
169.69 317.46 1.42 c p1
179.60 138.12 1.42 c p1
133.10 343.00 1.42 c p1
426.54 76.80 1.42 c p1
274.09 111.51 1.42 c p1
235.70 146.25 1.42 c p1
331.66 99.40 1.42 c p1
314.71 93.41 1.42 c p1
348.87 87.08 1.42 c p1
306.15 95.12 1.42 c p1
271.79 111.67 1.42 c p1
378.02 81.84 1.42 c p1
207.70 168.25 1.42 c p1
324.56 90.63 1.42 c p1
283.23 104.48 1.42 c p1
310.35 98.31 1.42 c p1
280.91 102.28 1.42 c p1
246.94 120.36 1.42 c p1
182.70 145.76 1.42 c p1
360.51 84.48 1.42 c p1
172.16 274.97 1.42 c p1
126.75 231.52 1.42 c p1
253.85 105.50 1.42 c p1
240.36 112.87 1.42 c p1
453.48 76.31 1.42 c p1
208.45 139.58 1.42 c p1
186.84 189.95 1.42 c p1
0 0 0 srgb
1.07 setlinewidth
[] 0 setdash
np
10.89 53.36 m
0 2.84 l
o
np
27.94 53.36 m
0 5.67 l
o
np
41.86 53.36 m
0 2.84 l
o
np
53.64 53.36 m
0 2.84 l
o
np
63.84 53.36 m
0 2.84 l
o
np
72.84 53.36 m
0 2.84 l
o
np
80.88 53.36 m
0 8.51 l
o
np
133.83 53.36 m
0 2.84 l
o
np
164.81 53.36 m
0 2.84 l
o
np
186.78 53.36 m
0 2.84 l
o
np
203.83 53.36 m
0 5.67 l
o
np
217.75 53.36 m
0 2.84 l
o
np
229.53 53.36 m
0 2.84 l
o
np
239.73 53.36 m
0 2.84 l
o
np
248.73 53.36 m
0 2.84 l
o
np
256.78 53.36 m
0 8.51 l
o
np
309.72 53.36 m
0 2.84 l
o
np
340.70 53.36 m
0 2.84 l
o
np
362.67 53.36 m
0 2.84 l
o
np
379.72 53.36 m
0 5.67 l
o
np
393.65 53.36 m
0 2.84 l
o
np
405.42 53.36 m
0 2.84 l
o
np
415.62 53.36 m
0 2.84 l
o
np
424.62 53.36 m
0 2.84 l
o
np
432.67 53.36 m
0 8.51 l
o
np
485.62 53.36 m
0 2.84 l
o
np
516.59 53.36 m
0 2.84 l
o
np
538.57 53.36 m
0 2.84 l
o
np
555.61 53.36 m
0 5.67 l
o
np
10.89 448.06 m
0 -2.83 l
o
np
27.94 448.06 m
0 -5.67 l
o
np
41.86 448.06 m
0 -2.83 l
o
np
53.64 448.06 m
0 -2.83 l
o
np
63.84 448.06 m
0 -2.83 l
o
np
72.84 448.06 m
0 -2.83 l
o
np
80.88 448.06 m
0 -8.50 l
o
np
133.83 448.06 m
0 -2.83 l
o
np
164.81 448.06 m
0 -2.83 l
o
np
186.78 448.06 m
0 -2.83 l
o
np
203.83 448.06 m
0 -5.67 l
o
np
217.75 448.06 m
0 -2.83 l
o
np
229.53 448.06 m
0 -2.83 l
o
np
239.73 448.06 m
0 -2.83 l
o
np
248.73 448.06 m
0 -2.83 l
o
np
256.78 448.06 m
0 -8.50 l
o
np
309.72 448.06 m
0 -2.83 l
o
np
340.70 448.06 m
0 -2.83 l
o
np
362.67 448.06 m
0 -2.83 l
o
np
379.72 448.06 m
0 -5.67 l
o
np
393.65 448.06 m
0 -2.83 l
o
np
405.42 448.06 m
0 -2.83 l
o
np
415.62 448.06 m
0 -2.83 l
o
np
424.62 448.06 m
0 -2.83 l
o
np
432.67 448.06 m
0 -8.50 l
o
np
485.62 448.06 m
0 -2.83 l
o
np
516.59 448.06 m
0 -2.83 l
o
np
538.57 448.06 m
0 -2.83 l
o
np
555.61 448.06 m
0 -5.67 l
o
np
10.89 53.36 m
0 2.84 l
o
np
27.94 53.36 m
0 5.67 l
o
np
41.86 53.36 m
0 2.84 l
o
np
53.64 53.36 m
0 2.84 l
o
np
63.84 53.36 m
0 2.84 l
o
np
72.84 53.36 m
0 2.84 l
o
np
80.88 53.36 m
0 8.51 l
o
np
133.83 53.36 m
0 2.84 l
o
np
164.81 53.36 m
0 2.84 l
o
np
186.78 53.36 m
0 2.84 l
o
np
203.83 53.36 m
0 5.67 l
o
np
217.75 53.36 m
0 2.84 l
o
np
229.53 53.36 m
0 2.84 l
o
np
239.73 53.36 m
0 2.84 l
o
np
248.73 53.36 m
0 2.84 l
o
np
256.78 53.36 m
0 8.51 l
o
np
309.72 53.36 m
0 2.84 l
o
np
340.70 53.36 m
0 2.84 l
o
np
362.67 53.36 m
0 2.84 l
o
np
379.72 53.36 m
0 5.67 l
o
np
393.65 53.36 m
0 2.84 l
o
np
405.42 53.36 m
0 2.84 l
o
np
415.62 53.36 m
0 2.84 l
o
np
424.62 53.36 m
0 2.84 l
o
np
432.67 53.36 m
0 8.51 l
o
np
485.62 53.36 m
0 2.84 l
o
np
516.59 53.36 m
0 2.84 l
o
np
538.57 53.36 m
0 2.84 l
o
np
555.61 53.36 m
0 5.67 l
o
0 0 1 srgb
1.07 setlinewidth
[ 3.20 1.07 1.07 1.07] 0 setdash
0 setlinecap
np
111.86 53.36 m
0 394.70 l
o
1 0 0 srgb
1.07 setlinewidth
[ 3.20 1.07] 0 setdash
np
150.88 53.36 m
0 394.70 l
o
0 0 0 srgb
0.53 setlinewidth
[ 0.53 1.60] 0 setdash
np
58.00 107.18 m
503.45 0 l
o
np
58.00 178.95 m
503.45 0 l
o
np
58.00 250.71 m
503.45 0 l
o
np
58.00 322.48 m
503.45 0 l
o
np
58.00 394.24 m
503.45 0 l
o
np
168.83 53.36 m
0 394.70 l
o
np
344.72 53.36 m
0 394.70 l
o
np
520.61 53.36 m
0 394.70 l
o
1.07 setlinewidth
[ 1.07 3.20] 0 setdash
np
58.00 71.30 m
503.45 0 l
o
np
58.00 143.07 m
503.45 0 l
o
np
58.00 214.83 m
503.45 0 l
o
np
58.00 286.59 m
503.45 0 l
o
np
58.00 358.36 m
503.45 0 l
o
np
58.00 430.12 m
503.45 0 l
o
np
80.88 53.36 m
0 394.70 l
o
np
256.78 53.36 m
0 394.70 l
o
np
432.67 53.36 m
0 394.70 l
o
0.2000 0.2000 0.2000 srgb
1.07 setlinewidth
[] 0 setdash
1 setlinecap
58.00 53.36 503.45 394.70 r p1
0.00 0.00 566.93 453.54 cl
0.00 0.00 566.93 453.54 cl
0.00 0.00 566.93 453.54 cl
0.00 0.00 566.93 453.54 cl
0.00 0.00 566.93 453.54 cl
0.00 0.00 566.93 453.54 cl
0.00 0.00 566.93 453.54 cl
0.00 0.00 566.93 453.54 cl
0.00 0.00 566.93 453.54 cl
0.00 0.00 566.93 453.54 cl
0.00 0.00 566.93 453.54 cl
0.00 0.00 566.93 453.54 cl
0.00 0.00 566.93 453.54 cl
0.00 0.00 566.93 453.54 cl
0.00 0.00 566.93 453.54 cl
0.00 0.00 566.93 453.54 cl
/Font1 findfont 20 s
0.3020 0.3020 0.3020 srgb
53.02 65.68 (0) 1 0 t
53.02 137.45 (5) 1 0 t
53.02 209.21 (10) 1 0 t
53.02 280.97 (15) 1 0 t
53.02 352.74 (20) 1 0 t
53.02 424.50 (25) 1 0 t
0.00 0.00 566.93 453.54 cl
0.00 0.00 566.93 453.54 cl
0.2000 0.2000 0.2000 srgb
1.07 setlinewidth
[] 0 setdash
0 setlinecap
1 setlinejoin
10.00 setmiterlimit
np
62.98 71.30 m
-4.98 0 l
o
np
62.98 143.07 m
-4.98 0 l
o
np
62.98 214.83 m
-4.98 0 l
o
np
62.98 286.59 m
-4.98 0 l
o
np
62.98 358.36 m
-4.98 0 l
o
np
62.98 430.12 m
-4.98 0 l
o
0.00 0.00 566.93 453.54 cl
0.00 0.00 566.93 453.54 cl
0.00 0.00 566.93 453.54 cl
0.00 0.00 566.93 453.54 cl
0.00 0.00 566.93 453.54 cl
0.00 0.00 566.93 453.54 cl
0.00 0.00 566.93 453.54 cl
0.00 0.00 566.93 453.54 cl
0.00 0.00 566.93 453.54 cl
0.00 0.00 566.93 453.54 cl
0.2000 0.2000 0.2000 srgb
1.07 setlinewidth
[] 0 setdash
0 setlinecap
1 setlinejoin
10.00 setmiterlimit
np
80.88 58.34 m
0 -4.98 l
o
np
256.78 58.34 m
0 -4.98 l
o
np
432.67 58.34 m
0 -4.98 l
o
0.00 0.00 566.93 453.54 cl
0.00 0.00 566.93 453.54 cl
/Font1 findfont 20 s
0.3020 0.3020 0.3020 srgb
80.88 37.14 (1) .5 0 t
256.78 37.14 (10) .5 0 t
432.67 37.14 (100) .5 0 t
0.00 0.00 566.93 453.54 cl
0.00 0.00 566.93 453.54 cl
0.00 0.00 566.93 453.54 cl
0.00 0.00 566.93 453.54 cl
0.00 0.00 566.93 453.54 cl
0.00 0.00 566.93 453.54 cl
/Font1 findfont 22 s
0 0 0 srgb
309.72 8.93 (3cm Flux Density) .5 0 t
0.00 0.00 566.93 453.54 cl
0.00 0.00 566.93 453.54 cl
/Font1 findfont 22 s
0 0 0 srgb
17.84 250.71 (3cm Flux Density Error \(%\)) .5 90 t
0.00 0.00 566.93 453.54 cl
0.00 0.00 566.93 453.54 cl
0.00 0.00 566.93 453.54 cl
0.00 0.00 566.93 453.54 cl
0.00 0.00 566.93 453.54 cl
0.00 0.00 566.93 453.54 cl
0.00 0.00 566.93 453.54 cl
0.00 0.00 566.93 453.54 cl
0.00 0.00 566.93 453.54 cl
0.00 0.00 566.93 453.54 cl
0.00 0.00 566.93 453.54 cl
0.00 0.00 566.93 453.54 cl
ep
%%Trailer
%%Pages: 1
%%EOF
