%!PS-Adobe-3.0 EPSF-3.0
%%DocumentNeededResources: font Courier
%%+ font Courier-Bold
%%+ font Courier-Oblique
%%+ font Courier-BoldOblique
%%+ font Symbol
%%Title: R Graphics Output
%%Creator: R Software
%%Pages: (atend)
%%BoundingBox: 0 0 567 454
%%EndComments
%%BeginProlog
/bp  { gs sRGB gs } def
% begin .ps.prolog
/gs  { gsave } bind def
/gr  { grestore } bind def
/ep  { showpage gr gr } bind def
/m   { moveto } bind def
/l  { rlineto } bind def
/np  { newpath } bind def
/cp  { closepath } bind def
/f   { fill } bind def
/o   { stroke } bind def
/c   { newpath 0 360 arc } bind def
/r   { 4 2 roll moveto 1 copy 3 -1 roll exch 0 exch rlineto 0 rlineto -1 mul 0 exch rlineto closepath } bind def
/p1  { stroke } bind def
/p2  { gsave bg fill grestore newpath } bind def
/p3  { gsave bg fill grestore stroke } bind def
/p6  { gsave bg eofill grestore newpath } bind def
/p7  { gsave bg eofill grestore stroke } bind def
/t   { 5 -2 roll moveto gsave rotate
       1 index stringwidth pop
       mul neg 0 rmoveto show grestore } bind def
/ta  { 4 -2 roll moveto gsave rotate show } bind def
/tb  { 2 -1 roll 0 rmoveto show } bind def
/cl  { grestore gsave newpath 3 index 3 index moveto 1 index
       4 -1 roll lineto  exch 1 index lineto lineto
       closepath clip newpath } bind def
/rgb { setrgbcolor } bind def
/s   { scalefont setfont } bind def
% end   .ps.prolog
/sRGB { [ /CIEBasedABC
          << /DecodeLMN
               [ { dup 0.03928 le
                        {12.92321 div}
                        {0.055 add 1.055 div 2.4 exp }
                     ifelse
                 } bind dup dup
               ]
             /MatrixLMN [0.412457 0.212673 0.019334
                         0.357576 0.715152 0.119192
                         0.180437 0.072175 0.950301]
             /WhitePoint [0.9505 1.0 1.0890]
           >>
         ] setcolorspace } bind def
/srgb { setcolor } bind def
%%IncludeResource: font Courier
/Courier findfont
dup length dict begin
  {1 index /FID ne {def} {pop pop} ifelse} forall
  /Encoding ISOLatin1Encoding def
  currentdict
  end
/Font1 exch definefont pop
%%IncludeResource: font Courier-Bold
/Courier-Bold findfont
dup length dict begin
  {1 index /FID ne {def} {pop pop} ifelse} forall
  /Encoding ISOLatin1Encoding def
  currentdict
  end
/Font2 exch definefont pop
%%IncludeResource: font Courier-Oblique
/Courier-Oblique findfont
dup length dict begin
  {1 index /FID ne {def} {pop pop} ifelse} forall
  /Encoding ISOLatin1Encoding def
  currentdict
  end
/Font3 exch definefont pop
%%IncludeResource: font Courier-BoldOblique
/Courier-BoldOblique findfont
dup length dict begin
  {1 index /FID ne {def} {pop pop} ifelse} forall
  /Encoding ISOLatin1Encoding def
  currentdict
  end
/Font4 exch definefont pop
%%IncludeResource: font Symbol
/Symbol findfont
dup length dict begin
  {1 index /FID ne {def} {pop pop} ifelse} forall
  currentdict
  end
/Font5 exch definefont pop
%%EndProlog
%%Page: 1 1
bp
0.00 0.00 566.93 453.54 cl
0.00 0.00 566.93 453.54 cl
0.00 0.00 566.93 453.54 cl
0.00 0.00 566.93 453.54 cl
0.00 0.00 566.93 453.54 cl
0.00 0.00 566.93 453.54 cl
0.00 0.00 566.93 453.54 cl
0.00 0.00 566.93 453.54 cl
0.00 0.00 566.93 453.54 cl
0.00 0.00 566.93 453.54 cl
/bg { 1 1 1 srgb } def
1 1 1 srgb
1.07 setlinewidth
[] 0 setdash
1 setlinecap
1 setlinejoin
10.00 setmiterlimit
0.00 0.00 566.93 453.54 r p3
0.00 0.00 566.93 453.54 cl
58.00 53.36 561.45 448.06 cl
0 0 0.5020 srgb
0.71 setlinewidth
[] 0 setdash
1 setlinecap
1 setlinejoin
10.00 setmiterlimit
305.91 91.36 1.42 c p1
293.09 93.36 1.42 c p1
245.13 109.76 1.42 c p1
337.04 78.72 1.42 c p1
310.75 80.99 1.42 c p1
278.34 82.18 1.42 c p1
327.20 78.61 1.42 c p1
306.89 83.71 1.42 c p1
312.14 82.50 1.42 c p1
263.68 90.03 1.42 c p1
354.27 78.44 1.42 c p1
208.27 129.14 1.42 c p1
288.66 82.60 1.42 c p1
235.96 97.60 1.42 c p1
299.43 79.92 1.42 c p1
203.20 106.77 1.42 c p1
269.16 88.83 1.42 c p1
213.46 130.98 1.42 c p1
227.39 104.92 1.42 c p1
273.42 86.07 1.42 c p1
206.56 112.70 1.42 c p1
364.86 76.46 1.42 c p1
315.71 73.73 1.42 c p1
278.91 89.90 1.42 c p1
445.28 74.70 1.42 c p1
378.36 72.02 1.42 c p1
316.85 80.68 1.42 c p1
337.52 78.85 1.42 c p1
323.65 80.52 1.42 c p1
243.15 95.78 1.42 c p1
442.15 71.67 1.42 c p1
337.80 81.41 1.42 c p1
285.07 97.60 1.42 c p1
354.19 79.13 1.42 c p1
287.06 86.83 1.42 c p1
421.41 71.76 1.42 c p1
355.99 82.03 1.42 c p1
213.34 106.40 1.42 c p1
256.94 108.59 1.42 c p1
230.31 98.05 1.42 c p1
290.17 88.25 1.42 c p1
221.28 136.43 1.42 c p1
367.42 75.49 1.42 c p1
250.51 88.19 1.42 c p1
282.56 86.04 1.42 c p1
251.11 85.35 1.42 c p1
300.17 84.40 1.42 c p1
281.92 96.08 1.42 c p1
388.31 76.05 1.42 c p1
294.64 84.42 1.42 c p1
311.75 81.63 1.42 c p1
372.65 76.20 1.42 c p1
311.65 80.93 1.42 c p1
308.38 82.78 1.42 c p1
349.70 77.61 1.42 c p1
346.70 80.43 1.42 c p1
310.14 81.50 1.42 c p1
286.44 108.61 1.42 c p1
255.45 92.50 1.42 c p1
535.43 72.18 1.42 c p1
238.57 93.59 1.42 c p1
323.38 79.66 1.42 c p1
292.84 84.85 1.42 c p1
270.84 90.46 1.42 c p1
317.18 81.58 1.42 c p1
339.35 78.68 1.42 c p1
257.03 78.64 1.42 c p1
271.52 84.72 1.42 c p1
192.85 139.38 1.42 c p1
302.48 83.53 1.42 c p1
285.73 87.82 1.42 c p1
245.37 93.01 1.42 c p1
257.22 88.51 1.42 c p1
262.42 93.34 1.42 c p1
359.53 72.21 1.42 c p1
238.70 97.14 1.42 c p1
227.26 131.69 1.42 c p1
183.31 149.57 1.42 c p1
472.57 72.70 1.42 c p1
271.27 88.85 1.42 c p1
294.03 84.28 1.42 c p1
274.37 89.05 1.42 c p1
216.91 106.21 1.42 c p1
221.40 142.53 1.42 c p1
141.81 188.10 1.42 c p1
182.21 85.45 1.42 c p1
161.39 177.25 1.42 c p1
155.14 138.81 1.42 c p1
334.65 79.35 1.42 c p1
172.21 157.87 1.42 c p1
276.36 89.89 1.42 c p1
230.84 123.70 1.42 c p1
259.89 92.86 1.42 c p1
243.87 104.84 1.42 c p1
167.26 178.71 1.42 c p1
196.51 111.80 1.42 c p1
202.68 140.91 1.42 c p1
194.66 129.97 1.42 c p1
332.53 83.09 1.42 c p1
175.61 158.09 1.42 c p1
127.87 209.09 1.42 c p1
194.85 113.36 1.42 c p1
251.40 109.57 1.42 c p1
384.35 76.58 1.42 c p1
272.05 92.47 1.42 c p1
251.34 96.56 1.42 c p1
151.08 213.15 1.42 c p1
274.38 92.25 1.42 c p1
258.14 84.18 1.42 c p1
142.13 90.74 1.42 c p1
210.80 144.03 1.42 c p1
299.35 85.97 1.42 c p1
182.81 171.43 1.42 c p1
156.67 147.82 1.42 c p1
184.82 90.80 1.42 c p1
135.04 295.48 1.42 c p1
300.87 84.88 1.42 c p1
185.12 135.93 1.42 c p1
217.20 111.74 1.42 c p1
161.88 211.68 1.42 c p1
311.61 72.51 1.42 c p1
316.18 77.88 1.42 c p1
202.54 189.50 1.42 c p1
208.05 111.91 1.42 c p1
153.24 156.16 1.42 c p1
154.36 188.75 1.42 c p1
179.63 163.93 1.42 c p1
184.13 142.91 1.42 c p1
305.14 81.31 1.42 c p1
233.20 115.27 1.42 c p1
159.77 176.75 1.42 c p1
286.05 86.02 1.42 c p1
266.17 87.65 1.42 c p1
150.46 162.17 1.42 c p1
180.21 130.05 1.42 c p1
196.27 81.21 1.42 c p1
181.16 139.31 1.42 c p1
290.19 86.93 1.42 c p1
190.15 125.07 1.42 c p1
191.44 113.57 1.42 c p1
213.48 116.52 1.42 c p1
161.16 169.36 1.42 c p1
223.47 113.13 1.42 c p1
123.00 348.96 1.42 c p1
289.38 94.50 1.42 c p1
276.61 89.88 1.42 c p1
344.88 72.87 1.42 c p1
273.05 93.19 1.42 c p1
251.13 79.11 1.42 c p1
154.26 160.59 1.42 c p1
278.17 75.36 1.42 c p1
218.95 102.36 1.42 c p1
182.99 137.91 1.42 c p1
204.64 110.22 1.42 c p1
240.66 104.90 1.42 c p1
225.38 76.57 1.42 c p1
186.56 157.08 1.42 c p1
283.38 73.54 1.42 c p1
250.59 93.15 1.42 c p1
133.04 294.21 1.42 c p1
241.05 106.71 1.42 c p1
160.04 142.10 1.42 c p1
255.54 92.22 1.42 c p1
193.18 137.69 1.42 c p1
247.46 94.90 1.42 c p1
167.35 141.48 1.42 c p1
200.20 150.77 1.42 c p1
161.18 153.49 1.42 c p1
224.38 98.72 1.42 c p1
269.74 90.89 1.42 c p1
374.30 79.82 1.42 c p1
374.30 79.82 1.42 c p1
267.86 92.40 1.42 c p1
325.25 81.04 1.42 c p1
155.06 131.88 1.42 c p1
194.77 107.09 1.42 c p1
245.94 93.02 1.42 c p1
250.45 91.53 1.42 c p1
153.16 184.97 1.42 c p1
148.10 240.47 1.42 c p1
233.74 124.29 1.42 c p1
223.77 104.89 1.42 c p1
141.68 148.96 1.42 c p1
265.74 100.79 1.42 c p1
175.39 138.51 1.42 c p1
190.18 118.09 1.42 c p1
127.02 226.68 1.42 c p1
266.38 89.48 1.42 c p1
276.10 84.66 1.42 c p1
146.37 234.47 1.42 c p1
149.92 161.25 1.42 c p1
248.15 102.17 1.42 c p1
201.99 148.72 1.42 c p1
166.57 202.51 1.42 c p1
205.97 150.12 1.42 c p1
138.36 271.69 1.42 c p1
181.15 169.58 1.42 c p1
198.61 108.84 1.42 c p1
174.16 155.67 1.42 c p1
238.99 91.66 1.42 c p1
263.76 91.28 1.42 c p1
185.42 135.54 1.42 c p1
168.85 153.03 1.42 c p1
342.03 80.05 1.42 c p1
153.63 231.90 1.42 c p1
230.41 117.73 1.42 c p1
214.71 133.23 1.42 c p1
224.65 162.14 1.42 c p1
178.09 142.89 1.42 c p1
214.70 126.38 1.42 c p1
177.01 91.11 1.42 c p1
260.60 94.88 1.42 c p1
145.44 183.87 1.42 c p1
301.15 82.90 1.42 c p1
232.23 105.19 1.42 c p1
172.20 145.29 1.42 c p1
217.28 116.90 1.42 c p1
168.64 173.30 1.42 c p1
180.22 145.98 1.42 c p1
302.27 83.78 1.42 c p1
170.53 250.28 1.42 c p1
185.08 131.60 1.42 c p1
290.29 84.19 1.42 c p1
417.72 71.80 1.42 c p1
227.19 101.54 1.42 c p1
178.92 171.40 1.42 c p1
162.80 168.27 1.42 c p1
232.31 105.98 1.42 c p1
161.07 183.98 1.42 c p1
175.04 146.93 1.42 c p1
196.21 124.92 1.42 c p1
195.33 160.10 1.42 c p1
169.55 114.08 1.42 c p1
208.45 91.60 1.42 c p1
377.81 78.49 1.42 c p1
144.33 372.01 1.42 c p1
271.09 101.93 1.42 c p1
180.65 249.61 1.42 c p1
209.63 103.36 1.42 c p1
172.88 221.83 1.42 c p1
230.95 105.53 1.42 c p1
212.84 111.46 1.42 c p1
195.56 115.42 1.42 c p1
223.71 125.52 1.42 c p1
192.90 262.17 1.42 c p1
173.84 144.07 1.42 c p1
144.98 176.36 1.42 c p1
389.42 75.43 1.42 c p1
181.28 143.69 1.42 c p1
132.37 238.36 1.42 c p1
139.19 218.74 1.42 c p1
362.71 77.71 1.42 c p1
202.57 156.68 1.42 c p1
156.02 149.40 1.42 c p1
253.41 76.39 1.42 c p1
184.51 117.36 1.42 c p1
172.63 155.87 1.42 c p1
152.16 186.66 1.42 c p1
252.10 140.42 1.42 c p1
152.64 150.50 1.42 c p1
225.76 125.95 1.42 c p1
175.20 138.14 1.42 c p1
151.66 226.35 1.42 c p1
228.66 117.63 1.42 c p1
228.66 117.63 1.42 c p1
184.74 144.86 1.42 c p1
262.89 75.87 1.42 c p1
195.53 139.88 1.42 c p1
292.05 86.26 1.42 c p1
257.66 107.38 1.42 c p1
321.93 85.24 1.42 c p1
321.93 85.24 1.42 c p1
289.01 84.04 1.42 c p1
242.94 93.45 1.42 c p1
203.29 130.94 1.42 c p1
149.45 218.98 1.42 c p1
271.70 94.27 1.42 c p1
248.27 96.82 1.42 c p1
231.65 111.23 1.42 c p1
140.38 276.81 1.42 c p1
209.55 126.57 1.42 c p1
139.86 227.06 1.42 c p1
184.45 141.71 1.42 c p1
165.94 89.96 1.42 c p1
182.64 168.79 1.42 c p1
359.37 82.20 1.42 c p1
268.81 85.89 1.42 c p1
262.48 94.57 1.42 c p1
162.33 153.16 1.42 c p1
214.19 115.66 1.42 c p1
290.35 82.26 1.42 c p1
144.22 104.22 1.42 c p1
194.06 137.95 1.42 c p1
147.60 143.69 1.42 c p1
175.98 144.89 1.42 c p1
311.82 80.42 1.42 c p1
198.92 132.79 1.42 c p1
186.00 108.81 1.42 c p1
152.86 262.08 1.42 c p1
345.82 79.15 1.42 c p1
410.00 74.63 1.42 c p1
198.10 118.97 1.42 c p1
150.81 144.85 1.42 c p1
239.11 99.00 1.42 c p1
135.67 133.78 1.42 c p1
173.20 164.37 1.42 c p1
155.76 160.66 1.42 c p1
279.13 88.07 1.42 c p1
295.69 81.30 1.42 c p1
247.59 97.16 1.42 c p1
236.94 118.99 1.42 c p1
170.55 173.21 1.42 c p1
282.56 91.16 1.42 c p1
184.63 89.59 1.42 c p1
189.31 148.23 1.42 c p1
173.84 127.12 1.42 c p1
255.41 85.83 1.42 c p1
207.25 111.71 1.42 c p1
158.90 157.01 1.42 c p1
201.22 136.22 1.42 c p1
273.59 83.85 1.42 c p1
209.81 172.36 1.42 c p1
201.57 117.61 1.42 c p1
241.94 88.86 1.42 c p1
244.21 93.46 1.42 c p1
252.88 92.90 1.42 c p1
203.15 152.55 1.42 c p1
149.03 171.23 1.42 c p1
178.11 109.17 1.42 c p1
257.03 104.28 1.42 c p1
229.38 104.93 1.42 c p1
167.49 175.90 1.42 c p1
261.80 106.05 1.42 c p1
271.81 97.57 1.42 c p1
205.59 159.32 1.42 c p1
197.10 161.25 1.42 c p1
175.27 152.89 1.42 c p1
214.63 141.28 1.42 c p1
175.06 161.48 1.42 c p1
156.59 220.08 1.42 c p1
218.74 116.50 1.42 c p1
206.38 153.97 1.42 c p1
393.73 71.94 1.42 c p1
191.39 137.71 1.42 c p1
201.70 116.83 1.42 c p1
145.13 182.83 1.42 c p1
163.94 110.10 1.42 c p1
234.36 115.16 1.42 c p1
166.25 184.64 1.42 c p1
245.50 148.44 1.42 c p1
226.97 100.05 1.42 c p1
230.40 116.78 1.42 c p1
282.80 92.47 1.42 c p1
217.07 140.15 1.42 c p1
237.69 95.95 1.42 c p1
191.63 161.57 1.42 c p1
171.39 162.26 1.42 c p1
250.67 95.36 1.42 c p1
238.90 110.15 1.42 c p1
191.51 197.56 1.42 c p1
204.06 88.85 1.42 c p1
212.04 116.68 1.42 c p1
204.96 122.97 1.42 c p1
190.93 114.38 1.42 c p1
159.44 127.43 1.42 c p1
207.59 119.73 1.42 c p1
208.54 108.89 1.42 c p1
236.53 95.71 1.42 c p1
241.18 122.43 1.42 c p1
228.39 100.49 1.42 c p1
154.78 188.31 1.42 c p1
240.76 93.05 1.42 c p1
199.52 134.12 1.42 c p1
195.92 151.57 1.42 c p1
179.46 121.04 1.42 c p1
207.91 148.12 1.42 c p1
189.55 122.49 1.42 c p1
213.22 107.01 1.42 c p1
259.11 77.90 1.42 c p1
186.30 128.56 1.42 c p1
153.60 170.12 1.42 c p1
216.76 143.08 1.42 c p1
186.53 177.42 1.42 c p1
185.27 161.44 1.42 c p1
231.07 93.24 1.42 c p1
171.95 161.69 1.42 c p1
162.57 237.21 1.42 c p1
168.07 261.95 1.42 c p1
219.03 113.15 1.42 c p1
215.58 156.58 1.42 c p1
194.35 159.35 1.42 c p1
146.28 122.44 1.42 c p1
197.77 144.46 1.42 c p1
375.51 72.06 1.42 c p1
194.89 115.14 1.42 c p1
183.19 121.61 1.42 c p1
212.45 118.68 1.42 c p1
204.22 131.51 1.42 c p1
181.82 132.56 1.42 c p1
154.14 193.48 1.42 c p1
139.56 346.55 1.42 c p1
218.38 146.38 1.42 c p1
143.21 255.10 1.42 c p1
175.19 168.11 1.42 c p1
156.87 154.23 1.42 c p1
133.76 201.26 1.42 c p1
189.76 131.33 1.42 c p1
218.73 114.45 1.42 c p1
172.37 137.82 1.42 c p1
206.56 123.76 1.42 c p1
201.64 122.78 1.42 c p1
264.71 89.86 1.42 c p1
157.67 163.02 1.42 c p1
186.32 179.98 1.42 c p1
228.43 141.46 1.42 c p1
206.16 132.68 1.42 c p1
313.76 81.64 1.42 c p1
232.71 104.28 1.42 c p1
173.19 136.16 1.42 c p1
256.34 154.54 1.42 c p1
282.36 93.15 1.42 c p1
286.35 84.99 1.42 c p1
222.99 120.12 1.42 c p1
209.49 107.11 1.42 c p1
222.84 128.88 1.42 c p1
198.11 108.88 1.42 c p1
187.71 153.62 1.42 c p1
226.58 120.30 1.42 c p1
201.44 173.35 1.42 c p1
208.27 125.86 1.42 c p1
177.50 158.90 1.42 c p1
192.66 138.23 1.42 c p1
206.80 145.59 1.42 c p1
332.79 80.64 1.42 c p1
245.65 100.31 1.42 c p1
241.96 114.46 1.42 c p1
246.33 91.79 1.42 c p1
242.36 109.15 1.42 c p1
218.11 105.50 1.42 c p1
276.00 85.48 1.42 c p1
275.32 93.34 1.42 c p1
209.84 106.44 1.42 c p1
213.75 121.57 1.42 c p1
214.56 111.64 1.42 c p1
194.02 124.29 1.42 c p1
273.50 150.24 1.42 c p1
225.29 106.59 1.42 c p1
369.76 76.54 1.42 c p1
192.21 163.58 1.42 c p1
185.30 124.67 1.42 c p1
183.11 159.27 1.42 c p1
186.81 149.54 1.42 c p1
248.42 149.91 1.42 c p1
242.45 135.67 1.42 c p1
183.97 127.89 1.42 c p1
244.91 97.53 1.42 c p1
265.92 90.11 1.42 c p1
200.83 127.13 1.42 c p1
228.03 103.68 1.42 c p1
166.30 153.48 1.42 c p1
241.30 106.74 1.42 c p1
279.38 134.88 1.42 c p1
269.93 87.23 1.42 c p1
192.60 118.30 1.42 c p1
366.62 76.65 1.42 c p1
225.42 130.01 1.42 c p1
447.85 73.35 1.42 c p1
177.00 134.96 1.42 c p1
180.52 111.65 1.42 c p1
203.21 151.77 1.42 c p1
182.55 180.06 1.42 c p1
266.40 91.39 1.42 c p1
386.30 75.66 1.42 c p1
227.21 147.36 1.42 c p1
252.91 91.36 1.42 c p1
233.87 97.49 1.42 c p1
221.14 150.58 1.42 c p1
275.14 100.17 1.42 c p1
128.40 90.60 1.42 c p1
204.19 126.87 1.42 c p1
243.87 124.06 1.42 c p1
249.84 96.57 1.42 c p1
212.22 102.38 1.42 c p1
194.90 127.23 1.42 c p1
242.35 95.25 1.42 c p1
197.75 134.61 1.42 c p1
236.56 106.47 1.42 c p1
225.95 114.80 1.42 c p1
336.83 79.94 1.42 c p1
164.55 159.98 1.42 c p1
148.37 167.75 1.42 c p1
232.92 112.40 1.42 c p1
246.57 155.24 1.42 c p1
245.89 121.26 1.42 c p1
200.06 120.57 1.42 c p1
230.63 141.84 1.42 c p1
247.51 119.51 1.42 c p1
216.94 108.03 1.42 c p1
255.11 89.93 1.42 c p1
183.73 174.48 1.42 c p1
164.49 186.73 1.42 c p1
218.01 135.26 1.42 c p1
180.02 126.86 1.42 c p1
289.30 80.53 1.42 c p1
173.27 163.24 1.42 c p1
239.05 138.28 1.42 c p1
264.76 108.63 1.42 c p1
204.94 124.00 1.42 c p1
218.17 108.85 1.42 c p1
230.50 76.25 1.42 c p1
242.02 109.52 1.42 c p1
164.33 195.05 1.42 c p1
170.78 184.07 1.42 c p1
235.87 94.95 1.42 c p1
220.70 103.91 1.42 c p1
226.34 125.35 1.42 c p1
361.11 76.25 1.42 c p1
131.94 138.16 1.42 c p1
232.89 98.40 1.42 c p1
212.16 130.62 1.42 c p1
247.00 157.87 1.42 c p1
206.80 100.39 1.42 c p1
334.51 79.40 1.42 c p1
200.45 135.03 1.42 c p1
227.69 135.17 1.42 c p1
174.40 161.72 1.42 c p1
155.84 160.24 1.42 c p1
192.14 127.72 1.42 c p1
194.06 118.50 1.42 c p1
214.27 124.50 1.42 c p1
228.62 128.41 1.42 c p1
196.37 152.72 1.42 c p1
219.96 96.69 1.42 c p1
207.90 137.71 1.42 c p1
214.56 115.47 1.42 c p1
175.42 109.73 1.42 c p1
257.99 90.86 1.42 c p1
223.51 95.34 1.42 c p1
159.80 142.83 1.42 c p1
193.26 149.76 1.42 c p1
256.40 91.69 1.42 c p1
185.23 152.72 1.42 c p1
205.60 98.73 1.42 c p1
231.24 122.61 1.42 c p1
201.64 146.16 1.42 c p1
149.81 179.77 1.42 c p1
196.63 114.67 1.42 c p1
223.78 101.36 1.42 c p1
139.01 206.88 1.42 c p1
199.52 123.01 1.42 c p1
324.39 81.62 1.42 c p1
205.90 124.37 1.42 c p1
277.61 148.88 1.42 c p1
310.97 77.97 1.42 c p1
307.20 103.68 1.42 c p1
163.41 164.21 1.42 c p1
335.65 84.65 1.42 c p1
268.97 76.89 1.42 c p1
250.25 88.37 1.42 c p1
212.42 143.39 1.42 c p1
196.40 170.49 1.42 c p1
275.97 104.13 1.42 c p1
324.33 110.12 1.42 c p1
232.39 114.12 1.42 c p1
344.83 73.69 1.42 c p1
225.32 133.48 1.42 c p1
243.20 132.13 1.42 c p1
194.02 130.92 1.42 c p1
266.31 109.63 1.42 c p1
282.73 114.97 1.42 c p1
161.29 138.54 1.42 c p1
301.05 84.42 1.42 c p1
233.67 77.57 1.42 c p1
150.28 218.36 1.42 c p1
279.02 112.70 1.42 c p1
279.02 112.70 1.42 c p1
297.26 118.92 1.42 c p1
348.84 82.46 1.42 c p1
167.41 182.06 1.42 c p1
370.19 83.79 1.42 c p1
380.85 81.71 1.42 c p1
256.32 106.63 1.42 c p1
285.85 86.20 1.42 c p1
259.95 144.00 1.42 c p1
183.30 154.10 1.42 c p1
326.96 132.09 1.42 c p1
217.00 114.56 1.42 c p1
300.98 110.29 1.42 c p1
256.21 146.22 1.42 c p1
161.25 192.74 1.42 c p1
159.05 159.81 1.42 c p1
192.18 145.11 1.42 c p1
212.50 173.32 1.42 c p1
171.68 176.06 1.42 c p1
143.53 89.95 1.42 c p1
151.49 283.74 1.42 c p1
215.39 140.10 1.42 c p1
151.41 179.80 1.42 c p1
126.05 213.92 1.42 c p1
159.36 89.96 1.42 c p1
183.80 148.15 1.42 c p1
172.96 182.59 1.42 c p1
162.45 160.95 1.42 c p1
135.73 209.42 1.42 c p1
153.19 154.18 1.42 c p1
194.58 98.88 1.42 c p1
225.89 123.03 1.42 c p1
162.41 170.21 1.42 c p1
196.39 120.45 1.42 c p1
201.12 143.56 1.42 c p1
179.53 127.18 1.42 c p1
202.32 141.85 1.42 c p1
186.51 142.62 1.42 c p1
180.15 123.55 1.42 c p1
180.37 144.60 1.42 c p1
204.22 121.85 1.42 c p1
129.98 281.34 1.42 c p1
209.25 108.18 1.42 c p1
176.88 153.34 1.42 c p1
209.21 118.72 1.42 c p1
166.73 180.85 1.42 c p1
151.22 181.76 1.42 c p1
201.81 113.21 1.42 c p1
267.47 88.58 1.42 c p1
244.97 132.33 1.42 c p1
133.55 301.50 1.42 c p1
135.70 169.55 1.42 c p1
151.27 210.01 1.42 c p1
169.99 181.60 1.42 c p1
220.45 100.13 1.42 c p1
271.26 87.35 1.42 c p1
264.04 87.90 1.42 c p1
219.81 106.10 1.42 c p1
361.46 72.14 1.42 c p1
141.12 235.26 1.42 c p1
344.88 72.87 1.42 c p1
346.67 78.37 1.42 c p1
259.82 90.96 1.42 c p1
289.82 87.04 1.42 c p1
195.47 119.71 1.42 c p1
300.04 83.75 1.42 c p1
267.96 90.62 1.42 c p1
309.82 87.50 1.42 c p1
289.90 87.39 1.42 c p1
234.00 101.45 1.42 c p1
230.66 119.87 1.42 c p1
186.84 138.96 1.42 c p1
187.31 136.43 1.42 c p1
404.74 76.33 1.42 c p1
167.72 158.28 1.42 c p1
167.91 132.62 1.42 c p1
203.46 107.84 1.42 c p1
210.38 130.89 1.42 c p1
298.57 85.55 1.42 c p1
290.92 86.05 1.42 c p1
205.56 99.75 1.42 c p1
166.61 168.90 1.42 c p1
214.75 115.09 1.42 c p1
225.60 185.92 1.42 c p1
139.71 318.20 1.42 c p1
157.22 255.30 1.42 c p1
190.85 128.30 1.42 c p1
306.27 81.76 1.42 c p1
189.62 138.13 1.42 c p1
188.45 156.25 1.42 c p1
202.49 114.10 1.42 c p1
216.67 147.64 1.42 c p1
243.96 108.76 1.42 c p1
173.00 153.70 1.42 c p1
182.84 124.85 1.42 c p1
122.25 340.09 1.42 c p1
207.83 118.23 1.42 c p1
217.62 108.75 1.42 c p1
295.93 84.95 1.42 c p1
224.80 102.36 1.42 c p1
239.48 97.77 1.42 c p1
170.66 136.98 1.42 c p1
215.10 104.47 1.42 c p1
356.46 72.24 1.42 c p1
162.94 182.91 1.42 c p1
244.78 115.77 1.42 c p1
230.36 97.27 1.42 c p1
147.60 184.53 1.42 c p1
175.16 145.24 1.42 c p1
167.42 179.82 1.42 c p1
444.90 73.61 1.42 c p1
222.54 111.54 1.42 c p1
216.87 82.52 1.42 c p1
177.17 149.67 1.42 c p1
270.73 86.90 1.42 c p1
201.73 113.00 1.42 c p1
157.22 85.10 1.42 c p1
212.18 131.93 1.42 c p1
250.85 94.25 1.42 c p1
323.52 81.02 1.42 c p1
256.04 99.77 1.42 c p1
236.08 110.30 1.42 c p1
150.86 156.36 1.42 c p1
374.89 75.28 1.42 c p1
273.15 87.12 1.42 c p1
206.49 115.16 1.42 c p1
178.39 165.56 1.42 c p1
260.46 93.19 1.42 c p1
220.15 122.37 1.42 c p1
234.00 101.01 1.42 c p1
332.64 72.87 1.42 c p1
292.81 106.22 1.42 c p1
204.00 148.47 1.42 c p1
273.71 102.75 1.42 c p1
359.64 80.13 1.42 c p1
207.83 106.94 1.42 c p1
138.82 152.87 1.42 c p1
202.03 106.41 1.42 c p1
159.82 187.82 1.42 c p1
234.69 99.57 1.42 c p1
172.64 128.79 1.42 c p1
166.61 142.28 1.42 c p1
176.90 163.63 1.42 c p1
188.97 157.33 1.42 c p1
453.54 71.56 1.42 c p1
206.04 112.04 1.42 c p1
333.58 79.56 1.42 c p1
183.27 172.31 1.42 c p1
165.23 143.48 1.42 c p1
228.65 90.85 1.42 c p1
392.04 74.36 1.42 c p1
273.18 87.17 1.42 c p1
241.95 110.11 1.42 c p1
273.35 87.92 1.42 c p1
344.68 81.50 1.42 c p1
366.37 76.62 1.42 c p1
347.32 78.40 1.42 c p1
294.86 73.55 1.42 c p1
312.90 82.24 1.42 c p1
148.21 177.39 1.42 c p1
361.10 76.79 1.42 c p1
213.90 103.02 1.42 c p1
175.90 163.00 1.42 c p1
350.31 79.38 1.42 c p1
314.54 81.28 1.42 c p1
312.05 80.79 1.42 c p1
299.08 83.72 1.42 c p1
298.76 85.15 1.42 c p1
175.06 114.77 1.42 c p1
365.27 77.36 1.42 c p1
228.66 123.89 1.42 c p1
187.62 108.85 1.42 c p1
152.42 141.76 1.42 c p1
278.58 84.04 1.42 c p1
282.75 80.55 1.42 c p1
455.44 73.32 1.42 c p1
235.48 93.24 1.42 c p1
177.56 138.41 1.42 c p1
138.52 131.47 1.42 c p1
0 0 0 srgb
1.07 setlinewidth
[] 0 setdash
np
13.07 53.36 m
0 2.84 l
o
np
32.96 53.36 m
0 2.84 l
o
np
48.39 53.36 m
0 5.67 l
o
np
60.99 53.36 m
0 2.84 l
o
np
71.65 53.36 m
0 2.84 l
o
np
80.88 53.36 m
0 2.84 l
o
np
89.03 53.36 m
0 2.84 l
o
np
96.31 53.36 m
0 8.51 l
o
np
144.23 53.36 m
0 2.84 l
o
np
172.26 53.36 m
0 2.84 l
o
np
192.15 53.36 m
0 2.84 l
o
np
207.58 53.36 m
0 5.67 l
o
np
220.19 53.36 m
0 2.84 l
o
np
230.84 53.36 m
0 2.84 l
o
np
240.07 53.36 m
0 2.84 l
o
np
248.22 53.36 m
0 2.84 l
o
np
255.50 53.36 m
0 8.51 l
o
np
303.42 53.36 m
0 2.84 l
o
np
331.45 53.36 m
0 2.84 l
o
np
351.34 53.36 m
0 2.84 l
o
np
366.77 53.36 m
0 5.67 l
o
np
379.38 53.36 m
0 2.84 l
o
np
390.03 53.36 m
0 2.84 l
o
np
399.26 53.36 m
0 2.84 l
o
np
407.41 53.36 m
0 2.84 l
o
np
414.69 53.36 m
0 8.51 l
o
np
462.61 53.36 m
0 2.84 l
o
np
490.64 53.36 m
0 2.84 l
o
np
510.53 53.36 m
0 2.84 l
o
np
525.96 53.36 m
0 5.67 l
o
np
538.57 53.36 m
0 2.84 l
o
np
549.22 53.36 m
0 2.84 l
o
np
558.45 53.36 m
0 2.84 l
o
np
566.60 53.36 m
0 2.84 l
o
np
13.07 448.06 m
0 -2.83 l
o
np
32.96 448.06 m
0 -2.83 l
o
np
48.39 448.06 m
0 -5.67 l
o
np
60.99 448.06 m
0 -2.83 l
o
np
71.65 448.06 m
0 -2.83 l
o
np
80.88 448.06 m
0 -2.83 l
o
np
89.03 448.06 m
0 -2.83 l
o
np
96.31 448.06 m
0 -8.50 l
o
np
144.23 448.06 m
0 -2.83 l
o
np
172.26 448.06 m
0 -2.83 l
o
np
192.15 448.06 m
0 -2.83 l
o
np
207.58 448.06 m
0 -5.67 l
o
np
220.19 448.06 m
0 -2.83 l
o
np
230.84 448.06 m
0 -2.83 l
o
np
240.07 448.06 m
0 -2.83 l
o
np
248.22 448.06 m
0 -2.83 l
o
np
255.50 448.06 m
0 -8.50 l
o
np
303.42 448.06 m
0 -2.83 l
o
np
331.45 448.06 m
0 -2.83 l
o
np
351.34 448.06 m
0 -2.83 l
o
np
366.77 448.06 m
0 -5.67 l
o
np
379.38 448.06 m
0 -2.83 l
o
np
390.03 448.06 m
0 -2.83 l
o
np
399.26 448.06 m
0 -2.83 l
o
np
407.41 448.06 m
0 -2.83 l
o
np
414.69 448.06 m
0 -8.50 l
o
np
462.61 448.06 m
0 -2.83 l
o
np
490.64 448.06 m
0 -2.83 l
o
np
510.53 448.06 m
0 -2.83 l
o
np
525.96 448.06 m
0 -5.67 l
o
np
538.57 448.06 m
0 -2.83 l
o
np
549.22 448.06 m
0 -2.83 l
o
np
558.45 448.06 m
0 -2.83 l
o
np
566.60 448.06 m
0 -2.83 l
o
np
13.07 53.36 m
0 2.84 l
o
np
32.96 53.36 m
0 2.84 l
o
np
48.39 53.36 m
0 5.67 l
o
np
60.99 53.36 m
0 2.84 l
o
np
71.65 53.36 m
0 2.84 l
o
np
80.88 53.36 m
0 2.84 l
o
np
89.03 53.36 m
0 2.84 l
o
np
96.31 53.36 m
0 8.51 l
o
np
144.23 53.36 m
0 2.84 l
o
np
172.26 53.36 m
0 2.84 l
o
np
192.15 53.36 m
0 2.84 l
o
np
207.58 53.36 m
0 5.67 l
o
np
220.19 53.36 m
0 2.84 l
o
np
230.84 53.36 m
0 2.84 l
o
np
240.07 53.36 m
0 2.84 l
o
np
248.22 53.36 m
0 2.84 l
o
np
255.50 53.36 m
0 8.51 l
o
np
303.42 53.36 m
0 2.84 l
o
np
331.45 53.36 m
0 2.84 l
o
np
351.34 53.36 m
0 2.84 l
o
np
366.77 53.36 m
0 5.67 l
o
np
379.38 53.36 m
0 2.84 l
o
np
390.03 53.36 m
0 2.84 l
o
np
399.26 53.36 m
0 2.84 l
o
np
407.41 53.36 m
0 2.84 l
o
np
414.69 53.36 m
0 8.51 l
o
np
462.61 53.36 m
0 2.84 l
o
np
490.64 53.36 m
0 2.84 l
o
np
510.53 53.36 m
0 2.84 l
o
np
525.96 53.36 m
0 5.67 l
o
np
538.57 53.36 m
0 2.84 l
o
np
549.22 53.36 m
0 2.84 l
o
np
558.45 53.36 m
0 2.84 l
o
np
566.60 53.36 m
0 2.84 l
o
0 0 1 srgb
1.07 setlinewidth
[ 3.20 1.07 1.07 1.07] 0 setdash
0 setlinecap
np
84.26 53.36 m
0 394.70 l
o
1 0 0 srgb
1.07 setlinewidth
[ 3.20 1.07] 0 setdash
np
119.57 53.36 m
0 394.70 l
o
0 0 0 srgb
0.53 setlinewidth
[ 0.53 1.60] 0 setdash
np
58.00 116.15 m
503.45 0 l
o
np
58.00 205.86 m
503.45 0 l
o
np
58.00 295.57 m
503.45 0 l
o
np
58.00 385.27 m
503.45 0 l
o
np
175.91 53.36 m
0 394.70 l
o
np
335.10 53.36 m
0 394.70 l
o
np
494.29 53.36 m
0 394.70 l
o
1.07 setlinewidth
[ 1.07 3.20] 0 setdash
np
58.00 71.30 m
503.45 0 l
o
np
58.00 161.01 m
503.45 0 l
o
np
58.00 250.71 m
503.45 0 l
o
np
58.00 340.42 m
503.45 0 l
o
np
58.00 430.12 m
503.45 0 l
o
np
96.31 53.36 m
0 394.70 l
o
np
255.50 53.36 m
0 394.70 l
o
np
414.69 53.36 m
0 394.70 l
o
0.2000 0.2000 0.2000 srgb
1.07 setlinewidth
[] 0 setdash
1 setlinecap
58.00 53.36 503.45 394.70 r p1
0.00 0.00 566.93 453.54 cl
0.00 0.00 566.93 453.54 cl
0.00 0.00 566.93 453.54 cl
0.00 0.00 566.93 453.54 cl
0.00 0.00 566.93 453.54 cl
0.00 0.00 566.93 453.54 cl
0.00 0.00 566.93 453.54 cl
0.00 0.00 566.93 453.54 cl
0.00 0.00 566.93 453.54 cl
0.00 0.00 566.93 453.54 cl
0.00 0.00 566.93 453.54 cl
0.00 0.00 566.93 453.54 cl
0.00 0.00 566.93 453.54 cl
0.00 0.00 566.93 453.54 cl
0.00 0.00 566.93 453.54 cl
0.00 0.00 566.93 453.54 cl
/Font1 findfont 20 s
0.3020 0.3020 0.3020 srgb
53.02 65.68 (0) 1 0 t
53.02 155.39 (10) 1 0 t
53.02 245.09 (20) 1 0 t
53.02 334.80 (30) 1 0 t
53.02 424.50 (40) 1 0 t
0.00 0.00 566.93 453.54 cl
0.00 0.00 566.93 453.54 cl
0.2000 0.2000 0.2000 srgb
1.07 setlinewidth
[] 0 setdash
0 setlinecap
1 setlinejoin
10.00 setmiterlimit
np
62.98 71.30 m
-4.98 0 l
o
np
62.98 161.01 m
-4.98 0 l
o
np
62.98 250.71 m
-4.98 0 l
o
np
62.98 340.42 m
-4.98 0 l
o
np
62.98 430.12 m
-4.98 0 l
o
0.00 0.00 566.93 453.54 cl
0.00 0.00 566.93 453.54 cl
0.00 0.00 566.93 453.54 cl
0.00 0.00 566.93 453.54 cl
0.00 0.00 566.93 453.54 cl
0.00 0.00 566.93 453.54 cl
0.00 0.00 566.93 453.54 cl
0.00 0.00 566.93 453.54 cl
0.00 0.00 566.93 453.54 cl
0.00 0.00 566.93 453.54 cl
0.2000 0.2000 0.2000 srgb
1.07 setlinewidth
[] 0 setdash
0 setlinecap
1 setlinejoin
10.00 setmiterlimit
np
96.31 58.34 m
0 -4.98 l
o
np
255.50 58.34 m
0 -4.98 l
o
np
414.69 58.34 m
0 -4.98 l
o
0.00 0.00 566.93 453.54 cl
0.00 0.00 566.93 453.54 cl
/Font1 findfont 20 s
0.3020 0.3020 0.3020 srgb
96.31 37.14 (1) .5 0 t
255.50 37.14 (10) .5 0 t
414.69 37.14 (100) .5 0 t
0.00 0.00 566.93 453.54 cl
0.00 0.00 566.93 453.54 cl
0.00 0.00 566.93 453.54 cl
0.00 0.00 566.93 453.54 cl
0.00 0.00 566.93 453.54 cl
0.00 0.00 566.93 453.54 cl
/Font1 findfont 22 s
0 0 0 srgb
309.72 8.93 (6cm Flux Density) .5 0 t
0.00 0.00 566.93 453.54 cl
0.00 0.00 566.93 453.54 cl
/Font1 findfont 22 s
0 0 0 srgb
17.84 250.71 (6cm Flux Density Error \(%\)) .5 90 t
0.00 0.00 566.93 453.54 cl
0.00 0.00 566.93 453.54 cl
0.00 0.00 566.93 453.54 cl
0.00 0.00 566.93 453.54 cl
0.00 0.00 566.93 453.54 cl
0.00 0.00 566.93 453.54 cl
0.00 0.00 566.93 453.54 cl
0.00 0.00 566.93 453.54 cl
0.00 0.00 566.93 453.54 cl
0.00 0.00 566.93 453.54 cl
0.00 0.00 566.93 453.54 cl
0.00 0.00 566.93 453.54 cl
ep
%%Trailer
%%Pages: 1
%%EOF
