%!PS-Adobe-3.0 EPSF-3.0
%%DocumentNeededResources: font Courier
%%+ font Courier-Bold
%%+ font Courier-Oblique
%%+ font Courier-BoldOblique
%%+ font Symbol
%%Title: R Graphics Output
%%Creator: R Software
%%Pages: (atend)
%%BoundingBox: 0 0 567 454
%%EndComments
%%BeginProlog
/bp  { gs sRGB gs } def
% begin .ps.prolog
/gs  { gsave } bind def
/gr  { grestore } bind def
/ep  { showpage gr gr } bind def
/m   { moveto } bind def
/l  { rlineto } bind def
/np  { newpath } bind def
/cp  { closepath } bind def
/f   { fill } bind def
/o   { stroke } bind def
/c   { newpath 0 360 arc } bind def
/r   { 4 2 roll moveto 1 copy 3 -1 roll exch 0 exch rlineto 0 rlineto -1 mul 0 exch rlineto closepath } bind def
/p1  { stroke } bind def
/p2  { gsave bg fill grestore newpath } bind def
/p3  { gsave bg fill grestore stroke } bind def
/p6  { gsave bg eofill grestore newpath } bind def
/p7  { gsave bg eofill grestore stroke } bind def
/t   { 5 -2 roll moveto gsave rotate
       1 index stringwidth pop
       mul neg 0 rmoveto show grestore } bind def
/ta  { 4 -2 roll moveto gsave rotate show } bind def
/tb  { 2 -1 roll 0 rmoveto show } bind def
/cl  { grestore gsave newpath 3 index 3 index moveto 1 index
       4 -1 roll lineto  exch 1 index lineto lineto
       closepath clip newpath } bind def
/rgb { setrgbcolor } bind def
/s   { scalefont setfont } bind def
% end   .ps.prolog
/sRGB { [ /CIEBasedABC
          << /DecodeLMN
               [ { dup 0.03928 le
                        {12.92321 div}
                        {0.055 add 1.055 div 2.4 exp }
                     ifelse
                 } bind dup dup
               ]
             /MatrixLMN [0.412457 0.212673 0.019334
                         0.357576 0.715152 0.119192
                         0.180437 0.072175 0.950301]
             /WhitePoint [0.9505 1.0 1.0890]
           >>
         ] setcolorspace } bind def
/srgb { setcolor } bind def
%%IncludeResource: font Courier
/Courier findfont
dup length dict begin
  {1 index /FID ne {def} {pop pop} ifelse} forall
  /Encoding ISOLatin1Encoding def
  currentdict
  end
/Font1 exch definefont pop
%%IncludeResource: font Courier-Bold
/Courier-Bold findfont
dup length dict begin
  {1 index /FID ne {def} {pop pop} ifelse} forall
  /Encoding ISOLatin1Encoding def
  currentdict
  end
/Font2 exch definefont pop
%%IncludeResource: font Courier-Oblique
/Courier-Oblique findfont
dup length dict begin
  {1 index /FID ne {def} {pop pop} ifelse} forall
  /Encoding ISOLatin1Encoding def
  currentdict
  end
/Font3 exch definefont pop
%%IncludeResource: font Courier-BoldOblique
/Courier-BoldOblique findfont
dup length dict begin
  {1 index /FID ne {def} {pop pop} ifelse} forall
  /Encoding ISOLatin1Encoding def
  currentdict
  end
/Font4 exch definefont pop
%%IncludeResource: font Symbol
/Symbol findfont
dup length dict begin
  {1 index /FID ne {def} {pop pop} ifelse} forall
  currentdict
  end
/Font5 exch definefont pop
%%EndProlog
%%Page: 1 1
bp
0.00 0.00 566.93 453.54 cl
0.00 0.00 566.93 453.54 cl
0.00 0.00 566.93 453.54 cl
0.00 0.00 566.93 453.54 cl
0.00 0.00 566.93 453.54 cl
0.00 0.00 566.93 453.54 cl
0.00 0.00 566.93 453.54 cl
0.00 0.00 566.93 453.54 cl
0.00 0.00 566.93 453.54 cl
0.00 0.00 566.93 453.54 cl
/bg { 1 1 1 srgb } def
1 1 1 srgb
1.07 setlinewidth
[] 0 setdash
1 setlinecap
1 setlinejoin
10.00 setmiterlimit
0.00 0.00 566.93 453.54 r p3
0.00 0.00 566.93 453.54 cl
70.00 59.64 566.43 448.06 cl
/bg { 1 1 1 srgb } def
0 0 0.5020 srgb
1.07 setlinewidth
[] 0 setdash
2 setlinecap
0 setlinejoin
10.00 setmiterlimit
103.85 59.64 22.57 4.28 r p3
126.41 59.64 22.57 1.07 r p3
148.98 59.64 22.57 1.07 r p3
171.54 59.64 22.57 1.07 r p3
194.11 59.64 22.57 8.55 r p3
216.67 59.64 22.57 10.69 r p3
239.24 59.64 22.57 21.38 r p3
261.80 59.64 22.57 34.20 r p3
284.37 59.64 22.57 80.16 r p3
306.93 59.64 22.57 141.09 r p3
329.50 59.64 22.57 212.70 r p3
352.06 59.64 22.57 274.70 r p3
374.63 59.64 22.57 337.76 r p3
397.19 59.64 22.57 242.63 r p3
419.76 59.64 22.57 262.94 r p3
442.32 59.64 22.57 199.88 r p3
464.89 59.64 22.57 99.40 r p3
487.45 59.64 22.57 42.75 r p3
510.02 59.64 22.57 17.10 r p3
/bg { 1 0 0 srgb } def
0 0 0 srgb
103.85 59.64 22.57 0.00 r p3
126.41 59.64 22.57 0.00 r p3
148.98 59.64 22.57 0.00 r p3
171.54 59.64 22.57 0.00 r p3
194.11 59.64 22.57 0.00 r p3
216.67 59.64 22.57 0.00 r p3
239.24 59.64 22.57 0.00 r p3
261.80 59.64 22.57 0.00 r p3
284.37 59.64 22.57 5.34 r p3
306.93 59.64 22.57 54.51 r p3
329.50 59.64 22.57 2.14 r p3
352.06 59.64 22.57 0.00 r p3
374.63 59.64 22.57 0.00 r p3
397.19 59.64 22.57 0.00 r p3
419.76 59.64 22.57 0.00 r p3
442.32 59.64 22.57 0.00 r p3
464.89 59.64 22.57 0.00 r p3
487.45 59.64 22.57 0.00 r p3
510.02 59.64 22.57 0.00 r p3
1 0 0 srgb
2.13 setlinewidth
[ 6.40 2.13] 0 setdash
0 setlinecap
1 setlinejoin
np
385.08 59.64 m
0 388.42 l
o
0 0 0 srgb
1.07 setlinewidth
[ 1.07 3.20] 0 setdash
np
92.56 59.85 m
4.52 0.05 l
4.51 0.06 l
4.51 0.08 l
4.52 0.09 l
4.51 0.11 l
4.51 0.13 l
4.52 0.15 l
4.51 0.19 l
4.51 0.22 l
4.51 0.26 l
4.52 0.31 l
4.51 0.36 l
4.51 0.43 l
4.52 0.49 l
4.51 0.58 l
4.51 0.66 l
4.52 0.77 l
4.51 0.88 l
4.51 1.01 l
4.52 1.15 l
4.51 1.30 l
4.51 1.48 l
4.51 1.66 l
4.52 1.87 l
4.51 2.08 l
4.51 2.33 l
4.52 2.58 l
4.51 2.84 l
4.51 3.14 l
4.52 3.43 l
4.51 3.75 l
4.51 4.07 l
4.51 4.41 l
4.52 4.75 l
4.51 5.09 l
4.51 5.45 l
4.52 5.78 l
4.51 6.13 l
4.51 6.45 l
4.52 6.77 l
4.51 7.06 l
4.51 7.32 l
4.51 7.57 l
4.52 7.78 l
4.51 7.94 l
4.51 8.07 l
4.52 8.14 l
4.51 8.18 l
4.51 8.14 l
4.52 8.06 l
4.51 7.91 l
4.51 7.71 l
4.51 7.44 l
4.52 7.12 l
4.51 6.72 l
4.51 6.27 l
4.52 5.76 l
4.51 5.21 l
4.51 4.60 l
4.52 3.94 l
4.51 3.26 l
4.51 2.53 l
4.51 1.79 l
4.52 1.02 l
4.51 0.25 l
4.51 -0.54 l
4.52 -1.30 l
4.51 -2.06 l
4.51 -2.81 l
4.52 -3.51 l
4.51 -4.19 l
4.51 -4.83 l
4.51 -5.42 l
4.52 -5.96 l
4.51 -6.44 l
4.51 -6.87 l
4.52 -7.24 l
4.51 -7.55 l
4.51 -7.79 l
4.52 -7.98 l
4.51 -8.09 l
4.51 -8.16 l
4.51 -8.17 l
4.52 -8.13 l
4.51 -8.02 l
4.51 -7.89 l
4.52 -7.70 l
4.51 -7.49 l
4.51 -7.23 l
4.52 -6.95 l
4.51 -6.65 l
4.51 -6.34 l
4.51 -6.00 l
4.52 -5.66 l
4.51 -5.31 l
4.51 -4.97 l
4.52 -4.62 l
4.51 -4.29 l
4.51 -3.95 l
543.87 89.24 lineto
o
/Font1 findfont 24 s
94.82 414.13 (B\)) 0 0 t
70.00 59.64 566.43 448.06 cl
0.2000 0.2000 0.2000 srgb
1.07 setlinewidth
[] 0 setdash
1 setlinecap
1 setlinejoin
10.00 setmiterlimit
70.00 59.64 496.43 388.43 r p1
0.00 0.00 566.93 453.54 cl
0.00 0.00 566.93 453.54 cl
0.00 0.00 566.93 453.54 cl
0.00 0.00 566.93 453.54 cl
0.00 0.00 566.93 453.54 cl
0.00 0.00 566.93 453.54 cl
0.00 0.00 566.93 453.54 cl
0.00 0.00 566.93 453.54 cl
0.00 0.00 566.93 453.54 cl
0.00 0.00 566.93 453.54 cl
0.00 0.00 566.93 453.54 cl
0.00 0.00 566.93 453.54 cl
0.00 0.00 566.93 453.54 cl
0.00 0.00 566.93 453.54 cl
0.00 0.00 566.93 453.54 cl
0.00 0.00 566.93 453.54 cl
/Font1 findfont 20 s
0.3020 0.3020 0.3020 srgb
65.02 54.02 (0) 1 0 t
65.02 160.90 (100) 1 0 t
65.02 267.79 (200) 1 0 t
65.02 374.68 (300) 1 0 t
0.00 0.00 566.93 453.54 cl
0.00 0.00 566.93 453.54 cl
0.2000 0.2000 0.2000 srgb
1.07 setlinewidth
[] 0 setdash
0 setlinecap
1 setlinejoin
10.00 setmiterlimit
np
74.98 59.64 m
-4.98 0 l
o
np
74.98 166.52 m
-4.98 0 l
o
np
74.98 273.41 m
-4.98 0 l
o
np
74.98 380.30 m
-4.98 0 l
o
0.00 0.00 566.93 453.54 cl
0.00 0.00 566.93 453.54 cl
0.00 0.00 566.93 453.54 cl
0.00 0.00 566.93 453.54 cl
0.00 0.00 566.93 453.54 cl
0.2000 0.2000 0.2000 srgb
1.07 setlinewidth
[] 0 setdash
0 setlinecap
1 setlinejoin
10.00 setmiterlimit
np
566.43 59.64 m
-4.98 0 l
o
np
566.43 166.56 m
-4.98 0 l
o
np
566.43 273.49 m
-4.98 0 l
o
np
566.43 380.41 m
-4.98 0 l
o
0.00 0.00 566.93 453.54 cl
0.00 0.00 566.93 453.54 cl
0.00 0.00 566.93 453.54 cl
0.00 0.00 566.93 453.54 cl
0.00 0.00 566.93 453.54 cl
0.00 0.00 566.93 453.54 cl
0.00 0.00 566.93 453.54 cl
0.00 0.00 566.93 453.54 cl
0.00 0.00 566.93 453.54 cl
0.00 0.00 566.93 453.54 cl
0.2000 0.2000 0.2000 srgb
1.07 setlinewidth
[] 0 setdash
0 setlinecap
1 setlinejoin
10.00 setmiterlimit
np
92.56 64.62 m
0 -4.98 l
o
np
205.39 64.62 m
0 -4.98 l
o
np
318.22 64.62 m
0 -4.98 l
o
np
431.04 64.62 m
0 -4.98 l
o
np
543.87 64.62 m
0 -4.98 l
o
0.00 0.00 566.93 453.54 cl
0.00 0.00 566.93 453.54 cl
/Font1 findfont 20 s
0.3020 0.3020 0.3020 srgb
92.56 43.42 (-10) .5 0 t
205.39 43.42 (-5) .5 0 t
318.22 43.42 (0) .5 0 t
431.04 43.42 (5) .5 0 t
543.87 43.42 (10) .5 0 t
0.00 0.00 566.93 453.54 cl
0.00 0.00 566.93 453.54 cl
0.00 0.00 566.93 453.54 cl
0.00 0.00 566.93 453.54 cl
0.00 0.00 566.93 453.54 cl
0.00 0.00 566.93 453.54 cl
/Font5 findfont 22 s
0 0 0 srgb
287.15 12.44 (D) 0 0 t
/Font1 findfont 22 s
300.61 12.44 (S) 0 0 t
313.81 12.44 (/) 0 0 t
/Font5 findfont 22 s
327.01 12.44 (s) 0 0 t
/Font1 findfont 15 s
340.28 9.16 (s) 0 0 t
0.00 0.00 566.93 453.54 cl
0.00 0.00 566.93 453.54 cl
/Font1 findfont 22 s
0 0 0 srgb
17.84 253.85 (Count) .5 90 t
0.00 0.00 566.93 453.54 cl
0.00 0.00 566.93 453.54 cl
0.00 0.00 566.93 453.54 cl
0.00 0.00 566.93 453.54 cl
0.00 0.00 566.93 453.54 cl
0.00 0.00 566.93 453.54 cl
0.00 0.00 566.93 453.54 cl
0.00 0.00 566.93 453.54 cl
0.00 0.00 566.93 453.54 cl
0.00 0.00 566.93 453.54 cl
0.00 0.00 566.93 453.54 cl
0.00 0.00 566.93 453.54 cl
ep
%%Trailer
%%Pages: 1
%%EOF
