%!PS-Adobe-3.0 EPSF-3.0
%%DocumentNeededResources: font Courier
%%+ font Courier-Bold
%%+ font Courier-Oblique
%%+ font Courier-BoldOblique
%%+ font Symbol
%%Title: R Graphics Output
%%Creator: R Software
%%Pages: (atend)
%%BoundingBox: 0 0 567 454
%%EndComments
%%BeginProlog
/bp  { gs sRGB gs } def
% begin .ps.prolog
/gs  { gsave } bind def
/gr  { grestore } bind def
/ep  { showpage gr gr } bind def
/m   { moveto } bind def
/l  { rlineto } bind def
/np  { newpath } bind def
/cp  { closepath } bind def
/f   { fill } bind def
/o   { stroke } bind def
/c   { newpath 0 360 arc } bind def
/r   { 4 2 roll moveto 1 copy 3 -1 roll exch 0 exch rlineto 0 rlineto -1 mul 0 exch rlineto closepath } bind def
/p1  { stroke } bind def
/p2  { gsave bg fill grestore newpath } bind def
/p3  { gsave bg fill grestore stroke } bind def
/p6  { gsave bg eofill grestore newpath } bind def
/p7  { gsave bg eofill grestore stroke } bind def
/t   { 5 -2 roll moveto gsave rotate
       1 index stringwidth pop
       mul neg 0 rmoveto show grestore } bind def
/ta  { 4 -2 roll moveto gsave rotate show } bind def
/tb  { 2 -1 roll 0 rmoveto show } bind def
/cl  { grestore gsave newpath 3 index 3 index moveto 1 index
       4 -1 roll lineto  exch 1 index lineto lineto
       closepath clip newpath } bind def
/rgb { setrgbcolor } bind def
/s   { scalefont setfont } bind def
% end   .ps.prolog
/sRGB { [ /CIEBasedABC
          << /DecodeLMN
               [ { dup 0.03928 le
                        {12.92321 div}
                        {0.055 add 1.055 div 2.4 exp }
                     ifelse
                 } bind dup dup
               ]
             /MatrixLMN [0.412457 0.212673 0.019334
                         0.357576 0.715152 0.119192
                         0.180437 0.072175 0.950301]
             /WhitePoint [0.9505 1.0 1.0890]
           >>
         ] setcolorspace } bind def
/srgb { setcolor } bind def
%%IncludeResource: font Courier
/Courier findfont
dup length dict begin
  {1 index /FID ne {def} {pop pop} ifelse} forall
  /Encoding ISOLatin1Encoding def
  currentdict
  end
/Font1 exch definefont pop
%%IncludeResource: font Courier-Bold
/Courier-Bold findfont
dup length dict begin
  {1 index /FID ne {def} {pop pop} ifelse} forall
  /Encoding ISOLatin1Encoding def
  currentdict
  end
/Font2 exch definefont pop
%%IncludeResource: font Courier-Oblique
/Courier-Oblique findfont
dup length dict begin
  {1 index /FID ne {def} {pop pop} ifelse} forall
  /Encoding ISOLatin1Encoding def
  currentdict
  end
/Font3 exch definefont pop
%%IncludeResource: font Courier-BoldOblique
/Courier-BoldOblique findfont
dup length dict begin
  {1 index /FID ne {def} {pop pop} ifelse} forall
  /Encoding ISOLatin1Encoding def
  currentdict
  end
/Font4 exch definefont pop
%%IncludeResource: font Symbol
/Symbol findfont
dup length dict begin
  {1 index /FID ne {def} {pop pop} ifelse} forall
  currentdict
  end
/Font5 exch definefont pop
%%EndProlog
%%Page: 1 1
bp
0.00 0.00 566.93 453.54 cl
0.00 0.00 566.93 453.54 cl
0.00 0.00 566.93 453.54 cl
0.00 0.00 566.93 453.54 cl
0.00 0.00 566.93 453.54 cl
0.00 0.00 566.93 453.54 cl
0.00 0.00 566.93 453.54 cl
0.00 0.00 566.93 453.54 cl
0.00 0.00 566.93 453.54 cl
0.00 0.00 566.93 453.54 cl
/bg { 1 1 1 srgb } def
1 1 1 srgb
1.07 setlinewidth
[] 0 setdash
1 setlinecap
1 setlinejoin
10.00 setmiterlimit
0.00 0.00 566.93 453.54 r p3
0.00 0.00 566.93 453.54 cl
76.97 43.35 561.45 448.06 cl
/bg { 1 1 1 srgb } def
76.97 43.35 484.48 404.72 r p2
0 0 0.5020 srgb
0.71 setlinewidth
[] 0 setdash
1 setlinecap
1 setlinejoin
10.00 setmiterlimit
283.49 190.02 1.42 c p1
227.34 169.40 1.42 c p1
315.21 223.12 1.42 c p1
252.82 187.80 1.42 c p1
292.67 215.40 1.42 c p1
285.63 195.90 1.42 c p1
340.53 259.46 1.42 c p1
287.71 175.79 1.42 c p1
308.43 232.19 1.42 c p1
464.71 364.33 1.42 c p1
370.66 297.60 1.42 c p1
256.03 209.67 1.42 c p1
272.30 176.51 1.42 c p1
409.42 334.97 1.42 c p1
427.92 340.94 1.42 c p1
385.77 301.07 1.42 c p1
402.91 325.43 1.42 c p1
384.74 306.17 1.42 c p1
276.50 216.83 1.42 c p1
289.88 228.96 1.42 c p1
201.07 118.78 1.42 c p1
371.19 279.00 1.42 c p1
266.68 199.98 1.42 c p1
319.82 257.67 1.42 c p1
430.56 332.26 1.42 c p1
221.15 148.09 1.42 c p1
343.22 262.36 1.42 c p1
330.44 260.22 1.42 c p1
314.29 236.95 1.42 c p1
363.88 280.90 1.42 c p1
502.83 404.60 1.42 c p1
367.87 288.77 1.42 c p1
389.59 307.53 1.42 c p1
349.92 267.21 1.42 c p1
318.38 247.13 1.42 c p1
304.91 233.31 1.42 c p1
415.28 328.14 1.42 c p1
289.17 224.20 1.42 c p1
294.70 212.02 1.42 c p1
355.13 280.08 1.42 c p1
358.71 293.77 1.42 c p1
366.21 285.87 1.42 c p1
296.68 228.99 1.42 c p1
321.05 240.68 1.42 c p1
424.09 319.29 1.42 c p1
397.42 313.43 1.42 c p1
423.08 332.71 1.42 c p1
265.50 193.94 1.42 c p1
315.61 246.62 1.42 c p1
298.85 223.04 1.42 c p1
274.43 204.12 1.42 c p1
317.21 249.06 1.42 c p1
253.52 201.47 1.42 c p1
331.43 255.68 1.42 c p1
391.46 312.83 1.42 c p1
400.31 317.37 1.42 c p1
302.06 234.90 1.42 c p1
214.39 160.10 1.42 c p1
230.89 162.05 1.42 c p1
468.23 373.09 1.42 c p1
362.93 276.70 1.42 c p1
339.95 269.97 1.42 c p1
377.53 296.65 1.42 c p1
406.25 329.37 1.42 c p1
372.04 293.81 1.42 c p1
305.95 233.18 1.42 c p1
381.20 289.55 1.42 c p1
266.29 206.02 1.42 c p1
302.18 238.36 1.42 c p1
305.95 233.45 1.42 c p1
372.42 292.50 1.42 c p1
314.19 244.86 1.42 c p1
380.32 300.24 1.42 c p1
342.52 267.26 1.42 c p1
378.92 303.72 1.42 c p1
411.39 325.22 1.42 c p1
324.43 258.68 1.42 c p1
519.23 417.75 1.42 c p1
438.19 347.85 1.42 c p1
282.87 210.59 1.42 c p1
299.48 218.64 1.42 c p1
434.56 343.28 1.42 c p1
229.30 148.48 1.42 c p1
286.98 235.11 1.42 c p1
325.59 253.22 1.42 c p1
255.12 182.10 1.42 c p1
401.17 306.14 1.42 c p1
325.06 253.88 1.42 c p1
275.65 215.08 1.42 c p1
283.96 211.55 1.42 c p1
341.18 268.19 1.42 c p1
337.59 266.62 1.42 c p1
299.73 221.63 1.42 c p1
376.07 295.30 1.42 c p1
321.23 257.22 1.42 c p1
256.48 185.09 1.42 c p1
404.54 321.31 1.42 c p1
326.37 255.81 1.42 c p1
344.39 264.13 1.42 c p1
347.14 269.52 1.42 c p1
308.21 250.96 1.42 c p1
379.01 291.24 1.42 c p1
320.01 250.86 1.42 c p1
422.07 335.54 1.42 c p1
251.87 187.77 1.42 c p1
333.91 265.30 1.42 c p1
358.65 279.57 1.42 c p1
417.62 331.77 1.42 c p1
419.03 321.33 1.42 c p1
216.71 165.12 1.42 c p1
349.54 276.51 1.42 c p1
239.22 156.11 1.42 c p1
307.31 230.38 1.42 c p1
340.17 269.27 1.42 c p1
338.19 248.41 1.42 c p1
306.86 236.88 1.42 c p1
333.99 255.22 1.42 c p1
413.66 326.35 1.42 c p1
341.89 268.17 1.42 c p1
285.03 222.35 1.42 c p1
253.75 178.57 1.42 c p1
278.02 218.09 1.42 c p1
267.64 215.34 1.42 c p1
311.04 239.99 1.42 c p1
302.67 211.07 1.42 c p1
390.80 306.52 1.42 c p1
317.11 248.91 1.42 c p1
268.79 194.69 1.42 c p1
327.07 263.34 1.42 c p1
180.01 139.17 1.42 c p1
303.02 242.95 1.42 c p1
377.66 298.84 1.42 c p1
304.44 231.75 1.42 c p1
336.92 265.34 1.42 c p1
267.06 212.44 1.42 c p1
341.96 265.01 1.42 c p1
309.97 238.93 1.42 c p1
288.44 214.38 1.42 c p1
228.33 148.68 1.42 c p1
284.72 219.38 1.42 c p1
286.23 226.30 1.42 c p1
295.37 211.46 1.42 c p1
428.89 342.50 1.42 c p1
317.21 252.37 1.42 c p1
404.20 318.71 1.42 c p1
282.71 201.58 1.42 c p1
253.28 162.09 1.42 c p1
249.46 177.47 1.42 c p1
324.52 245.93 1.42 c p1
354.77 268.35 1.42 c p1
294.97 232.87 1.42 c p1
274.78 222.15 1.42 c p1
235.76 172.70 1.42 c p1
369.65 293.76 1.42 c p1
301.09 232.99 1.42 c p1
299.73 215.53 1.42 c p1
332.32 261.41 1.42 c p1
461.26 367.62 1.42 c p1
218.59 159.15 1.42 c p1
497.43 396.69 1.42 c p1
486.24 384.79 1.42 c p1
291.85 226.25 1.42 c p1
398.98 313.82 1.42 c p1
333.83 261.23 1.42 c p1
248.97 203.11 1.42 c p1
312.95 255.43 1.42 c p1
351.99 280.97 1.42 c p1
257.80 185.15 1.42 c p1
362.93 289.48 1.42 c p1
316.81 248.13 1.42 c p1
256.25 197.31 1.42 c p1
284.57 229.92 1.42 c p1
327.24 261.59 1.42 c p1
366.72 298.14 1.42 c p1
270.65 212.27 1.42 c p1
241.17 192.52 1.42 c p1
306.06 236.56 1.42 c p1
217.84 206.10 1.42 c p1
338.19 272.61 1.42 c p1
373.76 297.68 1.42 c p1
243.33 194.69 1.42 c p1
401.59 323.50 1.42 c p1
201.07 101.89 1.42 c p1
252.11 175.57 1.42 c p1
136.20 91.60 1.42 c p1
153.23 76.72 1.42 c p1
230.89 141.09 1.42 c p1
252.11 170.57 1.42 c p1
282.08 214.49 1.42 c p1
169.28 82.08 1.42 c p1
383.26 293.61 1.42 c p1
230.26 161.45 1.42 c p1
190.48 147.90 1.42 c p1
181.25 118.72 1.42 c p1
220.42 149.61 1.42 c p1
176.82 124.47 1.42 c p1
206.51 159.69 1.42 c p1
187.15 129.75 1.42 c p1
315.51 248.28 1.42 c p1
209.93 144.18 1.42 c p1
352.35 263.31 1.42 c p1
165.58 129.01 1.42 c p1
167.08 96.00 1.42 c p1
188.83 123.11 1.42 c p1
361.75 279.14 1.42 c p1
166.33 109.69 1.42 c p1
195.20 113.56 1.42 c p1
295.89 222.40 1.42 c p1
258.67 190.13 1.42 c p1
172.80 103.51 1.42 c p1
197.21 112.91 1.42 c p1
265.10 278.17 1.42 c p1
211.58 74.33 1.42 c p1
280.65 223.91 1.42 c p1
225.67 171.16 1.42 c p1
232.76 182.04 1.42 c p1
189.38 128.98 1.42 c p1
260.60 188.55 1.42 c p1
158.42 123.83 1.42 c p1
175.50 121.34 1.42 c p1
231.83 165.18 1.42 c p1
139.51 91.44 1.42 c p1
254.21 256.94 1.42 c p1
298.60 256.94 1.42 c p1
266.29 216.14 1.42 c p1
228.33 231.63 1.42 c p1
231.20 171.46 1.42 c p1
362.34 285.18 1.42 c p1
181.86 94.13 1.42 c p1
151.42 131.43 1.42 c p1
206.51 126.24 1.42 c p1
240.34 166.61 1.42 c p1
195.20 134.21 1.42 c p1
290.45 207.65 1.42 c p1
175.50 51.36 1.42 c p1
346.68 267.00 1.42 c p1
260.18 200.91 1.42 c p1
146.69 90.05 1.42 c p1
314.80 236.47 1.42 c p1
181.86 123.97 1.42 c p1
260.18 204.05 1.42 c p1
240.34 179.37 1.42 c p1
213.20 158.79 1.42 c p1
212.80 156.30 1.42 c p1
168.55 92.43 1.42 c p1
228.98 170.46 1.42 c p1
279.34 192.14 1.42 c p1
180.01 113.34 1.42 c p1
238.94 171.20 1.42 c p1
364.51 288.90 1.42 c p1
363.56 285.05 1.42 c p1
220.42 175.34 1.42 c p1
170.71 103.04 1.42 c p1
236.35 172.35 1.42 c p1
145.70 96.08 1.42 c p1
245.94 186.23 1.42 c p1
140.58 92.94 1.42 c p1
184.84 136.78 1.42 c p1
254.67 176.43 1.42 c p1
273.01 214.34 1.42 c p1
422.07 333.10 1.42 c p1
288.15 232.63 1.42 c p1
207.38 146.40 1.42 c p1
252.35 175.78 1.42 c p1
283.65 221.00 1.42 c p1
294.57 217.74 1.42 c p1
193.66 121.29 1.42 c p1
331.34 260.90 1.42 c p1
278.02 221.27 1.42 c p1
162.48 121.09 1.42 c p1
277.85 207.16 1.42 c p1
322.16 247.30 1.42 c p1
271.02 204.74 1.42 c p1
192.08 140.39 1.42 c p1
216.71 189.82 1.42 c p1
192.08 141.86 1.42 c p1
219.33 161.58 1.42 c p1
153.23 155.85 1.42 c p1
172.11 114.88 1.42 c p1
148.62 86.10 1.42 c p1
355.13 279.72 1.42 c p1
155.87 69.91 1.42 c p1
195.71 139.83 1.42 c p1
216.71 166.11 1.42 c p1
249.46 184.00 1.42 c p1
209.51 171.50 1.42 c p1
229.62 161.16 1.42 c p1
228.98 155.32 1.42 c p1
361.37 276.20 1.42 c p1
345.61 269.53 1.42 c p1
291.43 220.52 1.42 c p1
237.80 175.40 1.42 c p1
155.00 96.18 1.42 c p1
158.42 115.15 1.42 c p1
180.63 136.20 1.42 c p1
224.31 158.92 1.42 c p1
392.22 309.68 1.42 c p1
224.65 166.32 1.42 c p1
258.02 184.13 1.42 c p1
301.82 240.71 1.42 c p1
155.00 78.50 1.42 c p1
264.91 209.70 1.42 c p1
153.23 76.64 1.42 c p1
136.20 97.83 1.42 c p1
209.93 154.69 1.42 c p1
327.24 252.21 1.42 c p1
203.39 144.11 1.42 c p1
288.44 218.35 1.42 c p1
168.55 121.82 1.42 c p1
212.80 159.08 1.42 c p1
131.56 80.91 1.42 c p1
281.29 216.91 1.42 c p1
210.35 167.41 1.42 c p1
135.07 88.62 1.42 c p1
154.12 119.10 1.42 c p1
255.12 202.37 1.42 c p1
247.47 191.08 1.42 c p1
243.86 180.17 1.42 c p1
152.33 84.97 1.42 c p1
222.22 162.40 1.42 c p1
132.75 81.86 1.42 c p1
182.46 128.40 1.42 c p1
257.58 203.52 1.42 c p1
147.66 79.55 1.42 c p1
160.89 87.90 1.42 c p1
161.69 73.57 1.42 c p1
203.39 148.10 1.42 c p1
292.54 229.38 1.42 c p1
159.25 115.35 1.42 c p1
342.24 272.32 1.42 c p1
324.07 254.28 1.42 c p1
269.16 215.05 1.42 c p1
339.73 312.16 1.42 c p1
331.83 312.16 1.42 c p1
287.42 294.17 1.42 c p1
199.65 138.74 1.42 c p1
324.70 294.17 1.42 c p1
244.65 172.82 1.42 c p1
235.76 150.66 1.42 c p1
233.37 160.42 1.42 c p1
189.38 94.41 1.42 c p1
272.30 214.84 1.42 c p1
246.71 199.14 1.42 c p1
328.10 272.64 1.42 c p1
311.47 241.76 1.42 c p1
215.17 156.23 1.42 c p1
252.11 191.06 1.42 c p1
236.93 223.59 1.42 c p1
199.65 152.43 1.42 c p1
303.14 238.76 1.42 c p1
146.69 97.47 1.42 c p1
137.32 100.08 1.42 c p1
212.80 151.14 1.42 c p1
363.67 285.72 1.42 c p1
137.32 69.48 1.42 c p1
213.20 144.67 1.42 c p1
200.60 138.03 1.42 c p1
157.58 87.35 1.42 c p1
246.71 174.93 1.42 c p1
253.05 244.68 1.42 c p1
159.25 105.91 1.42 c p1
215.94 152.93 1.42 c p1
305.26 237.82 1.42 c p1
201.54 70.43 1.42 c p1
256.70 199.11 1.42 c p1
191.55 130.49 1.42 c p1
244.91 181.34 1.42 c p1
184.26 146.23 1.42 c p1
256.03 85.70 1.42 c p1
321.05 237.76 1.42 c p1
173.49 101.91 1.42 c p1
403.52 317.28 1.42 c p1
194.18 118.18 1.42 c p1
215.17 146.67 1.42 c p1
355.48 254.09 1.42 c p1
222.57 168.75 1.42 c p1
149.56 106.98 1.42 c p1
230.26 179.38 1.42 c p1
251.64 193.38 1.42 c p1
255.58 187.78 1.42 c p1
321.79 246.62 1.42 c p1
234.58 164.35 1.42 c p1
228.00 160.47 1.42 c p1
142.67 106.60 1.42 c p1
172.80 124.73 1.42 c p1
286.38 228.19 1.42 c p1
160.89 95.60 1.42 c p1
242.79 182.68 1.42 c p1
317.89 251.24 1.42 c p1
293.90 225.64 1.42 c p1
244.39 171.78 1.42 c p1
230.57 149.19 1.42 c p1
187.15 115.92 1.42 c p1
165.58 113.98 1.42 c p1
164.82 56.99 1.42 c p1
285.48 225.23 1.42 c p1
336.46 259.24 1.42 c p1
186.00 127.19 1.42 c p1
246.71 188.47 1.42 c p1
143.69 77.08 1.42 c p1
137.32 92.36 1.42 c p1
180.63 134.11 1.42 c p1
225.67 165.27 1.42 c p1
137.32 63.45 1.42 c p1
266.29 203.69 1.42 c p1
213.60 159.79 1.42 c p1
271.02 208.24 1.42 c p1
159.25 124.55 1.42 c p1
144.71 94.95 1.42 c p1
169.28 120.24 1.42 c p1
244.91 186.01 1.42 c p1
233.37 166.03 1.42 c p1
216.71 70.57 1.42 c p1
186.58 101.43 1.42 c p1
226.35 145.19 1.42 c p1
246.46 180.17 1.42 c p1
182.46 123.09 1.42 c p1
383.46 298.78 1.42 c p1
241.44 185.43 1.42 c p1
319.53 237.39 1.42 c p1
274.60 211.35 1.42 c p1
149.56 86.13 1.42 c p1
221.86 134.63 1.42 c p1
367.92 315.36 1.42 c p1
263.50 176.29 1.42 c p1
207.38 77.56 1.42 c p1
313.98 315.36 1.42 c p1
294.17 234.00 1.42 c p1
253.28 175.24 1.42 c p1
196.21 158.40 1.42 c p1
307.20 242.93 1.42 c p1
379.73 297.15 1.42 c p1
212.80 142.08 1.42 c p1
137.32 99.64 1.42 c p1
264.31 253.11 1.42 c p1
347.21 261.70 1.42 c p1
154.12 102.98 1.42 c p1
256.70 253.11 1.42 c p1
247.97 182.68 1.42 c p1
131.56 80.68 1.42 c p1
179.38 128.99 1.42 c p1
207.38 136.44 1.42 c p1
280.48 205.89 1.42 c p1
298.35 221.02 1.42 c p1
167.08 122.75 1.42 c p1
180.01 117.50 1.42 c p1
167.08 167.52 1.42 c p1
328.10 258.28 1.42 c p1
267.45 187.12 1.42 c p1
189.93 177.33 1.42 c p1
321.14 258.18 1.42 c p1
228.00 150.66 1.42 c p1
250.68 186.10 1.42 c p1
218.59 159.62 1.42 c p1
204.29 151.79 1.42 c p1
199.17 134.45 1.42 c p1
329.36 255.22 1.42 c p1
179.38 131.57 1.42 c p1
230.26 165.37 1.42 c p1
233.06 166.92 1.42 c p1
217.84 165.63 1.42 c p1
187.15 144.65 1.42 c p1
216.33 124.08 1.42 c p1
179.38 134.75 1.42 c p1
197.21 125.70 1.42 c p1
157.58 91.53 1.42 c p1
470.58 422.40 1.42 c p1
472.63 423.32 1.42 c p1
201.07 153.03 1.42 c p1
381.74 286.67 1.42 c p1
183.07 84.38 1.42 c p1
180.63 102.70 1.42 c p1
246.46 185.80 1.42 c p1
208.67 139.94 1.42 c p1
221.50 146.64 1.42 c p1
172.80 105.61 1.42 c p1
164.82 103.24 1.42 c p1
243.59 182.70 1.42 c p1
199.17 136.83 1.42 c p1
197.71 116.17 1.42 c p1
252.82 182.63 1.42 c p1
243.06 177.78 1.42 c p1
219.33 143.81 1.42 c p1
236.93 178.21 1.42 c p1
246.71 178.69 1.42 c p1
195.20 143.60 1.42 c p1
235.17 182.73 1.42 c p1
180.63 112.63 1.42 c p1
428.76 320.39 1.42 c p1
196.71 96.03 1.42 c p1
148.62 86.20 1.42 c p1
212.80 152.19 1.42 c p1
298.35 219.63 1.42 c p1
230.26 184.37 1.42 c p1
200.60 125.45 1.42 c p1
260.18 195.71 1.42 c p1
159.25 103.77 1.42 c p1
145.70 67.54 1.42 c p1
153.23 76.20 1.42 c p1
177.47 99.99 1.42 c p1
194.69 132.76 1.42 c p1
244.12 185.20 1.42 c p1
266.09 214.10 1.42 c p1
148.62 95.18 1.42 c p1
226.01 154.80 1.42 c p1
148.62 87.22 1.42 c p1
246.46 189.75 1.42 c p1
154.12 79.95 1.42 c p1
208.24 153.47 1.42 c p1
226.35 183.25 1.42 c p1
203.39 141.97 1.42 c p1
424.18 339.14 1.42 c p1
181.86 148.65 1.42 c p1
207.81 156.51 1.42 c p1
143.69 103.92 1.42 c p1
407.81 325.37 1.42 c p1
370.85 293.78 1.42 c p1
278.35 215.31 1.42 c p1
161.69 239.98 1.42 c p1
180.01 61.28 1.42 c p1
167.82 99.75 1.42 c p1
182.46 141.11 1.42 c p1
296.29 270.49 1.42 c p1
239.50 159.30 1.42 c p1
181.25 134.04 1.42 c p1
148.62 67.77 1.42 c p1
192.61 129.03 1.42 c p1
266.68 193.03 1.42 c p1
163.27 114.15 1.42 c p1
301.46 239.73 1.42 c p1
167.82 121.74 1.42 c p1
256.48 195.79 1.42 c p1
181.86 92.37 1.42 c p1
218.96 144.36 1.42 c p1
329.28 256.09 1.42 c p1
258.02 203.49 1.42 c p1
157.58 135.83 1.42 c p1
204.74 165.83 1.42 c p1
340.96 264.76 1.42 c p1
295.37 223.46 1.42 c p1
247.97 181.67 1.42 c p1
342.45 268.28 1.42 c p1
293.22 203.65 1.42 c p1
142.67 116.96 1.42 c p1
167.08 96.15 1.42 c p1
391.10 281.77 1.42 c p1
382.44 292.26 1.42 c p1
297.32 220.38 1.42 c p1
184.84 112.30 1.42 c p1
320.11 251.84 1.42 c p1
306.41 243.03 1.42 c p1
172.11 118.54 1.42 c p1
165.58 75.05 1.42 c p1
232.14 180.80 1.42 c p1
237.51 120.66 1.42 c p1
179.38 124.14 1.42 c p1
161.69 122.07 1.42 c p1
309.20 251.64 1.42 c p1
360.87 280.46 1.42 c p1
273.90 213.76 1.42 c p1
168.55 110.11 1.42 c p1
266.87 211.07 1.42 c p1
193.66 142.09 1.42 c p1
238.66 165.96 1.42 c p1
197.21 131.05 1.42 c p1
191.55 98.65 1.42 c p1
204.74 131.93 1.42 c p1
161.69 73.21 1.42 c p1
137.32 69.83 1.42 c p1
214.78 150.93 1.42 c p1
175.50 116.94 1.42 c p1
268.60 182.01 1.42 c p1
318.86 237.48 1.42 c p1
214.78 147.51 1.42 c p1
400.86 316.61 1.42 c p1
319.34 238.81 1.42 c p1
162.48 98.34 1.42 c p1
283.96 228.21 1.42 c p1
230.57 163.69 1.42 c p1
184.84 106.18 1.42 c p1
242.52 179.86 1.42 c p1
340.53 273.09 1.42 c p1
181.86 94.86 1.42 c p1
328.35 253.58 1.42 c p1
144.71 87.39 1.42 c p1
334.85 255.42 1.42 c p1
245.69 181.21 1.42 c p1
255.35 169.61 1.42 c p1
227.34 162.39 1.42 c p1
278.19 220.35 1.42 c p1
196.71 114.45 1.42 c p1
240.06 181.18 1.42 c p1
178.11 130.75 1.42 c p1
194.69 135.59 1.42 c p1
206.07 164.66 1.42 c p1
171.41 112.62 1.42 c p1
161.69 119.90 1.42 c p1
158.42 115.04 1.42 c p1
199.17 123.56 1.42 c p1
184.26 120.15 1.42 c p1
169.28 118.83 1.42 c p1
329.11 259.29 1.42 c p1
230.57 170.99 1.42 c p1
220.79 130.22 1.42 c p1
268.41 197.57 1.42 c p1
211.58 164.65 1.42 c p1
247.47 183.86 1.42 c p1
425.18 340.28 1.42 c p1
322.16 229.60 1.42 c p1
261.23 203.17 1.42 c p1
334.14 259.35 1.42 c p1
159.25 82.28 1.42 c p1
154.12 82.39 1.42 c p1
181.25 124.36 1.42 c p1
235.76 169.62 1.42 c p1
211.58 145.58 1.42 c p1
167.08 111.65 1.42 c p1
242.52 167.97 1.42 c p1
242.79 161.37 1.42 c p1
261.23 206.25 1.42 c p1
161.69 110.91 1.42 c p1
248.97 189.41 1.42 c p1
253.75 209.48 1.42 c p1
200.60 140.53 1.42 c p1
377.01 297.71 1.42 c p1
304.56 239.75 1.42 c p1
290.45 222.74 1.42 c p1
230.57 182.90 1.42 c p1
333.91 251.63 1.42 c p1
383.70 279.70 1.42 c p1
289.02 210.26 1.42 c p1
243.33 143.24 1.42 c p1
344.73 265.21 1.42 c p1
188.83 92.88 1.42 c p1
258.24 165.97 1.42 c p1
307.65 243.82 1.42 c p1
231.83 153.31 1.42 c p1
211.99 157.63 1.42 c p1
267.84 202.41 1.42 c p1
313.57 241.09 1.42 c p1
206.51 125.22 1.42 c p1
260.81 196.55 1.42 c p1
238.37 157.92 1.42 c p1
242.52 178.08 1.42 c p1
173.49 121.58 1.42 c p1
236.35 168.16 1.42 c p1
316.61 246.51 1.42 c p1
241.98 177.92 1.42 c p1
296.55 236.82 1.42 c p1
205.63 145.34 1.42 c p1
245.17 182.35 1.42 c p1
289.31 219.73 1.42 c p1
193.66 118.92 1.42 c p1
173.49 111.82 1.42 c p1
298.98 211.11 1.42 c p1
148.62 102.77 1.42 c p1
203.39 132.05 1.42 c p1
269.54 142.80 1.42 c p1
285.33 217.65 1.42 c p1
246.71 190.36 1.42 c p1
309.31 246.18 1.42 c p1
153.23 92.13 1.42 c p1
206.07 151.47 1.42 c p1
233.67 185.89 1.42 c p1
486.11 391.31 1.42 c p1
208.67 156.91 1.42 c p1
246.97 185.03 1.42 c p1
299.23 241.99 1.42 c p1
291.01 228.08 1.42 c p1
165.58 115.40 1.42 c p1
154.12 113.92 1.42 c p1
242.79 175.22 1.42 c p1
325.32 250.64 1.42 c p1
261.65 174.28 1.42 c p1
146.69 79.57 1.42 c p1
166.33 104.55 1.42 c p1
135.07 85.08 1.42 c p1
341.46 267.39 1.42 c p1
328.77 263.39 1.42 c p1
265.10 203.12 1.42 c p1
352.05 273.25 1.42 c p1
337.74 265.52 1.42 c p1
215.17 148.10 1.42 c p1
375.13 289.30 1.42 c p1
280.97 211.23 1.42 c p1
146.69 81.96 1.42 c p1
186.58 97.72 1.42 c p1
310.62 244.21 1.42 c p1
279.67 195.10 1.42 c p1
160.89 87.89 1.42 c p1
237.22 161.45 1.42 c p1
189.93 119.12 1.42 c p1
367.52 273.09 1.42 c p1
172.11 123.13 1.42 c p1
333.43 254.86 1.42 c p1
164.82 95.92 1.42 c p1
247.47 142.25 1.42 c p1
153.23 103.94 1.42 c p1
189.93 138.37 1.42 c p1
218.59 152.91 1.42 c p1
295.76 212.87 1.42 c p1
313.36 208.80 1.42 c p1
333.51 248.84 1.42 c p1
197.21 140.29 1.42 c p1
322.25 233.65 1.42 c p1
187.15 127.15 1.42 c p1
199.17 112.40 1.42 c p1
170.71 137.60 1.42 c p1
170.00 121.38 1.42 c p1
171.41 124.35 1.42 c p1
149.56 76.57 1.42 c p1
186.58 119.96 1.42 c p1
223.62 161.31 1.42 c p1
242.25 166.58 1.42 c p1
297.45 224.91 1.42 c p1
289.60 217.80 1.42 c p1
220.06 169.32 1.42 c p1
204.74 153.97 1.42 c p1
252.58 184.08 1.42 c p1
170.71 84.80 1.42 c p1
170.71 103.42 1.42 c p1
172.80 97.33 1.42 c p1
201.54 151.44 1.42 c p1
158.42 94.16 1.42 c p1
158.42 98.91 1.42 c p1
217.47 162.28 1.42 c p1
155.00 113.73 1.42 c p1
223.27 151.63 1.42 c p1
206.51 140.72 1.42 c p1
180.63 140.59 1.42 c p1
164.82 77.59 1.42 c p1
274.08 198.34 1.42 c p1
213.20 157.09 1.42 c p1
155.87 89.02 1.42 c p1
274.60 209.16 1.42 c p1
206.95 134.17 1.42 c p1
174.84 111.63 1.42 c p1
169.28 126.60 1.42 c p1
151.42 83.95 1.42 c p1
206.95 137.76 1.42 c p1
167.82 123.39 1.42 c p1
229.62 188.87 1.42 c p1
184.84 133.28 1.42 c p1
201.54 148.86 1.42 c p1
245.69 162.96 1.42 c p1
227.67 145.93 1.42 c p1
215.94 147.49 1.42 c p1
141.63 89.63 1.42 c p1
129.12 76.16 1.42 c p1
342.59 277.05 1.42 c p1
270.84 218.11 1.42 c p1
169.28 121.51 1.42 c p1
278.52 196.75 1.42 c p1
131.56 75.17 1.42 c p1
152.33 104.56 1.42 c p1
159.25 93.71 1.42 c p1
182.46 100.73 1.42 c p1
205.19 133.22 1.42 c p1
158.42 92.57 1.42 c p1
195.71 129.40 1.42 c p1
195.20 102.80 1.42 c p1
250.68 175.63 1.42 c p1
172.11 105.18 1.42 c p1
153.23 109.92 1.42 c p1
209.09 157.60 1.42 c p1
156.73 104.93 1.42 c p1
166.33 111.50 1.42 c p1
161.69 114.94 1.42 c p1
141.63 88.04 1.42 c p1
147.66 93.37 1.42 c p1
184.26 124.94 1.42 c p1
151.42 116.05 1.42 c p1
221.50 147.81 1.42 c p1
279.34 211.36 1.42 c p1
187.15 124.23 1.42 c p1
166.33 136.33 1.42 c p1
243.06 193.70 1.42 c p1
220.79 150.37 1.42 c p1
236.64 168.57 1.42 c p1
189.38 139.83 1.42 c p1
328.35 247.83 1.42 c p1
130.35 85.43 1.42 c p1
265.50 192.01 1.42 c p1
209.51 171.70 1.42 c p1
179.38 139.28 1.42 c p1
223.27 178.50 1.42 c p1
142.67 91.39 1.42 c p1
213.60 147.99 1.42 c p1
186.00 128.59 1.42 c p1
202.93 126.02 1.42 c p1
224.65 174.30 1.42 c p1
164.05 119.44 1.42 c p1
221.86 164.34 1.42 c p1
231.83 164.56 1.42 c p1
155.00 134.90 1.42 c p1
302.06 223.72 1.42 c p1
157.58 105.45 1.42 c p1
198.20 132.76 1.42 c p1
198.68 132.73 1.42 c p1
172.80 129.73 1.42 c p1
195.20 139.81 1.42 c p1
273.37 199.72 1.42 c p1
183.07 126.58 1.42 c p1
222.92 142.92 1.42 c p1
232.14 128.44 1.42 c p1
252.35 197.57 1.42 c p1
206.95 139.97 1.42 c p1
207.81 144.87 1.42 c p1
193.14 143.26 1.42 c p1
130.35 101.24 1.42 c p1
150.50 115.58 1.42 c p1
230.57 179.53 1.42 c p1
231.52 174.50 1.42 c p1
130.35 76.42 1.42 c p1
240.06 182.96 1.42 c p1
164.82 132.80 1.42 c p1
174.16 133.76 1.42 c p1
199.17 127.18 1.42 c p1
178.11 85.65 1.42 c p1
163.27 126.15 1.42 c p1
217.84 163.75 1.42 c p1
186.58 131.60 1.42 c p1
186.00 152.63 1.42 c p1
199.17 173.74 1.42 c p1
142.67 95.02 1.42 c p1
237.80 167.91 1.42 c p1
298.47 236.27 1.42 c p1
186.00 121.22 1.42 c p1
158.42 115.62 1.42 c p1
212.80 133.70 1.42 c p1
139.51 116.04 1.42 c p1
205.63 156.36 1.42 c p1
155.00 97.96 1.42 c p1
150.50 130.98 1.42 c p1
172.80 106.67 1.42 c p1
276.16 212.99 1.42 c p1
180.01 90.66 1.42 c p1
180.01 128.08 1.42 c p1
168.55 109.53 1.42 c p1
202.01 133.89 1.42 c p1
137.32 89.19 1.42 c p1
188.83 107.70 1.42 c p1
187.15 110.53 1.42 c p1
174.84 143.72 1.42 c p1
267.06 203.12 1.42 c p1
257.14 206.73 1.42 c p1
170.00 112.89 1.42 c p1
189.93 110.41 1.42 c p1
220.06 171.43 1.42 c p1
144.71 105.61 1.42 c p1
376.83 289.29 1.42 c p1
208.67 144.89 1.42 c p1
183.66 113.35 1.42 c p1
145.70 101.08 1.42 c p1
222.57 163.10 1.42 c p1
155.87 89.71 1.42 c p1
269.91 118.69 1.42 c p1
157.58 81.23 1.42 c p1
155.87 103.82 1.42 c p1
216.71 158.52 1.42 c p1
190.48 120.66 1.42 c p1
178.11 79.22 1.42 c p1
149.56 96.63 1.42 c p1
181.25 118.98 1.42 c p1
219.33 153.00 1.42 c p1
176.82 99.66 1.42 c p1
187.15 37.42 1.42 c p1
154.12 89.09 1.42 c p1
150.50 114.93 1.42 c p1
242.52 179.62 1.42 c p1
176.16 115.32 1.42 c p1
184.84 144.81 1.42 c p1
140.58 106.58 1.42 c p1
247.22 202.82 1.42 c p1
151.42 109.33 1.42 c p1
188.83 136.59 1.42 c p1
230.89 164.13 1.42 c p1
184.84 121.02 1.42 c p1
209.09 132.61 1.42 c p1
139.51 98.16 1.42 c p1
144.71 81.71 1.42 c p1
160.07 83.81 1.42 c p1
228.65 180.37 1.42 c p1
245.94 199.80 1.42 c p1
213.20 160.99 1.42 c p1
207.81 135.15 1.42 c p1
144.71 86.17 1.42 c p1
294.97 234.55 1.42 c p1
206.95 146.97 1.42 c p1
213.20 149.42 1.42 c p1
163.27 111.41 1.42 c p1
150.50 118.57 1.42 c p1
266.48 220.94 1.42 c p1
173.49 112.61 1.42 c p1
236.06 189.79 1.42 c p1
169.28 106.71 1.42 c p1
187.71 141.67 1.42 c p1
155.00 117.26 1.42 c p1
191.55 66.57 1.42 c p1
239.50 171.31 1.42 c p1
245.94 168.40 1.42 c p1
242.25 186.98 1.42 c p1
154.12 110.66 1.42 c p1
183.66 133.69 1.42 c p1
196.71 123.10 1.42 c p1
143.69 118.25 1.42 c p1
156.73 115.38 1.42 c p1
178.75 92.48 1.42 c p1
153.23 110.61 1.42 c p1
183.07 135.15 1.42 c p1
186.00 137.99 1.42 c p1
196.21 128.91 1.42 c p1
141.63 84.99 1.42 c p1
143.69 78.79 1.42 c p1
169.28 135.00 1.42 c p1
369.89 280.42 1.42 c p1
138.42 97.15 1.42 c p1
214.39 134.02 1.42 c p1
147.66 110.82 1.42 c p1
164.05 103.53 1.42 c p1
138.42 102.22 1.42 c p1
188.83 119.13 1.42 c p1
165.58 112.20 1.42 c p1
187.71 140.63 1.42 c p1
176.16 130.60 1.42 c p1
215.17 120.97 1.42 c p1
149.56 124.25 1.42 c p1
199.17 116.99 1.42 c p1
192.61 158.84 1.42 c p1
187.15 110.56 1.42 c p1
207.81 144.75 1.42 c p1
175.50 114.70 1.42 c p1
255.58 181.55 1.42 c p1
164.82 125.27 1.42 c p1
174.84 86.29 1.42 c p1
174.84 98.68 1.42 c p1
217.09 127.09 1.42 c p1
163.27 117.45 1.42 c p1
154.12 109.74 1.42 c p1
206.95 151.41 1.42 c p1
172.80 63.41 1.42 c p1
246.71 207.41 1.42 c p1
153.23 50.85 1.42 c p1
147.66 49.97 1.42 c p1
159.25 94.04 1.42 c p1
140.58 93.67 1.42 c p1
165.58 122.66 1.42 c p1
191.02 97.89 1.42 c p1
172.80 99.76 1.42 c p1
155.87 90.91 1.42 c p1
262.06 183.48 1.42 c p1
228.00 161.62 1.42 c p1
197.71 134.57 1.42 c p1
221.15 149.49 1.42 c p1
164.05 107.51 1.42 c p1
190.48 127.15 1.42 c p1
165.58 82.20 1.42 c p1
238.37 192.48 1.42 c p1
235.17 171.91 1.42 c p1
179.38 94.60 1.42 c p1
204.29 174.60 1.42 c p1
165.58 93.60 1.42 c p1
167.08 133.32 1.42 c p1
190.48 106.52 1.42 c p1
170.00 80.49 1.42 c p1
145.70 82.35 1.42 c p1
153.23 117.76 1.42 c p1
191.55 90.15 1.42 c p1
196.21 117.99 1.42 c p1
240.89 179.77 1.42 c p1
136.20 100.69 1.42 c p1
153.23 100.34 1.42 c p1
227.34 144.69 1.42 c p1
184.26 103.53 1.42 c p1
137.32 80.16 1.42 c p1
150.50 98.51 1.42 c p1
195.20 91.40 1.42 c p1
277.52 194.34 1.42 c p1
136.20 104.70 1.42 c p1
262.89 187.99 1.42 c p1
132.75 80.51 1.42 c p1
276.84 166.57 1.42 c p1
224.99 170.10 1.42 c p1
200.60 132.70 1.42 c p1
207.38 143.34 1.42 c p1
154.12 89.53 1.42 c p1
194.18 149.99 1.42 c p1
246.20 187.56 1.42 c p1
290.02 207.11 1.42 c p1
211.99 139.53 1.42 c p1
200.60 126.89 1.42 c p1
305.03 226.47 1.42 c p1
221.15 133.71 1.42 c p1
213.60 146.49 1.42 c p1
208.67 139.97 1.42 c p1
231.20 167.44 1.42 c p1
158.42 93.54 1.42 c p1
195.20 75.42 1.42 c p1
211.99 163.27 1.42 c p1
228.33 157.00 1.42 c p1
246.71 188.96 1.42 c p1
151.42 79.60 1.42 c p1
348.51 260.50 1.42 c p1
203.39 132.16 1.42 c p1
260.18 186.22 1.42 c p1
167.82 83.69 1.42 c p1
254.21 164.22 1.42 c p1
277.69 196.29 1.42 c p1
172.80 120.92 1.42 c p1
262.06 176.69 1.42 c p1
211.17 144.05 1.42 c p1
191.02 154.44 1.42 c p1
153.23 112.14 1.42 c p1
192.61 130.42 1.42 c p1
236.64 100.87 1.42 c p1
167.82 110.94 1.42 c p1
147.66 79.82 1.42 c p1
249.46 169.69 1.42 c p1
278.85 212.80 1.42 c p1
143.69 71.56 1.42 c p1
224.99 137.79 1.42 c p1
160.89 105.23 1.42 c p1
217.47 131.27 1.42 c p1
334.69 261.89 1.42 c p1
155.87 75.30 1.42 c p1
135.07 86.18 1.42 c p1
269.35 181.62 1.42 c p1
133.92 113.42 1.42 c p1
196.71 153.15 1.42 c p1
155.87 123.34 1.42 c p1
228.00 141.73 1.42 c p1
146.69 82.98 1.42 c p1
185.43 129.96 1.42 c p1
345.00 272.44 1.42 c p1
226.35 163.99 1.42 c p1
214.39 160.09 1.42 c p1
150.50 114.09 1.42 c p1
191.55 166.16 1.42 c p1
215.56 151.79 1.42 c p1
176.82 140.69 1.42 c p1
189.93 128.05 1.42 c p1
232.45 159.78 1.42 c p1
181.25 91.61 1.42 c p1
158.42 80.86 1.42 c p1
172.80 144.34 1.42 c p1
214.39 158.33 1.42 c p1
176.82 132.79 1.42 c p1
384.70 306.70 1.42 c p1
151.42 108.06 1.42 c p1
186.58 134.42 1.42 c p1
191.55 133.94 1.42 c p1
173.49 77.25 1.42 c p1
270.10 179.15 1.42 c p1
151.42 131.16 1.42 c p1
208.67 145.52 1.42 c p1
195.20 116.72 1.42 c p1
152.33 89.15 1.42 c p1
227.01 172.53 1.42 c p1
174.16 109.04 1.42 c p1
256.70 211.01 1.42 c p1
167.08 126.70 1.42 c p1
246.71 185.94 1.42 c p1
282.56 210.28 1.42 c p1
169.28 110.50 1.42 c p1
149.56 94.60 1.42 c p1
175.50 88.91 1.42 c p1
172.11 92.97 1.42 c p1
238.37 189.00 1.42 c p1
169.28 110.99 1.42 c p1
190.48 133.77 1.42 c p1
169.28 97.83 1.42 c p1
223.27 144.23 1.42 c p1
167.08 141.82 1.42 c p1
155.00 63.93 1.42 c p1
248.97 201.53 1.42 c p1
232.45 164.92 1.42 c p1
295.23 217.40 1.42 c p1
161.69 113.61 1.42 c p1
222.57 161.66 1.42 c p1
209.51 151.69 1.42 c p1
250.19 200.50 1.42 c p1
130.35 105.89 1.42 c p1
167.08 131.13 1.42 c p1
214.78 138.75 1.42 c p1
258.67 180.07 1.42 c p1
223.62 156.81 1.42 c p1
331.26 258.82 1.42 c p1
181.25 125.38 1.42 c p1
152.33 110.46 1.42 c p1
187.15 141.44 1.42 c p1
155.87 119.12 1.42 c p1
196.71 131.60 1.42 c p1
167.82 105.45 1.42 c p1
223.27 176.23 1.42 c p1
320.95 256.26 1.42 c p1
228.65 148.55 1.42 c p1
206.95 150.56 1.42 c p1
140.58 74.05 1.42 c p1
241.44 172.70 1.42 c p1
154.12 115.14 1.42 c p1
203.39 137.40 1.42 c p1
219.33 185.95 1.42 c p1
207.81 139.04 1.42 c p1
196.71 144.19 1.42 c p1
164.82 130.44 1.42 c p1
181.86 149.85 1.42 c p1
217.09 171.33 1.42 c p1
183.07 125.10 1.42 c p1
287.13 245.40 1.42 c p1
233.37 158.66 1.42 c p1
170.71 109.56 1.42 c p1
192.61 135.39 1.42 c p1
252.82 182.54 1.42 c p1
166.33 92.37 1.42 c p1
190.48 121.80 1.42 c p1
217.09 158.43 1.42 c p1
177.47 103.06 1.42 c p1
255.80 188.97 1.42 c p1
224.99 159.20 1.42 c p1
161.69 83.17 1.42 c p1
176.16 124.59 1.42 c p1
193.14 137.36 1.42 c p1
347.34 275.45 1.42 c p1
182.46 101.47 1.42 c p1
256.25 201.31 1.42 c p1
174.84 135.85 1.42 c p1
214.78 164.05 1.42 c p1
215.94 153.13 1.42 c p1
169.28 112.28 1.42 c p1
130.35 81.20 1.42 c p1
206.95 149.58 1.42 c p1
188.83 127.76 1.42 c p1
325.76 260.96 1.42 c p1
176.16 111.68 1.42 c p1
203.39 159.34 1.42 c p1
204.74 145.67 1.42 c p1
176.82 85.54 1.42 c p1
299.23 221.46 1.42 c p1
241.44 212.41 1.42 c p1
164.05 110.00 1.42 c p1
263.09 198.37 1.42 c p1
281.61 193.64 1.42 c p1
206.51 129.57 1.42 c p1
150.50 91.99 1.42 c p1
180.63 104.26 1.42 c p1
155.87 75.27 1.42 c p1
197.21 110.45 1.42 c p1
270.47 192.52 1.42 c p1
202.47 84.57 1.42 c p1
176.82 119.22 1.42 c p1
256.25 155.71 1.42 c p1
141.63 104.06 1.42 c p1
226.68 106.63 1.42 c p1
179.38 126.74 1.42 c p1
147.66 72.92 1.42 c p1
216.33 163.94 1.42 c p1
179.38 89.27 1.42 c p1
191.55 100.01 1.42 c p1
184.26 135.51 1.42 c p1
151.42 69.59 1.42 c p1
184.84 129.17 1.42 c p1
225.33 170.79 1.42 c p1
189.93 131.99 1.42 c p1
197.71 119.43 1.42 c p1
178.11 120.13 1.42 c p1
202.93 135.57 1.42 c p1
253.52 146.36 1.42 c p1
256.92 189.19 1.42 c p1
179.38 127.86 1.42 c p1
239.22 174.89 1.42 c p1
147.66 107.60 1.42 c p1
298.98 232.59 1.42 c p1
225.33 154.45 1.42 c p1
213.20 150.92 1.42 c p1
187.71 115.20 1.42 c p1
170.00 140.87 1.42 c p1
176.82 89.45 1.42 c p1
167.82 94.09 1.42 c p1
155.00 73.17 1.42 c p1
223.27 164.88 1.42 c p1
177.47 128.49 1.42 c p1
173.49 88.11 1.42 c p1
153.23 115.73 1.42 c p1
206.95 150.23 1.42 c p1
208.67 127.58 1.42 c p1
137.32 80.12 1.42 c p1
184.26 127.25 1.42 c p1
178.75 108.32 1.42 c p1
156.73 103.18 1.42 c p1
170.71 120.03 1.42 c p1
224.99 166.96 1.42 c p1
222.92 145.29 1.42 c p1
237.80 155.98 1.42 c p1
293.08 234.35 1.42 c p1
171.41 95.13 1.42 c p1
225.67 159.42 1.42 c p1
152.33 80.87 1.42 c p1
236.64 181.71 1.42 c p1
230.89 164.55 1.42 c p1
191.55 102.29 1.42 c p1
227.34 170.90 1.42 c p1
231.20 202.37 1.42 c p1
183.66 131.06 1.42 c p1
180.63 120.24 1.42 c p1
353.63 276.76 1.42 c p1
202.01 142.19 1.42 c p1
217.47 144.65 1.42 c p1
141.63 79.19 1.42 c p1
193.14 146.47 1.42 c p1
167.82 101.09 1.42 c p1
191.55 149.75 1.42 c p1
167.82 125.99 1.42 c p1
196.21 152.14 1.42 c p1
136.20 107.81 1.42 c p1
176.16 102.80 1.42 c p1
169.28 99.66 1.42 c p1
157.58 109.13 1.42 c p1
181.86 138.84 1.42 c p1
195.20 146.07 1.42 c p1
268.98 197.99 1.42 c p1
183.66 135.89 1.42 c p1
200.13 145.70 1.42 c p1
239.22 179.16 1.42 c p1
196.71 84.13 1.42 c p1
170.71 99.71 1.42 c p1
135.07 80.87 1.42 c p1
161.69 83.58 1.42 c p1
240.62 174.28 1.42 c p1
224.31 78.50 1.42 c p1
161.69 92.32 1.42 c p1
193.66 126.64 1.42 c p1
136.20 86.54 1.42 c p1
191.55 154.07 1.42 c p1
253.75 181.05 1.42 c p1
200.13 147.82 1.42 c p1
172.80 65.11 1.42 c p1
142.67 121.92 1.42 c p1
208.24 113.78 1.42 c p1
193.66 122.94 1.42 c p1
340.39 231.15 1.42 c p1
160.89 100.16 1.42 c p1
173.49 103.15 1.42 c p1
188.83 63.70 1.42 c p1
155.87 82.90 1.42 c p1
219.70 167.86 1.42 c p1
230.26 142.24 1.42 c p1
215.17 148.54 1.42 c p1
378.58 287.18 1.42 c p1
142.67 105.40 1.42 c p1
193.66 141.22 1.42 c p1
172.11 117.93 1.42 c p1
236.93 184.34 1.42 c p1
233.67 150.21 1.42 c p1
152.33 114.13 1.42 c p1
146.69 97.63 1.42 c p1
167.08 112.23 1.42 c p1
217.84 129.73 1.42 c p1
174.16 105.66 1.42 c p1
171.41 116.89 1.42 c p1
202.93 100.79 1.42 c p1
198.68 121.23 1.42 c p1
155.00 119.01 1.42 c p1
223.96 151.33 1.42 c p1
181.25 82.60 1.42 c p1
234.27 149.96 1.42 c p1
206.95 168.23 1.42 c p1
186.00 84.24 1.42 c p1
149.56 101.70 1.42 c p1
251.87 160.78 1.42 c p1
180.01 107.67 1.42 c p1
258.89 198.85 1.42 c p1
342.87 265.12 1.42 c p1
155.87 100.22 1.42 c p1
169.28 97.04 1.42 c p1
273.90 214.82 1.42 c p1
153.23 99.87 1.42 c p1
187.15 127.53 1.42 c p1
220.06 147.53 1.42 c p1
223.62 155.28 1.42 c p1
184.84 132.35 1.42 c p1
169.28 129.82 1.42 c p1
135.07 109.60 1.42 c p1
297.58 240.21 1.42 c p1
220.79 148.64 1.42 c p1
158.42 91.94 1.42 c p1
198.20 122.91 1.42 c p1
206.95 135.74 1.42 c p1
202.01 132.55 1.42 c p1
220.06 171.11 1.42 c p1
172.80 108.05 1.42 c p1
186.58 125.38 1.42 c p1
345.68 274.80 1.42 c p1
161.69 106.09 1.42 c p1
144.71 97.68 1.42 c p1
151.42 98.59 1.42 c p1
164.82 81.42 1.42 c p1
169.28 116.46 1.42 c p1
152.33 97.42 1.42 c p1
131.56 104.81 1.42 c p1
220.06 139.25 1.42 c p1
227.01 180.42 1.42 c p1
130.35 61.42 1.42 c p1
213.99 155.74 1.42 c p1
141.63 49.58 1.42 c p1
206.95 143.65 1.42 c p1
233.06 163.09 1.42 c p1
186.58 105.33 1.42 c p1
290.16 219.05 1.42 c p1
142.67 127.55 1.42 c p1
147.66 97.48 1.42 c p1
237.22 160.93 1.42 c p1
285.18 198.59 1.42 c p1
228.33 170.59 1.42 c p1
170.00 118.30 1.42 c p1
164.82 106.26 1.42 c p1
167.82 100.01 1.42 c p1
141.63 99.00 1.42 c p1
245.69 177.34 1.42 c p1
130.35 100.63 1.42 c p1
146.69 86.10 1.42 c p1
195.71 123.51 1.42 c p1
142.67 94.42 1.42 c p1
273.37 191.86 1.42 c p1
144.71 89.64 1.42 c p1
202.47 135.15 1.42 c p1
261.65 178.63 1.42 c p1
241.98 164.85 1.42 c p1
219.33 160.22 1.42 c p1
230.89 160.35 1.42 c p1
269.35 201.17 1.42 c p1
198.68 131.25 1.42 c p1
136.20 102.01 1.42 c p1
261.02 182.92 1.42 c p1
174.84 112.34 1.42 c p1
234.87 160.56 1.42 c p1
167.08 90.68 1.42 c p1
283.96 214.21 1.42 c p1
149.56 108.96 1.42 c p1
194.69 139.92 1.42 c p1
253.05 183.72 1.42 c p1
206.51 145.65 1.42 c p1
209.51 146.63 1.42 c p1
245.69 186.12 1.42 c p1
209.93 140.05 1.42 c p1
225.33 148.11 1.42 c p1
148.62 78.74 1.42 c p1
182.46 107.21 1.42 c p1
333.99 244.88 1.42 c p1
174.84 132.73 1.42 c p1
194.18 99.87 1.42 c p1
152.33 112.93 1.42 c p1
220.06 119.76 1.42 c p1
199.17 148.40 1.42 c p1
190.48 131.85 1.42 c p1
210.76 109.80 1.42 c p1
202.01 139.15 1.42 c p1
248.22 153.65 1.42 c p1
161.69 121.02 1.42 c p1
222.92 147.68 1.42 c p1
189.38 102.12 1.42 c p1
296.94 209.71 1.42 c p1
193.14 136.36 1.42 c p1
249.70 151.16 1.42 c p1
298.47 220.72 1.42 c p1
331.26 260.47 1.42 c p1
174.16 114.94 1.42 c p1
224.65 183.72 1.42 c p1
193.66 82.06 1.42 c p1
158.42 155.29 1.42 c p1
202.47 216.94 1.42 c p1
292.54 235.63 1.42 c p1
267.84 208.80 1.42 c p1
244.39 244.68 1.42 c p1
251.87 133.91 1.42 c p1
200.60 141.67 1.42 c p1
271.57 218.25 1.42 c p1
273.19 191.46 1.42 c p1
215.56 120.43 1.42 c p1
261.02 225.25 1.42 c p1
176.82 102.55 1.42 c p1
313.78 239.87 1.42 c p1
237.51 195.07 1.42 c p1
187.15 190.08 1.42 c p1
192.08 130.31 1.42 c p1
184.84 142.13 1.42 c p1
211.58 193.03 1.42 c p1
312.32 207.33 1.42 c p1
149.56 90.98 1.42 c p1
214.39 120.19 1.42 c p1
135.07 98.67 1.42 c p1
242.25 145.63 1.42 c p1
195.71 139.35 1.42 c p1
148.62 74.59 1.42 c p1
321.51 232.55 1.42 c p1
206.07 137.76 1.42 c p1
360.27 281.90 1.42 c p1
158.42 119.64 1.42 c p1
233.97 170.29 1.42 c p1
184.26 139.24 1.42 c p1
165.58 137.39 1.42 c p1
183.07 96.34 1.42 c p1
203.84 145.15 1.42 c p1
171.41 119.43 1.42 c p1
229.30 158.42 1.42 c p1
228.33 159.53 1.42 c p1
175.50 92.99 1.42 c p1
280.48 229.62 1.42 c p1
147.66 67.24 1.42 c p1
264.10 204.29 1.42 c p1
140.58 102.03 1.42 c p1
131.56 101.96 1.42 c p1
170.71 95.45 1.42 c p1
202.01 81.17 1.42 c p1
143.69 88.74 1.42 c p1
143.69 66.85 1.42 c p1
144.71 69.00 1.42 c p1
155.87 116.69 1.42 c p1
284.11 212.37 1.42 c p1
229.30 195.17 1.42 c p1
268.60 187.83 1.42 c p1
230.26 171.18 1.42 c p1
229.30 158.84 1.42 c p1
172.11 114.35 1.42 c p1
201.54 149.10 1.42 c p1
291.01 221.11 1.42 c p1
279.67 213.94 1.42 c p1
254.21 191.29 1.42 c p1
178.11 131.39 1.42 c p1
141.63 98.81 1.42 c p1
380.70 304.74 1.42 c p1
164.82 97.30 1.42 c p1
181.86 177.83 1.42 c p1
137.32 94.54 1.42 c p1
183.07 141.73 1.42 c p1
273.55 212.61 1.42 c p1
363.67 286.54 1.42 c p1
276.33 215.78 1.42 c p1
167.82 77.90 1.42 c p1
296.94 231.55 1.42 c p1
139.51 99.40 1.42 c p1
229.94 151.43 1.42 c p1
282.56 225.98 1.42 c p1
346.41 271.25 1.42 c p1
154.12 101.73 1.42 c p1
335.77 238.18 1.42 c p1
271.20 192.58 1.42 c p1
169.28 125.22 1.42 c p1
206.07 159.76 1.42 c p1
226.01 159.20 1.42 c p1
434.44 341.07 1.42 c p1
160.89 99.62 1.42 c p1
163.27 106.57 1.42 c p1
222.22 159.95 1.42 c p1
340.67 254.52 1.42 c p1
166.33 119.04 1.42 c p1
187.15 134.92 1.42 c p1
196.21 124.21 1.42 c p1
238.37 167.12 1.42 c p1
141.63 104.93 1.42 c p1
222.22 119.79 1.42 c p1
268.22 200.81 1.42 c p1
349.60 271.59 1.42 c p1
300.23 230.94 1.42 c p1
132.75 63.72 1.42 c p1
168.55 105.26 1.42 c p1
343.43 269.42 1.42 c p1
133.92 92.34 1.42 c p1
307.31 242.42 1.42 c p1
286.38 208.25 1.42 c p1
183.66 89.05 1.42 c p1
231.83 163.33 1.42 c p1
262.48 180.68 1.42 c p1
165.58 119.42 1.42 c p1
259.54 192.61 1.42 c p1
429.41 335.56 1.42 c p1
152.33 96.48 1.42 c p1
192.08 109.46 1.42 c p1
396.54 305.32 1.42 c p1
239.22 173.96 1.42 c p1
139.51 104.44 1.42 c p1
258.67 195.52 1.42 c p1
176.82 77.75 1.42 c p1
231.20 163.54 1.42 c p1
278.35 202.21 1.42 c p1
363.14 271.76 1.42 c p1
211.58 147.25 1.42 c p1
185.43 130.63 1.42 c p1
180.63 114.93 1.42 c p1
243.59 176.65 1.42 c p1
139.51 115.46 1.42 c p1
167.08 113.10 1.42 c p1
231.52 158.86 1.42 c p1
153.23 117.03 1.42 c p1
194.18 155.82 1.42 c p1
275.47 215.48 1.42 c p1
213.60 159.27 1.42 c p1
140.58 61.77 1.42 c p1
189.38 130.42 1.42 c p1
136.20 95.50 1.42 c p1
192.61 126.65 1.42 c p1
209.93 132.10 1.42 c p1
209.09 173.59 1.42 c p1
211.99 154.20 1.42 c p1
229.30 166.54 1.42 c p1
140.58 112.44 1.42 c p1
263.50 204.77 1.42 c p1
337.07 246.39 1.42 c p1
181.86 128.28 1.42 c p1
305.72 226.84 1.42 c p1
195.71 143.28 1.42 c p1
210.35 144.59 1.42 c p1
167.82 108.98 1.42 c p1
198.20 98.35 1.42 c p1
183.07 148.42 1.42 c p1
173.49 104.01 1.42 c p1
203.84 138.41 1.42 c p1
276.16 206.58 1.42 c p1
282.87 216.64 1.42 c p1
153.23 68.33 1.42 c p1
254.67 191.57 1.42 c p1
205.19 149.52 1.42 c p1
309.42 240.26 1.42 c p1
201.54 157.31 1.42 c p1
156.73 95.09 1.42 c p1
289.17 227.95 1.42 c p1
208.24 163.65 1.42 c p1
154.12 107.93 1.42 c p1
246.46 187.41 1.42 c p1
184.26 144.82 1.42 c p1
174.16 109.59 1.42 c p1
172.11 97.51 1.42 c p1
211.58 139.05 1.42 c p1
225.33 163.06 1.42 c p1
370.18 282.84 1.42 c p1
142.67 117.66 1.42 c p1
151.42 107.59 1.42 c p1
187.71 135.27 1.42 c p1
143.69 65.77 1.42 c p1
187.15 152.19 1.42 c p1
181.86 123.71 1.42 c p1
273.37 213.41 1.42 c p1
176.16 121.78 1.42 c p1
189.93 78.42 1.42 c p1
148.62 93.67 1.42 c p1
146.69 80.82 1.42 c p1
313.57 240.83 1.42 c p1
192.08 140.52 1.42 c p1
310.94 236.62 1.42 c p1
176.82 123.94 1.42 c p1
170.00 122.14 1.42 c p1
446.63 361.31 1.42 c p1
155.87 107.71 1.42 c p1
180.01 133.26 1.42 c p1
269.73 206.64 1.42 c p1
252.58 184.59 1.42 c p1
259.75 147.31 1.42 c p1
190.48 132.04 1.42 c p1
208.67 141.48 1.42 c p1
197.21 108.97 1.42 c p1
215.94 161.23 1.42 c p1
197.21 101.42 1.42 c p1
161.69 108.84 1.42 c p1
192.61 131.57 1.42 c p1
183.07 136.03 1.42 c p1
177.47 86.60 1.42 c p1
165.58 123.49 1.42 c p1
250.19 176.14 1.42 c p1
187.71 115.10 1.42 c p1
270.10 203.27 1.42 c p1
216.71 128.20 1.42 c p1
200.60 150.87 1.42 c p1
180.01 94.00 1.42 c p1
164.05 118.66 1.42 c p1
202.93 173.05 1.42 c p1
168.55 90.28 1.42 c p1
233.06 167.80 1.42 c p1
187.71 57.65 1.42 c p1
153.23 135.00 1.42 c p1
250.43 204.25 1.42 c p1
239.50 185.62 1.42 c p1
170.71 100.91 1.42 c p1
339.37 271.30 1.42 c p1
188.27 122.78 1.42 c p1
148.62 82.02 1.42 c p1
246.46 186.77 1.42 c p1
170.00 101.17 1.42 c p1
233.37 142.16 1.42 c p1
275.47 218.23 1.42 c p1
210.76 122.34 1.42 c p1
155.87 91.54 1.42 c p1
143.69 87.44 1.42 c p1
167.08 119.10 1.42 c p1
231.52 167.32 1.42 c p1
246.97 190.06 1.42 c p1
148.62 62.78 1.42 c p1
161.69 120.93 1.42 c p1
228.98 164.31 1.42 c p1
198.68 148.16 1.42 c p1
238.37 171.03 1.42 c p1
194.69 135.24 1.42 c p1
224.99 160.50 1.42 c p1
158.42 122.59 1.42 c p1
209.09 145.24 1.42 c p1
202.47 157.66 1.42 c p1
229.94 166.36 1.42 c p1
208.24 145.06 1.42 c p1
161.69 88.80 1.42 c p1
236.06 176.12 1.42 c p1
232.14 155.26 1.42 c p1
130.35 77.02 1.42 c p1
395.79 332.14 1.42 c p1
345.27 277.00 1.42 c p1
228.98 163.03 1.42 c p1
242.52 174.27 1.42 c p1
176.16 113.19 1.42 c p1
185.43 127.35 1.42 c p1
157.58 103.73 1.42 c p1
149.56 120.63 1.42 c p1
224.99 179.11 1.42 c p1
250.92 176.60 1.42 c p1
199.65 129.93 1.42 c p1
249.46 199.34 1.42 c p1
238.94 166.29 1.42 c p1
254.67 158.77 1.42 c p1
208.67 104.17 1.42 c p1
480.27 378.41 1.42 c p1
218.22 159.23 1.42 c p1
276.67 219.57 1.42 c p1
200.60 129.20 1.42 c p1
155.00 112.23 1.42 c p1
359.49 249.82 1.42 c p1
160.89 112.88 1.42 c p1
236.06 166.19 1.42 c p1
195.71 110.14 1.42 c p1
321.51 252.85 1.42 c p1
174.84 127.90 1.42 c p1
343.98 281.50 1.42 c p1
244.39 174.40 1.42 c p1
234.87 164.54 1.42 c p1
251.40 190.46 1.42 c p1
413.58 318.17 1.42 c p1
306.52 224.60 1.42 c p1
150.50 123.30 1.42 c p1
259.75 196.48 1.42 c p1
150.50 125.06 1.42 c p1
186.00 126.39 1.42 c p1
262.68 189.90 1.42 c p1
258.89 199.83 1.42 c p1
258.67 171.01 1.42 c p1
155.87 138.62 1.42 c p1
129.12 114.14 1.42 c p1
131.56 86.21 1.42 c p1
156.73 100.48 1.42 c p1
228.00 156.80 1.42 c p1
321.98 214.80 1.42 c p1
343.49 268.84 1.42 c p1
227.01 150.69 1.42 c p1
270.10 191.28 1.42 c p1
231.83 149.99 1.42 c p1
282.24 227.36 1.42 c p1
174.16 106.36 1.42 c p1
299.23 225.96 1.42 c p1
223.27 154.19 1.42 c p1
240.89 181.89 1.42 c p1
362.02 289.39 1.42 c p1
289.60 215.72 1.42 c p1
271.20 192.90 1.42 c p1
191.02 114.56 1.42 c p1
140.58 78.47 1.42 c p1
301.82 234.94 1.42 c p1
222.57 140.52 1.42 c p1
198.68 107.29 1.42 c p1
280.16 227.87 1.42 c p1
233.97 166.18 1.42 c p1
177.47 108.90 1.42 c p1
154.12 103.35 1.42 c p1
186.00 122.07 1.42 c p1
226.35 155.48 1.42 c p1
255.12 200.77 1.42 c p1
140.58 80.04 1.42 c p1
223.62 173.79 1.42 c p1
291.01 220.02 1.42 c p1
258.02 184.13 1.42 c p1
153.23 92.26 1.42 c p1
256.03 189.00 1.42 c p1
176.16 119.54 1.42 c p1
167.08 91.76 1.42 c p1
217.84 140.86 1.42 c p1
289.60 223.51 1.42 c p1
468.84 374.28 1.42 c p1
1 0 0 srgb
2.13 setlinewidth
[] 0 setdash
0 setlinecap
np
44.43 0.00 m
7.63 6.78 l
8.01 7.12 l
8.01 7.13 l
8.01 7.12 l
8.01 7.13 l
8.01 7.12 l
8.02 7.12 l
8.01 7.13 l
8.01 7.12 l
8.01 7.13 l
8.01 7.12 l
8.01 7.12 l
8.02 7.13 l
8.01 7.12 l
8.01 7.12 l
8.01 7.13 l
8.01 7.12 l
8.01 7.13 l
8.02 7.12 l
8.01 7.12 l
8.01 7.13 l
8.01 7.12 l
8.01 7.13 l
8.01 7.12 l
8.02 7.12 l
8.01 7.13 l
8.01 7.12 l
8.01 7.12 l
8.01 7.13 l
8.01 7.12 l
8.02 7.13 l
8.01 7.12 l
8.01 7.12 l
8.01 7.13 l
8.01 7.12 l
8.01 7.13 l
8.02 7.12 l
8.01 7.12 l
8.01 7.13 l
8.01 7.12 l
8.01 7.12 l
8.01 7.13 l
8.02 7.12 l
8.01 7.13 l
8.01 7.12 l
8.01 7.12 l
8.01 7.13 l
8.01 7.12 l
8.02 7.13 l
8.01 7.12 l
8.01 7.12 l
8.01 7.13 l
8.01 7.12 l
8.01 7.13 l
8.02 7.12 l
8.01 7.12 l
8.01 7.13 l
8.01 7.12 l
8.01 7.12 l
8.01 7.13 l
8.02 7.12 l
8.01 7.13 l
8.01 7.12 l
5.72 5.08 l
o
0 0 0 srgb
2.13 setlinewidth
[ 8.54 8.54] 0 setdash
np
76.97 43.35 m
484.48 404.71 l
o
/Font1 findfont 24 s
101.19 412.99 (A\)) 0 0 t
76.97 43.35 561.45 448.06 cl
0 0 0 srgb
1.07 setlinewidth
[] 0 setdash
1 setlinecap
1 setlinejoin
10.00 setmiterlimit
np
47.48 43.35 m
0 2.83 l
o
np
77.61 43.35 m
0 2.83 l
o
np
98.99 43.35 m
0 2.83 l
o
np
115.57 43.35 m
0 5.67 l
o
np
129.12 43.35 m
0 2.83 l
o
np
140.58 43.35 m
0 2.83 l
o
np
150.50 43.35 m
0 2.83 l
o
np
159.25 43.35 m
0 2.83 l
o
np
167.08 43.35 m
0 8.50 l
o
np
218.59 43.35 m
0 2.83 l
o
np
248.72 43.35 m
0 2.83 l
o
np
270.10 43.35 m
0 2.83 l
o
np
286.68 43.35 m
0 5.67 l
o
np
300.23 43.35 m
0 2.83 l
o
np
311.68 43.35 m
0 2.83 l
o
np
321.61 43.35 m
0 2.83 l
o
np
330.36 43.35 m
0 2.83 l
o
np
338.19 43.35 m
0 8.50 l
o
np
389.70 43.35 m
0 2.83 l
o
np
419.83 43.35 m
0 2.83 l
o
np
441.21 43.35 m
0 2.83 l
o
np
457.79 43.35 m
0 5.67 l
o
np
471.34 43.35 m
0 2.83 l
o
np
482.79 43.35 m
0 2.83 l
o
np
492.72 43.35 m
0 2.83 l
o
np
501.47 43.35 m
0 2.83 l
o
np
509.30 43.35 m
0 8.50 l
o
np
560.81 43.35 m
0 2.83 l
o
np
47.48 448.06 m
0 -2.83 l
o
np
77.61 448.06 m
0 -2.83 l
o
np
98.99 448.06 m
0 -2.83 l
o
np
115.57 448.06 m
0 -5.67 l
o
np
129.12 448.06 m
0 -2.83 l
o
np
140.58 448.06 m
0 -2.83 l
o
np
150.50 448.06 m
0 -2.83 l
o
np
159.25 448.06 m
0 -2.83 l
o
np
167.08 448.06 m
0 -8.50 l
o
np
218.59 448.06 m
0 -2.83 l
o
np
248.72 448.06 m
0 -2.83 l
o
np
270.10 448.06 m
0 -2.83 l
o
np
286.68 448.06 m
0 -5.67 l
o
np
300.23 448.06 m
0 -2.83 l
o
np
311.68 448.06 m
0 -2.83 l
o
np
321.61 448.06 m
0 -2.83 l
o
np
330.36 448.06 m
0 -2.83 l
o
np
338.19 448.06 m
0 -8.50 l
o
np
389.70 448.06 m
0 -2.83 l
o
np
419.83 448.06 m
0 -2.83 l
o
np
441.21 448.06 m
0 -2.83 l
o
np
457.79 448.06 m
0 -5.67 l
o
np
471.34 448.06 m
0 -2.83 l
o
np
482.79 448.06 m
0 -2.83 l
o
np
492.72 448.06 m
0 -2.83 l
o
np
501.47 448.06 m
0 -2.83 l
o
np
509.30 448.06 m
0 -8.50 l
o
np
560.81 448.06 m
0 -2.83 l
o
np
76.97 18.72 m
2.83 0 l
o
np
76.97 43.89 m
2.83 0 l
o
np
76.97 61.74 m
2.83 0 l
o
np
76.97 75.60 m
5.67 0 l
o
np
76.97 86.91 m
2.83 0 l
o
np
76.97 96.48 m
2.83 0 l
o
np
76.97 104.77 m
2.83 0 l
o
np
76.97 112.08 m
2.83 0 l
o
np
76.97 118.62 m
8.50 0 l
o
np
76.97 161.65 m
2.83 0 l
o
np
76.97 186.82 m
2.83 0 l
o
np
76.97 204.68 m
2.83 0 l
o
np
76.97 218.53 m
5.67 0 l
o
np
76.97 229.85 m
2.83 0 l
o
np
76.97 239.42 m
2.83 0 l
o
np
76.97 247.71 m
2.83 0 l
o
np
76.97 255.02 m
2.83 0 l
o
np
76.97 261.56 m
8.50 0 l
o
np
76.97 304.59 m
2.83 0 l
o
np
76.97 329.76 m
2.83 0 l
o
np
76.97 347.62 m
2.83 0 l
o
np
76.97 361.47 m
5.67 0 l
o
np
76.97 372.79 m
2.83 0 l
o
np
76.97 382.36 m
2.83 0 l
o
np
76.97 390.65 m
2.83 0 l
o
np
76.97 397.96 m
2.83 0 l
o
np
76.97 404.50 m
8.50 0 l
o
np
76.97 447.53 m
2.83 0 l
o
np
561.45 18.72 m
-2.83 0 l
o
np
561.45 43.89 m
-2.83 0 l
o
np
561.45 61.74 m
-2.83 0 l
o
np
561.45 75.60 m
-5.67 0 l
o
np
561.45 86.91 m
-2.83 0 l
o
np
561.45 96.48 m
-2.83 0 l
o
np
561.45 104.77 m
-2.83 0 l
o
np
561.45 112.08 m
-2.83 0 l
o
np
561.45 118.62 m
-8.50 0 l
o
np
561.45 161.65 m
-2.83 0 l
o
np
561.45 186.82 m
-2.83 0 l
o
np
561.45 204.68 m
-2.83 0 l
o
np
561.45 218.53 m
-5.67 0 l
o
np
561.45 229.85 m
-2.83 0 l
o
np
561.45 239.42 m
-2.83 0 l
o
np
561.45 247.71 m
-2.83 0 l
o
np
561.45 255.02 m
-2.83 0 l
o
np
561.45 261.56 m
-8.50 0 l
o
np
561.45 304.59 m
-2.83 0 l
o
np
561.45 329.76 m
-2.83 0 l
o
np
561.45 347.62 m
-2.83 0 l
o
np
561.45 361.47 m
-5.67 0 l
o
np
561.45 372.79 m
-2.83 0 l
o
np
561.45 382.36 m
-2.83 0 l
o
np
561.45 390.65 m
-2.83 0 l
o
np
561.45 397.96 m
-2.83 0 l
o
np
561.45 404.50 m
-8.50 0 l
o
np
561.45 447.53 m
-2.83 0 l
o
0.2000 0.2000 0.2000 srgb
76.97 43.35 484.48 404.72 r p1
0.00 0.00 566.93 453.54 cl
0.00 0.00 566.93 453.54 cl
0.00 0.00 566.93 453.54 cl
0.00 0.00 566.93 453.54 cl
0.00 0.00 566.93 453.54 cl
0.00 0.00 566.93 453.54 cl
0.00 0.00 566.93 453.54 cl
0.00 0.00 566.93 453.54 cl
0.00 0.00 566.93 453.54 cl
0.00 0.00 566.93 453.54 cl
0.00 0.00 566.93 453.54 cl
0.00 0.00 566.93 453.54 cl
0.00 0.00 566.93 453.54 cl
0.00 0.00 566.93 453.54 cl
0.00 0.00 566.93 453.54 cl
0.00 0.00 566.93 453.54 cl
/Font1 findfont 20 s
0.3020 0.3020 0.3020 srgb
72.04 113.00 (0.01) 1 0 t
72.04 255.94 (0.10) 1 0 t
72.04 398.88 (1.00) 1 0 t
0.00 0.00 566.93 453.54 cl
0.00 0.00 566.93 453.54 cl
0.2000 0.2000 0.2000 srgb
1.07 setlinewidth
[] 0 setdash
0 setlinecap
1 setlinejoin
10.00 setmiterlimit
np
74.23 118.62 m
2.74 0 l
o
np
74.23 261.56 m
2.74 0 l
o
np
74.23 404.50 m
2.74 0 l
o
0.00 0.00 566.93 453.54 cl
0.00 0.00 566.93 453.54 cl
0.00 0.00 566.93 453.54 cl
0.00 0.00 566.93 453.54 cl
0.00 0.00 566.93 453.54 cl
0.00 0.00 566.93 453.54 cl
0.00 0.00 566.93 453.54 cl
0.00 0.00 566.93 453.54 cl
0.00 0.00 566.93 453.54 cl
0.00 0.00 566.93 453.54 cl
0.2000 0.2000 0.2000 srgb
1.07 setlinewidth
[] 0 setdash
0 setlinecap
1 setlinejoin
10.00 setmiterlimit
np
167.08 40.61 m
0 2.74 l
o
np
338.19 40.61 m
0 2.74 l
o
np
509.30 40.61 m
0 2.74 l
o
0.00 0.00 566.93 453.54 cl
0.00 0.00 566.93 453.54 cl
/Font1 findfont 20 s
0.3020 0.3020 0.3020 srgb
167.08 27.18 (0.01) .5 0 t
338.19 27.18 (0.10) .5 0 t
509.30 27.18 (1.00) .5 0 t
0.00 0.00 566.93 453.54 cl
0.00 0.00 566.93 453.54 cl
0.00 0.00 566.93 453.54 cl
0.00 0.00 566.93 453.54 cl
0.00 0.00 566.93 453.54 cl
0.00 0.00 566.93 453.54 cl
/Font1 findfont 22 s
0 0 0 srgb
319.21 8.93 (SUMSS Integrated Flux \(Jy\)) .5 0 t
0.00 0.00 566.93 453.54 cl
0.00 0.00 566.93 453.54 cl
/Font1 findfont 22 s
0 0 0 srgb
17.84 245.71 (MOST Integrated Flux \(Jy\)) .5 90 t
0.00 0.00 566.93 453.54 cl
0.00 0.00 566.93 453.54 cl
0.00 0.00 566.93 453.54 cl
0.00 0.00 566.93 453.54 cl
0.00 0.00 566.93 453.54 cl
0.00 0.00 566.93 453.54 cl
0.00 0.00 566.93 453.54 cl
0.00 0.00 566.93 453.54 cl
0.00 0.00 566.93 453.54 cl
0.00 0.00 566.93 453.54 cl
0.00 0.00 566.93 453.54 cl
0.00 0.00 566.93 453.54 cl
ep
%%Trailer
%%Pages: 1
%%EOF
