%!PS-Adobe-3.0 EPSF-3.0
%%DocumentNeededResources: font Courier
%%+ font Courier-Bold
%%+ font Courier-Oblique
%%+ font Courier-BoldOblique
%%+ font Symbol
%%Title: R Graphics Output
%%Creator: R Software
%%Pages: (atend)
%%BoundingBox: 0 0 567 454
%%EndComments
%%BeginProlog
/bp  { gs sRGB gs } def
% begin .ps.prolog
/gs  { gsave } bind def
/gr  { grestore } bind def
/ep  { showpage gr gr } bind def
/m   { moveto } bind def
/l  { rlineto } bind def
/np  { newpath } bind def
/cp  { closepath } bind def
/f   { fill } bind def
/o   { stroke } bind def
/c   { newpath 0 360 arc } bind def
/r   { 4 2 roll moveto 1 copy 3 -1 roll exch 0 exch rlineto 0 rlineto -1 mul 0 exch rlineto closepath } bind def
/p1  { stroke } bind def
/p2  { gsave bg fill grestore newpath } bind def
/p3  { gsave bg fill grestore stroke } bind def
/p6  { gsave bg eofill grestore newpath } bind def
/p7  { gsave bg eofill grestore stroke } bind def
/t   { 5 -2 roll moveto gsave rotate
       1 index stringwidth pop
       mul neg 0 rmoveto show grestore } bind def
/ta  { 4 -2 roll moveto gsave rotate show } bind def
/tb  { 2 -1 roll 0 rmoveto show } bind def
/cl  { grestore gsave newpath 3 index 3 index moveto 1 index
       4 -1 roll lineto  exch 1 index lineto lineto
       closepath clip newpath } bind def
/rgb { setrgbcolor } bind def
/s   { scalefont setfont } bind def
% end   .ps.prolog
/sRGB { [ /CIEBasedABC
          << /DecodeLMN
               [ { dup 0.03928 le
                        {12.92321 div}
                        {0.055 add 1.055 div 2.4 exp }
                     ifelse
                 } bind dup dup
               ]
             /MatrixLMN [0.412457 0.212673 0.019334
                         0.357576 0.715152 0.119192
                         0.180437 0.072175 0.950301]
             /WhitePoint [0.9505 1.0 1.0890]
           >>
         ] setcolorspace } bind def
/srgb { setcolor } bind def
%%IncludeResource: font Courier
/Courier findfont
dup length dict begin
  {1 index /FID ne {def} {pop pop} ifelse} forall
  /Encoding ISOLatin1Encoding def
  currentdict
  end
/Font1 exch definefont pop
%%IncludeResource: font Courier-Bold
/Courier-Bold findfont
dup length dict begin
  {1 index /FID ne {def} {pop pop} ifelse} forall
  /Encoding ISOLatin1Encoding def
  currentdict
  end
/Font2 exch definefont pop
%%IncludeResource: font Courier-Oblique
/Courier-Oblique findfont
dup length dict begin
  {1 index /FID ne {def} {pop pop} ifelse} forall
  /Encoding ISOLatin1Encoding def
  currentdict
  end
/Font3 exch definefont pop
%%IncludeResource: font Courier-BoldOblique
/Courier-BoldOblique findfont
dup length dict begin
  {1 index /FID ne {def} {pop pop} ifelse} forall
  /Encoding ISOLatin1Encoding def
  currentdict
  end
/Font4 exch definefont pop
%%IncludeResource: font Symbol
/Symbol findfont
dup length dict begin
  {1 index /FID ne {def} {pop pop} ifelse} forall
  currentdict
  end
/Font5 exch definefont pop
%%EndProlog
%%Page: 1 1
bp
0.00 0.00 566.93 453.54 cl
0.00 0.00 566.93 453.54 cl
0.00 0.00 566.93 453.54 cl
0.00 0.00 566.93 453.54 cl
0.00 0.00 566.93 453.54 cl
0.00 0.00 566.93 453.54 cl
0.00 0.00 566.93 453.54 cl
0.00 0.00 566.93 453.54 cl
0.00 0.00 566.93 453.54 cl
0.00 0.00 566.93 453.54 cl
/bg { 1 1 1 srgb } def
1 1 1 srgb
1.07 setlinewidth
[] 0 setdash
1 setlinecap
1 setlinejoin
10.00 setmiterlimit
0.00 0.00 566.93 453.54 r p3
0.00 0.00 566.93 453.54 cl
76.97 43.35 561.45 448.06 cl
/bg { 1 1 1 srgb } def
76.97 43.35 484.48 404.72 r p2
0 0 0.5020 srgb
0.71 setlinewidth
[] 0 setdash
1 setlinecap
1 setlinejoin
10.00 setmiterlimit
415.73 320.35 1.42 c p1
320.58 234.85 1.42 c p1
315.41 229.79 1.42 c p1
352.35 264.71 1.42 c p1
281.13 193.28 1.42 c p1
274.08 182.90 1.42 c p1
323.89 227.33 1.42 c p1
399.30 310.82 1.42 c p1
366.92 276.83 1.42 c p1
279.34 192.71 1.42 c p1
296.55 217.15 1.42 c p1
322.25 236.81 1.42 c p1
250.92 189.78 1.42 c p1
322.53 240.99 1.42 c p1
338.19 253.58 1.42 c p1
454.69 359.69 1.42 c p1
291.71 225.31 1.42 c p1
257.14 182.40 1.42 c p1
303.14 217.35 1.42 c p1
198.20 129.57 1.42 c p1
280.16 198.96 1.42 c p1
356.65 270.01 1.42 c p1
227.67 146.32 1.42 c p1
324.88 237.46 1.42 c p1
428.76 335.75 1.42 c p1
249.95 170.57 1.42 c p1
274.43 149.28 1.42 c p1
265.30 175.84 1.42 c p1
249.21 169.73 1.42 c p1
288.30 202.60 1.42 c p1
308.87 224.75 1.42 c p1
395.76 298.33 1.42 c p1
361.26 283.65 1.42 c p1
270.47 195.29 1.42 c p1
283.49 186.85 1.42 c p1
305.14 211.37 1.42 c p1
364.30 259.81 1.42 c p1
262.89 194.31 1.42 c p1
227.34 148.90 1.42 c p1
282.56 206.99 1.42 c p1
388.61 289.47 1.42 c p1
318.48 232.23 1.42 c p1
415.52 321.44 1.42 c p1
315.21 228.11 1.42 c p1
252.82 175.87 1.42 c p1
229.94 170.19 1.42 c p1
292.67 209.37 1.42 c p1
363.03 280.18 1.42 c p1
370.32 267.39 1.42 c p1
285.63 200.85 1.42 c p1
209.93 160.14 1.42 c p1
278.85 202.68 1.42 c p1
340.53 259.00 1.42 c p1
287.71 192.51 1.42 c p1
308.43 225.41 1.42 c p1
464.71 365.84 1.42 c p1
451.19 353.29 1.42 c p1
360.77 279.54 1.42 c p1
365.34 276.16 1.42 c p1
265.10 179.30 1.42 c p1
292.81 216.03 1.42 c p1
266.48 191.94 1.42 c p1
370.66 316.78 1.42 c p1
290.87 213.80 1.42 c p1
256.03 194.99 1.42 c p1
272.30 182.33 1.42 c p1
409.42 325.96 1.42 c p1
427.92 344.74 1.42 c p1
333.51 253.92 1.42 c p1
385.77 299.28 1.42 c p1
402.91 311.11 1.42 c p1
303.74 217.26 1.42 c p1
384.74 288.43 1.42 c p1
434.71 340.56 1.42 c p1
276.50 198.46 1.42 c p1
289.88 207.54 1.42 c p1
201.07 97.32 1.42 c p1
371.19 283.09 1.42 c p1
325.32 243.44 1.42 c p1
386.20 298.86 1.42 c p1
266.68 195.04 1.42 c p1
319.82 250.68 1.42 c p1
430.56 336.66 1.42 c p1
280.81 190.66 1.42 c p1
221.15 140.82 1.42 c p1
343.22 259.85 1.42 c p1
263.90 180.33 1.42 c p1
330.44 256.26 1.42 c p1
314.29 240.85 1.42 c p1
267.64 190.11 1.42 c p1
363.88 283.88 1.42 c p1
502.83 399.84 1.42 c p1
367.87 285.53 1.42 c p1
389.59 308.05 1.42 c p1
349.92 268.69 1.42 c p1
318.38 234.76 1.42 c p1
304.91 214.37 1.42 c p1
415.28 335.18 1.42 c p1
289.17 199.92 1.42 c p1
446.74 348.45 1.42 c p1
294.70 204.06 1.42 c p1
355.13 274.88 1.42 c p1
358.71 284.00 1.42 c p1
366.21 284.09 1.42 c p1
228.98 143.69 1.42 c p1
296.68 226.33 1.42 c p1
321.05 237.38 1.42 c p1
424.09 302.84 1.42 c p1
397.42 307.49 1.42 c p1
423.08 333.42 1.42 c p1
265.50 184.47 1.42 c p1
315.61 235.59 1.42 c p1
435.29 334.41 1.42 c p1
298.85 207.62 1.42 c p1
284.42 207.99 1.42 c p1
274.43 188.90 1.42 c p1
271.39 192.01 1.42 c p1
317.21 232.61 1.42 c p1
253.52 172.94 1.42 c p1
331.43 250.59 1.42 c p1
269.54 169.30 1.42 c p1
391.46 304.27 1.42 c p1
400.31 308.97 1.42 c p1
302.06 229.40 1.42 c p1
232.14 161.83 1.42 c p1
257.58 155.25 1.42 c p1
214.39 124.40 1.42 c p1
330.36 242.99 1.42 c p1
230.89 135.41 1.42 c p1
265.10 173.99 1.42 c p1
306.52 224.15 1.42 c p1
468.23 374.87 1.42 c p1
362.93 270.38 1.42 c p1
339.95 256.54 1.42 c p1
377.53 290.23 1.42 c p1
304.33 219.92 1.42 c p1
372.04 285.15 1.42 c p1
305.95 221.21 1.42 c p1
381.20 313.93 1.42 c p1
266.29 183.58 1.42 c p1
302.18 226.61 1.42 c p1
199.17 118.80 1.42 c p1
305.95 229.38 1.42 c p1
372.42 282.78 1.42 c p1
314.19 201.73 1.42 c p1
380.32 290.55 1.42 c p1
235.17 164.32 1.42 c p1
342.52 266.40 1.42 c p1
378.92 292.59 1.42 c p1
329.86 238.42 1.42 c p1
411.39 322.22 1.42 c p1
324.43 243.86 1.42 c p1
519.23 415.53 1.42 c p1
438.19 347.50 1.42 c p1
282.87 203.38 1.42 c p1
299.48 205.68 1.42 c p1
434.56 338.00 1.42 c p1
229.30 159.14 1.42 c p1
286.98 208.23 1.42 c p1
325.59 248.93 1.42 c p1
255.12 138.60 1.42 c p1
401.17 308.21 1.42 c p1
325.06 242.46 1.42 c p1
275.65 184.34 1.42 c p1
283.96 195.88 1.42 c p1
341.18 255.33 1.42 c p1
337.59 261.40 1.42 c p1
320.01 239.04 1.42 c p1
299.73 201.83 1.42 c p1
376.07 291.30 1.42 c p1
321.23 237.98 1.42 c p1
256.48 180.81 1.42 c p1
404.54 323.12 1.42 c p1
326.37 252.34 1.42 c p1
228.33 158.26 1.42 c p1
446.13 357.46 1.42 c p1
344.39 252.28 1.42 c p1
347.14 265.27 1.42 c p1
308.21 230.64 1.42 c p1
379.01 298.45 1.42 c p1
255.58 182.28 1.42 c p1
320.01 238.29 1.42 c p1
422.07 337.16 1.42 c p1
251.87 181.23 1.42 c p1
333.91 258.40 1.42 c p1
358.65 273.53 1.42 c p1
417.62 334.50 1.42 c p1
230.26 129.66 1.42 c p1
419.03 336.68 1.42 c p1
216.71 143.00 1.42 c p1
349.54 263.43 1.42 c p1
239.22 154.48 1.42 c p1
307.31 234.10 1.42 c p1
340.17 259.04 1.42 c p1
338.19 248.57 1.42 c p1
306.86 245.31 1.42 c p1
333.99 256.55 1.42 c p1
413.66 330.02 1.42 c p1
341.89 262.96 1.42 c p1
285.03 176.20 1.42 c p1
253.75 185.58 1.42 c p1
278.02 208.39 1.42 c p1
267.64 203.24 1.42 c p1
311.04 239.42 1.42 c p1
302.67 236.63 1.42 c p1
390.80 307.94 1.42 c p1
317.11 240.26 1.42 c p1
268.79 194.50 1.42 c p1
327.07 248.83 1.42 c p1
180.01 112.98 1.42 c p1
303.02 225.16 1.42 c p1
377.66 297.92 1.42 c p1
304.44 227.05 1.42 c p1
336.92 259.71 1.42 c p1
267.06 195.84 1.42 c p1
341.96 264.34 1.42 c p1
486.74 385.08 1.42 c p1
309.97 205.91 1.42 c p1
288.44 214.15 1.42 c p1
228.33 128.50 1.42 c p1
284.72 205.28 1.42 c p1
286.23 221.71 1.42 c p1
261.65 207.19 1.42 c p1
295.37 217.10 1.42 c p1
428.89 341.19 1.42 c p1
317.21 233.51 1.42 c p1
404.20 312.45 1.42 c p1
355.01 268.85 1.42 c p1
282.71 208.79 1.42 c p1
253.28 160.19 1.42 c p1
249.46 156.65 1.42 c p1
324.52 233.96 1.42 c p1
354.77 257.70 1.42 c p1
294.97 221.21 1.42 c p1
274.78 216.30 1.42 c p1
235.76 161.63 1.42 c p1
369.65 279.16 1.42 c p1
301.09 221.36 1.42 c p1
299.73 231.49 1.42 c p1
332.32 239.07 1.42 c p1
461.26 368.91 1.42 c p1
218.59 128.19 1.42 c p1
497.43 401.86 1.42 c p1
486.24 384.52 1.42 c p1
291.85 213.99 1.42 c p1
398.98 313.49 1.42 c p1
333.83 259.14 1.42 c p1
248.97 180.22 1.42 c p1
312.95 242.04 1.42 c p1
351.99 273.77 1.42 c p1
257.80 178.04 1.42 c p1
362.93 283.14 1.42 c p1
316.81 236.60 1.42 c p1
256.25 175.98 1.42 c p1
284.57 219.17 1.42 c p1
327.24 246.94 1.42 c p1
287.42 200.94 1.42 c p1
366.72 280.91 1.42 c p1
367.42 273.52 1.42 c p1
270.65 199.62 1.42 c p1
241.17 176.93 1.42 c p1
296.55 231.88 1.42 c p1
306.06 223.16 1.42 c p1
345.14 264.22 1.42 c p1
217.84 185.95 1.42 c p1
338.19 259.01 1.42 c p1
291.43 196.99 1.42 c p1
359.49 268.40 1.42 c p1
373.76 287.28 1.42 c p1
185.43 113.60 1.42 c p1
392.51 309.20 1.42 c p1
243.33 172.23 1.42 c p1
401.59 314.43 1.42 c p1
484.16 385.56 1.42 c p1
271.75 181.93 1.42 c p1
271.02 144.52 1.42 c p1
252.82 161.06 1.42 c p1
435.43 327.81 1.42 c p1
195.71 77.33 1.42 c p1
227.34 122.14 1.42 c p1
225.33 135.62 1.42 c p1
204.74 127.06 1.42 c p1
215.94 80.52 1.42 c p1
252.11 160.24 1.42 c p1
136.20 84.71 1.42 c p1
230.89 91.08 1.42 c p1
252.11 152.25 1.42 c p1
282.08 198.04 1.42 c p1
398.52 309.90 1.42 c p1
169.28 73.38 1.42 c p1
383.26 297.64 1.42 c p1
230.26 149.59 1.42 c p1
190.48 172.71 1.42 c p1
220.42 142.95 1.42 c p1
176.82 123.91 1.42 c p1
206.51 167.17 1.42 c p1
160.07 142.30 1.42 c p1
315.51 234.61 1.42 c p1
209.93 114.85 1.42 c p1
352.35 260.33 1.42 c p1
361.75 283.17 1.42 c p1
295.89 215.43 1.42 c p1
280.65 207.96 1.42 c p1
232.76 180.67 1.42 c p1
189.38 111.05 1.42 c p1
260.60 168.40 1.42 c p1
158.42 122.41 1.42 c p1
231.83 126.79 1.42 c p1
298.60 235.77 1.42 c p1
266.29 187.43 1.42 c p1
228.33 165.87 1.42 c p1
231.20 144.81 1.42 c p1
362.34 286.07 1.42 c p1
151.42 110.15 1.42 c p1
240.34 119.06 1.42 c p1
290.45 197.47 1.42 c p1
260.18 189.88 1.42 c p1
314.80 233.13 1.42 c p1
231.83 154.07 1.42 c p1
181.86 98.06 1.42 c p1
260.18 188.97 1.42 c p1
213.20 132.57 1.42 c p1
212.80 156.66 1.42 c p1
228.98 141.46 1.42 c p1
279.34 208.14 1.42 c p1
238.94 149.23 1.42 c p1
364.51 283.19 1.42 c p1
363.56 284.10 1.42 c p1
220.42 116.51 1.42 c p1
175.50 130.59 1.42 c p1
170.71 72.47 1.42 c p1
236.35 158.27 1.42 c p1
309.97 238.26 1.42 c p1
183.07 120.96 1.42 c p1
245.94 167.34 1.42 c p1
178.11 155.94 1.42 c p1
184.84 125.73 1.42 c p1
236.06 152.89 1.42 c p1
254.67 147.40 1.42 c p1
272.11 198.00 1.42 c p1
273.01 149.39 1.42 c p1
422.07 331.59 1.42 c p1
288.15 214.48 1.42 c p1
252.35 119.66 1.42 c p1
283.65 191.87 1.42 c p1
294.57 205.35 1.42 c p1
211.17 116.25 1.42 c p1
193.66 136.49 1.42 c p1
331.34 246.97 1.42 c p1
278.02 219.06 1.42 c p1
277.85 175.14 1.42 c p1
322.16 240.47 1.42 c p1
271.02 200.71 1.42 c p1
192.08 109.45 1.42 c p1
216.71 131.45 1.42 c p1
192.08 123.10 1.42 c p1
219.33 149.65 1.42 c p1
153.23 128.26 1.42 c p1
355.13 263.84 1.42 c p1
145.70 94.76 1.42 c p1
216.71 149.09 1.42 c p1
249.46 165.21 1.42 c p1
209.51 81.08 1.42 c p1
229.62 126.68 1.42 c p1
228.98 136.22 1.42 c p1
361.37 280.71 1.42 c p1
345.61 270.71 1.42 c p1
291.43 204.96 1.42 c p1
237.80 151.64 1.42 c p1
180.63 129.03 1.42 c p1
392.22 305.09 1.42 c p1
224.65 127.99 1.42 c p1
258.02 155.94 1.42 c p1
301.82 233.22 1.42 c p1
264.91 182.66 1.42 c p1
153.23 78.44 1.42 c p1
327.24 255.65 1.42 c p1
203.39 129.25 1.42 c p1
288.44 201.89 1.42 c p1
212.80 122.42 1.42 c p1
281.29 196.87 1.42 c p1
210.35 129.37 1.42 c p1
255.12 168.27 1.42 c p1
247.47 164.11 1.42 c p1
174.84 142.67 1.42 c p1
243.86 153.30 1.42 c p1
222.22 154.91 1.42 c p1
257.58 179.81 1.42 c p1
203.39 109.76 1.42 c p1
292.54 209.22 1.42 c p1
159.25 92.78 1.42 c p1
207.38 85.58 1.42 c p1
342.24 263.76 1.42 c p1
324.07 236.94 1.42 c p1
176.82 120.61 1.42 c p1
269.16 202.09 1.42 c p1
331.83 299.17 1.42 c p1
287.42 216.98 1.42 c p1
199.65 112.72 1.42 c p1
324.70 250.31 1.42 c p1
244.65 148.63 1.42 c p1
235.76 144.01 1.42 c p1
233.37 164.99 1.42 c p1
189.38 101.95 1.42 c p1
272.30 197.73 1.42 c p1
166.33 120.83 1.42 c p1
246.71 189.07 1.42 c p1
328.10 260.93 1.42 c p1
311.47 225.45 1.42 c p1
215.17 126.15 1.42 c p1
252.11 173.21 1.42 c p1
236.93 165.20 1.42 c p1
199.65 140.24 1.42 c p1
303.14 218.65 1.42 c p1
146.69 90.42 1.42 c p1
212.80 156.05 1.42 c p1
363.67 283.41 1.42 c p1
213.20 124.35 1.42 c p1
246.71 163.57 1.42 c p1
159.25 65.78 1.42 c p1
215.94 105.85 1.42 c p1
305.26 227.16 1.42 c p1
256.70 178.98 1.42 c p1
402.37 313.16 1.42 c p1
244.91 163.68 1.42 c p1
184.26 141.97 1.42 c p1
321.05 236.13 1.42 c p1
403.52 317.87 1.42 c p1
194.18 133.07 1.42 c p1
215.17 126.46 1.42 c p1
355.48 278.27 1.42 c p1
222.57 118.47 1.42 c p1
230.26 146.63 1.42 c p1
251.64 151.15 1.42 c p1
321.79 239.07 1.42 c p1
234.58 161.94 1.42 c p1
228.00 106.34 1.42 c p1
286.38 199.51 1.42 c p1
242.79 172.81 1.42 c p1
295.63 214.37 1.42 c p1
369.60 278.66 1.42 c p1
317.89 245.01 1.42 c p1
293.90 215.86 1.42 c p1
244.39 177.23 1.42 c p1
230.57 148.27 1.42 c p1
367.67 278.91 1.42 c p1
165.58 93.87 1.42 c p1
285.48 218.96 1.42 c p1
232.14 161.27 1.42 c p1
336.46 251.95 1.42 c p1
186.00 120.39 1.42 c p1
195.71 131.92 1.42 c p1
263.70 212.87 1.42 c p1
137.32 126.57 1.42 c p1
225.67 140.59 1.42 c p1
266.29 197.11 1.42 c p1
181.86 86.75 1.42 c p1
271.02 192.59 1.42 c p1
169.28 116.82 1.42 c p1
244.91 214.33 1.42 c p1
233.37 113.04 1.42 c p1
246.46 154.42 1.42 c p1
182.46 136.62 1.42 c p1
383.46 300.59 1.42 c p1
149.56 102.19 1.42 c p1
241.44 166.96 1.42 c p1
319.53 239.18 1.42 c p1
274.60 200.52 1.42 c p1
221.86 135.72 1.42 c p1
267.26 172.22 1.42 c p1
367.92 310.04 1.42 c p1
263.50 158.48 1.42 c p1
294.17 225.32 1.42 c p1
253.28 150.87 1.42 c p1
196.21 148.92 1.42 c p1
307.20 214.76 1.42 c p1
379.73 295.03 1.42 c p1
264.31 236.82 1.42 c p1
347.21 257.09 1.42 c p1
280.48 173.13 1.42 c p1
298.35 223.93 1.42 c p1
167.08 99.32 1.42 c p1
328.10 232.45 1.42 c p1
267.45 201.70 1.42 c p1
321.14 228.07 1.42 c p1
228.00 130.83 1.42 c p1
250.68 166.72 1.42 c p1
218.59 117.83 1.42 c p1
329.36 239.93 1.42 c p1
233.06 174.64 1.42 c p1
472.63 417.50 1.42 c p1
201.07 113.50 1.42 c p1
381.74 289.15 1.42 c p1
246.46 157.34 1.42 c p1
208.67 220.98 1.42 c p1
221.50 136.36 1.42 c p1
243.59 164.15 1.42 c p1
218.59 143.37 1.42 c p1
199.17 140.34 1.42 c p1
252.82 179.11 1.42 c p1
243.06 181.38 1.42 c p1
236.93 134.77 1.42 c p1
246.71 149.82 1.42 c p1
235.17 146.77 1.42 c p1
428.76 330.65 1.42 c p1
298.35 210.42 1.42 c p1
260.18 166.30 1.42 c p1
244.12 183.12 1.42 c p1
266.09 168.23 1.42 c p1
226.01 156.67 1.42 c p1
246.46 185.57 1.42 c p1
154.12 109.96 1.42 c p1
226.35 123.73 1.42 c p1
203.39 96.20 1.42 c p1
424.18 337.97 1.42 c p1
478.37 366.10 1.42 c p1
407.81 318.43 1.42 c p1
370.85 286.88 1.42 c p1
278.35 182.36 1.42 c p1
182.46 145.93 1.42 c p1
239.50 156.11 1.42 c p1
266.68 188.12 1.42 c p1
301.46 215.92 1.42 c p1
256.48 183.78 1.42 c p1
218.96 140.38 1.42 c p1
329.28 236.31 1.42 c p1
258.02 161.67 1.42 c p1
157.58 135.59 1.42 c p1
295.37 218.00 1.42 c p1
247.97 161.29 1.42 c p1
342.45 263.76 1.42 c p1
293.22 217.33 1.42 c p1
391.10 307.00 1.42 c p1
382.44 290.64 1.42 c p1
297.32 206.89 1.42 c p1
320.11 234.73 1.42 c p1
322.07 229.74 1.42 c p1
306.41 230.65 1.42 c p1
179.38 130.03 1.42 c p1
161.69 108.65 1.42 c p1
309.20 214.23 1.42 c p1
360.87 248.20 1.42 c p1
273.90 194.88 1.42 c p1
266.87 185.85 1.42 c p1
238.66 138.73 1.42 c p1
181.25 130.96 1.42 c p1
204.74 113.55 1.42 c p1
300.60 205.83 1.42 c p1
214.78 148.16 1.42 c p1
268.60 186.10 1.42 c p1
318.86 242.71 1.42 c p1
407.08 313.45 1.42 c p1
214.78 132.64 1.42 c p1
400.86 313.83 1.42 c p1
319.34 236.94 1.42 c p1
241.44 146.13 1.42 c p1
283.96 212.38 1.42 c p1
230.57 155.11 1.42 c p1
242.52 157.46 1.42 c p1
340.53 262.89 1.42 c p1
312.00 225.44 1.42 c p1
328.35 252.44 1.42 c p1
334.85 246.97 1.42 c p1
245.69 189.02 1.42 c p1
227.34 139.66 1.42 c p1
278.19 198.98 1.42 c p1
196.71 110.76 1.42 c p1
240.06 166.58 1.42 c p1
194.69 154.18 1.42 c p1
206.07 132.82 1.42 c p1
372.13 280.88 1.42 c p1
329.11 251.88 1.42 c p1
230.57 144.91 1.42 c p1
268.41 195.11 1.42 c p1
209.09 66.02 1.42 c p1
211.58 165.42 1.42 c p1
247.47 165.41 1.42 c p1
200.13 96.46 1.42 c p1
425.18 335.16 1.42 c p1
322.16 229.03 1.42 c p1
261.23 178.90 1.42 c p1
334.14 250.58 1.42 c p1
235.76 166.67 1.42 c p1
242.52 155.97 1.42 c p1
242.79 139.44 1.42 c p1
261.23 189.25 1.42 c p1
248.97 167.81 1.42 c p1
253.75 182.67 1.42 c p1
377.01 288.31 1.42 c p1
304.56 235.33 1.42 c p1
290.45 211.13 1.42 c p1
230.57 156.05 1.42 c p1
333.91 244.69 1.42 c p1
383.70 296.51 1.42 c p1
289.02 195.88 1.42 c p1
344.73 259.00 1.42 c p1
258.24 156.78 1.42 c p1
307.65 232.36 1.42 c p1
231.83 152.81 1.42 c p1
211.99 135.12 1.42 c p1
267.84 187.47 1.42 c p1
313.57 232.87 1.42 c p1
260.81 188.41 1.42 c p1
238.37 127.29 1.42 c p1
242.52 155.36 1.42 c p1
173.49 124.05 1.42 c p1
236.35 142.47 1.42 c p1
316.61 234.77 1.42 c p1
155.00 121.76 1.42 c p1
259.96 188.86 1.42 c p1
241.98 170.09 1.42 c p1
296.55 216.29 1.42 c p1
203.84 137.85 1.42 c p1
205.63 134.24 1.42 c p1
245.17 169.27 1.42 c p1
289.31 214.23 1.42 c p1
298.98 217.44 1.42 c p1
148.62 115.69 1.42 c p1
269.54 173.92 1.42 c p1
285.33 202.97 1.42 c p1
246.71 144.37 1.42 c p1
309.31 234.58 1.42 c p1
206.07 145.22 1.42 c p1
233.67 165.65 1.42 c p1
486.11 386.26 1.42 c p1
208.67 145.03 1.42 c p1
246.97 159.59 1.42 c p1
299.23 223.44 1.42 c p1
291.01 208.59 1.42 c p1
242.79 135.92 1.42 c p1
325.32 245.85 1.42 c p1
273.72 242.36 1.42 c p1
146.69 78.68 1.42 c p1
166.33 100.28 1.42 c p1
341.46 262.39 1.42 c p1
328.77 249.95 1.42 c p1
265.10 171.94 1.42 c p1
352.05 271.70 1.42 c p1
337.74 277.78 1.42 c p1
215.17 128.52 1.42 c p1
375.13 286.17 1.42 c p1
248.22 112.29 1.42 c p1
229.30 136.85 1.42 c p1
339.15 253.59 1.42 c p1
280.97 200.41 1.42 c p1
310.62 232.04 1.42 c p1
182.46 128.42 1.42 c p1
279.67 197.22 1.42 c p1
344.25 257.70 1.42 c p1
410.81 326.06 1.42 c p1
160.89 76.44 1.42 c p1
442.77 335.28 1.42 c p1
237.22 150.50 1.42 c p1
189.93 120.35 1.42 c p1
294.84 214.95 1.42 c p1
367.52 280.60 1.42 c p1
172.11 86.92 1.42 c p1
262.68 167.83 1.42 c p1
136.20 120.04 1.42 c p1
333.43 255.53 1.42 c p1
215.94 112.30 1.42 c p1
164.82 118.52 1.42 c p1
247.47 161.38 1.42 c p1
189.93 115.42 1.42 c p1
218.59 145.25 1.42 c p1
223.62 142.76 1.42 c p1
171.41 117.46 1.42 c p1
392.51 307.19 1.42 c p1
167.82 86.89 1.42 c p1
357.05 273.37 1.42 c p1
308.43 224.01 1.42 c p1
268.41 197.20 1.42 c p1
176.82 125.78 1.42 c p1
295.76 210.90 1.42 c p1
182.46 84.69 1.42 c p1
329.19 249.45 1.42 c p1
196.21 118.48 1.42 c p1
323.08 314.27 1.42 c p1
201.07 124.27 1.42 c p1
200.13 170.88 1.42 c p1
407.90 317.66 1.42 c p1
174.84 100.58 1.42 c p1
193.66 120.24 1.42 c p1
180.01 116.37 1.42 c p1
291.71 215.85 1.42 c p1
251.87 132.70 1.42 c p1
383.46 293.36 1.42 c p1
380.83 294.41 1.42 c p1
196.71 98.45 1.42 c p1
325.59 242.73 1.42 c p1
184.26 119.21 1.42 c p1
228.98 159.02 1.42 c p1
197.21 96.82 1.42 c p1
242.52 166.15 1.42 c p1
478.57 374.56 1.42 c p1
193.14 74.24 1.42 c p1
410.19 323.41 1.42 c p1
161.69 96.79 1.42 c p1
274.78 199.18 1.42 c p1
243.86 159.70 1.42 c p1
322.07 244.62 1.42 c p1
365.80 282.80 1.42 c p1
293.49 206.22 1.42 c p1
223.62 154.46 1.42 c p1
202.47 95.84 1.42 c p1
368.81 283.55 1.42 c p1
153.23 80.57 1.42 c p1
262.27 184.63 1.42 c p1
202.47 88.35 1.42 c p1
282.56 191.83 1.42 c p1
317.50 232.36 1.42 c p1
207.81 86.46 1.42 c p1
339.88 277.41 1.42 c p1
191.02 128.09 1.42 c p1
412.30 315.51 1.42 c p1
211.17 140.62 1.42 c p1
139.51 101.40 1.42 c p1
191.02 86.07 1.42 c p1
319.73 238.59 1.42 c p1
195.20 113.55 1.42 c p1
203.84 110.28 1.42 c p1
237.22 158.34 1.42 c p1
224.99 190.28 1.42 c p1
232.14 108.20 1.42 c p1
220.06 126.80 1.42 c p1
174.84 108.98 1.42 c p1
248.72 141.31 1.42 c p1
351.61 268.19 1.42 c p1
259.32 199.25 1.42 c p1
216.71 141.94 1.42 c p1
237.22 146.68 1.42 c p1
313.36 219.37 1.42 c p1
214.39 115.62 1.42 c p1
207.38 124.45 1.42 c p1
174.16 107.38 1.42 c p1
291.85 206.26 1.42 c p1
333.51 233.60 1.42 c p1
366.06 268.01 1.42 c p1
357.00 282.78 1.42 c p1
278.52 186.60 1.42 c p1
227.01 121.05 1.42 c p1
215.17 127.96 1.42 c p1
226.68 139.40 1.42 c p1
220.06 132.27 1.42 c p1
197.21 131.53 1.42 c p1
182.46 119.78 1.42 c p1
213.99 114.88 1.42 c p1
191.55 102.99 1.42 c p1
213.60 97.34 1.42 c p1
322.25 239.69 1.42 c p1
187.15 122.40 1.42 c p1
145.70 102.93 1.42 c p1
238.37 151.20 1.42 c p1
181.86 95.42 1.42 c p1
199.17 103.88 1.42 c p1
170.71 122.43 1.42 c p1
170.00 74.33 1.42 c p1
210.35 108.40 1.42 c p1
310.40 223.15 1.42 c p1
171.41 110.12 1.42 c p1
223.62 124.00 1.42 c p1
242.25 161.70 1.42 c p1
297.45 212.77 1.42 c p1
289.60 197.44 1.42 c p1
220.06 145.45 1.42 c p1
181.86 92.17 1.42 c p1
204.74 124.43 1.42 c p1
252.58 142.01 1.42 c p1
170.71 92.88 1.42 c p1
201.54 126.35 1.42 c p1
158.42 78.05 1.42 c p1
170.00 81.38 1.42 c p1
217.47 140.45 1.42 c p1
155.00 91.37 1.42 c p1
223.27 109.70 1.42 c p1
206.51 103.47 1.42 c p1
180.63 104.58 1.42 c p1
274.08 194.41 1.42 c p1
213.20 97.60 1.42 c p1
251.87 177.09 1.42 c p1
155.87 66.51 1.42 c p1
274.60 178.13 1.42 c p1
206.95 107.86 1.42 c p1
206.95 116.52 1.42 c p1
167.82 62.98 1.42 c p1
202.93 115.48 1.42 c p1
229.62 146.52 1.42 c p1
184.84 101.06 1.42 c p1
201.54 112.44 1.42 c p1
245.69 163.96 1.42 c p1
215.94 118.68 1.42 c p1
235.76 148.16 1.42 c p1
270.84 194.01 1.42 c p1
278.52 171.17 1.42 c p1
182.46 93.64 1.42 c p1
231.52 136.80 1.42 c p1
159.25 69.42 1.42 c p1
205.19 109.26 1.42 c p1
158.42 81.86 1.42 c p1
195.71 89.06 1.42 c p1
195.20 76.00 1.42 c p1
198.20 120.09 1.42 c p1
250.68 167.46 1.42 c p1
172.11 134.57 1.42 c p1
153.23 92.87 1.42 c p1
209.09 124.95 1.42 c p1
161.69 75.98 1.42 c p1
147.66 60.99 1.42 c p1
184.26 78.07 1.42 c p1
173.49 106.22 1.42 c p1
181.25 107.88 1.42 c p1
221.50 100.77 1.42 c p1
279.34 196.94 1.42 c p1
187.15 66.44 1.42 c p1
166.33 141.25 1.42 c p1
243.06 144.11 1.42 c p1
220.79 120.88 1.42 c p1
236.64 147.15 1.42 c p1
189.38 115.00 1.42 c p1
328.35 185.41 1.42 c p1
265.50 182.15 1.42 c p1
209.51 159.91 1.42 c p1
179.38 111.99 1.42 c p1
314.60 245.31 1.42 c p1
223.27 175.14 1.42 c p1
186.00 129.89 1.42 c p1
202.93 82.09 1.42 c p1
224.65 155.39 1.42 c p1
300.72 217.46 1.42 c p1
164.05 77.05 1.42 c p1
221.86 145.44 1.42 c p1
231.83 143.98 1.42 c p1
198.20 126.24 1.42 c p1
198.68 89.82 1.42 c p1
172.80 101.00 1.42 c p1
195.20 128.55 1.42 c p1
273.37 202.35 1.42 c p1
183.07 117.82 1.42 c p1
222.92 135.72 1.42 c p1
252.35 150.55 1.42 c p1
206.95 116.97 1.42 c p1
207.81 118.29 1.42 c p1
164.82 107.15 1.42 c p1
193.14 112.13 1.42 c p1
230.57 152.24 1.42 c p1
231.52 152.20 1.42 c p1
240.06 127.44 1.42 c p1
163.27 123.81 1.42 c p1
217.84 144.25 1.42 c p1
186.58 89.28 1.42 c p1
185.43 99.22 1.42 c p1
186.00 113.35 1.42 c p1
199.17 123.62 1.42 c p1
237.80 100.91 1.42 c p1
212.39 119.21 1.42 c p1
298.47 211.84 1.42 c p1
212.80 123.32 1.42 c p1
205.63 105.02 1.42 c p1
155.00 86.17 1.42 c p1
324.97 232.58 1.42 c p1
199.65 137.51 1.42 c p1
276.16 186.12 1.42 c p1
180.01 108.11 1.42 c p1
165.58 106.68 1.42 c p1
187.15 102.81 1.42 c p1
325.23 249.80 1.42 c p1
267.06 178.39 1.42 c p1
257.14 194.22 1.42 c p1
170.00 113.38 1.42 c p1
220.06 136.21 1.42 c p1
370.90 287.98 1.42 c p1
180.63 127.22 1.42 c p1
376.83 293.15 1.42 c p1
222.57 136.86 1.42 c p1
216.71 90.21 1.42 c p1
198.68 145.68 1.42 c p1
178.11 73.71 1.42 c p1
141.63 101.19 1.42 c p1
201.54 137.46 1.42 c p1
172.11 85.43 1.42 c p1
175.50 83.62 1.42 c p1
219.33 146.06 1.42 c p1
187.15 138.42 1.42 c p1
187.71 104.12 1.42 c p1
150.50 100.10 1.42 c p1
242.52 169.72 1.42 c p1
184.84 105.65 1.42 c p1
140.58 114.05 1.42 c p1
247.22 164.75 1.42 c p1
273.55 210.23 1.42 c p1
153.23 137.07 1.42 c p1
230.89 133.26 1.42 c p1
184.84 79.35 1.42 c p1
140.58 113.26 1.42 c p1
145.70 95.53 1.42 c p1
209.09 95.56 1.42 c p1
154.12 71.45 1.42 c p1
228.65 165.61 1.42 c p1
245.94 189.39 1.42 c p1
213.20 127.36 1.42 c p1
207.81 122.60 1.42 c p1
144.71 64.82 1.42 c p1
294.97 224.04 1.42 c p1
206.95 122.28 1.42 c p1
213.20 126.60 1.42 c p1
163.27 94.24 1.42 c p1
150.50 94.38 1.42 c p1
266.48 160.87 1.42 c p1
236.06 157.77 1.42 c p1
217.84 142.03 1.42 c p1
169.28 67.67 1.42 c p1
187.71 127.14 1.42 c p1
239.50 149.70 1.42 c p1
245.94 162.05 1.42 c p1
242.25 149.40 1.42 c p1
183.66 83.77 1.42 c p1
153.23 88.16 1.42 c p1
183.07 107.90 1.42 c p1
186.00 89.51 1.42 c p1
196.21 104.84 1.42 c p1
143.69 85.41 1.42 c p1
169.28 105.00 1.42 c p1
369.89 286.01 1.42 c p1
138.42 63.44 1.42 c p1
194.18 140.15 1.42 c p1
164.05 78.89 1.42 c p1
188.83 121.12 1.42 c p1
277.35 194.76 1.42 c p1
187.71 105.06 1.42 c p1
155.00 64.32 1.42 c p1
215.17 116.04 1.42 c p1
149.56 105.46 1.42 c p1
199.17 107.89 1.42 c p1
187.15 90.40 1.42 c p1
207.81 120.43 1.42 c p1
175.50 90.79 1.42 c p1
255.58 187.62 1.42 c p1
164.82 107.14 1.42 c p1
242.52 156.56 1.42 c p1
174.84 50.77 1.42 c p1
183.07 115.54 1.42 c p1
174.84 65.82 1.42 c p1
154.12 84.88 1.42 c p1
206.95 150.43 1.42 c p1
246.71 169.52 1.42 c p1
159.25 83.28 1.42 c p1
165.58 104.96 1.42 c p1
191.02 157.83 1.42 c p1
172.80 77.14 1.42 c p1
234.58 111.91 1.42 c p1
155.87 75.19 1.42 c p1
262.06 171.51 1.42 c p1
234.27 146.07 1.42 c p1
228.00 121.11 1.42 c p1
221.15 141.28 1.42 c p1
313.05 230.13 1.42 c p1
178.11 86.43 1.42 c p1
164.05 89.58 1.42 c p1
190.48 102.66 1.42 c p1
220.06 133.94 1.42 c p1
165.58 86.90 1.42 c p1
238.37 137.33 1.42 c p1
235.17 131.69 1.42 c p1
179.38 91.50 1.42 c p1
204.29 141.19 1.42 c p1
165.58 96.44 1.42 c p1
167.08 110.89 1.42 c p1
190.48 97.59 1.42 c p1
153.23 70.37 1.42 c p1
240.89 142.24 1.42 c p1
153.23 94.17 1.42 c p1
322.16 236.30 1.42 c p1
252.11 147.84 1.42 c p1
184.26 63.50 1.42 c p1
137.32 63.44 1.42 c p1
150.50 83.91 1.42 c p1
195.20 94.82 1.42 c p1
188.83 52.75 1.42 c p1
277.52 172.79 1.42 c p1
262.89 133.94 1.42 c p1
262.89 173.77 1.42 c p1
276.84 199.81 1.42 c p1
224.99 143.27 1.42 c p1
200.60 109.85 1.42 c p1
267.84 172.89 1.42 c p1
207.38 127.77 1.42 c p1
194.18 111.53 1.42 c p1
215.56 117.68 1.42 c p1
246.20 161.60 1.42 c p1
290.02 207.57 1.42 c p1
200.60 95.81 1.42 c p1
305.03 195.11 1.42 c p1
194.69 110.02 1.42 c p1
216.33 110.06 1.42 c p1
221.15 104.54 1.42 c p1
213.60 153.05 1.42 c p1
208.67 145.68 1.42 c p1
231.20 166.87 1.42 c p1
211.99 122.28 1.42 c p1
262.27 187.05 1.42 c p1
228.33 116.63 1.42 c p1
301.82 226.81 1.42 c p1
246.71 156.15 1.42 c p1
348.51 256.71 1.42 c p1
203.39 132.98 1.42 c p1
260.18 173.50 1.42 c p1
254.21 119.29 1.42 c p1
277.69 185.10 1.42 c p1
262.06 173.46 1.42 c p1
211.17 124.82 1.42 c p1
179.38 86.11 1.42 c p1
208.67 111.45 1.42 c p1
153.23 101.49 1.42 c p1
192.61 119.86 1.42 c p1
209.93 135.20 1.42 c p1
249.46 183.22 1.42 c p1
251.16 164.98 1.42 c p1
278.85 199.29 1.42 c p1
203.84 150.16 1.42 c p1
334.69 256.43 1.42 c p1
269.35 179.88 1.42 c p1
196.71 141.69 1.42 c p1
228.00 164.81 1.42 c p1
214.39 155.87 1.42 c p1
345.00 260.84 1.42 c p1
303.85 223.62 1.42 c p1
226.35 160.43 1.42 c p1
214.39 140.57 1.42 c p1
191.55 111.48 1.42 c p1
215.56 127.76 1.42 c p1
176.82 111.51 1.42 c p1
189.93 98.83 1.42 c p1
232.45 146.87 1.42 c p1
261.44 160.24 1.42 c p1
172.80 85.17 1.42 c p1
214.39 127.60 1.42 c p1
384.70 287.71 1.42 c p1
245.69 136.45 1.42 c p1
196.71 121.30 1.42 c p1
191.55 127.32 1.42 c p1
173.49 69.94 1.42 c p1
270.10 176.14 1.42 c p1
151.42 88.41 1.42 c p1
208.67 123.20 1.42 c p1
227.01 113.30 1.42 c p1
179.38 98.85 1.42 c p1
233.97 132.81 1.42 c p1
174.16 103.07 1.42 c p1
256.70 171.36 1.42 c p1
167.08 111.71 1.42 c p1
246.71 149.32 1.42 c p1
282.56 205.47 1.42 c p1
169.28 89.18 1.42 c p1
238.37 151.08 1.42 c p1
169.28 106.51 1.42 c p1
203.39 139.29 1.42 c p1
202.47 104.23 1.42 c p1
223.27 110.99 1.42 c p1
266.09 114.80 1.42 c p1
250.19 142.84 1.42 c p1
248.97 164.66 1.42 c p1
232.45 142.44 1.42 c p1
295.23 200.69 1.42 c p1
161.69 68.15 1.42 c p1
209.51 114.33 1.42 c p1
232.14 118.03 1.42 c p1
250.19 148.97 1.42 c p1
167.08 70.79 1.42 c p1
241.17 94.27 1.42 c p1
258.67 146.05 1.42 c p1
223.62 137.80 1.42 c p1
331.26 266.10 1.42 c p1
187.15 93.46 1.42 c p1
153.23 88.62 1.42 c p1
280.48 189.55 1.42 c p1
223.27 130.40 1.42 c p1
320.95 233.80 1.42 c p1
206.95 132.73 1.42 c p1
241.44 120.90 1.42 c p1
219.33 158.20 1.42 c p1
164.82 95.61 1.42 c p1
181.86 111.68 1.42 c p1
217.09 124.33 1.42 c p1
195.20 114.84 1.42 c p1
183.07 95.41 1.42 c p1
287.13 226.04 1.42 c p1
233.37 134.13 1.42 c p1
170.71 101.60 1.42 c p1
252.82 173.10 1.42 c p1
190.48 70.61 1.42 c p1
217.09 137.25 1.42 c p1
255.80 154.47 1.42 c p1
267.45 188.25 1.42 c p1
214.78 128.42 1.42 c p1
347.34 257.69 1.42 c p1
236.35 163.01 1.42 c p1
243.06 143.01 1.42 c p1
182.46 86.30 1.42 c p1
256.25 147.52 1.42 c p1
174.84 120.66 1.42 c p1
214.78 134.38 1.42 c p1
188.83 91.86 1.42 c p1
325.76 244.25 1.42 c p1
196.71 137.51 1.42 c p1
203.39 121.97 1.42 c p1
204.74 123.75 1.42 c p1
299.23 216.36 1.42 c p1
241.44 171.08 1.42 c p1
164.05 92.55 1.42 c p1
263.09 142.18 1.42 c p1
281.61 190.16 1.42 c p1
206.51 124.97 1.42 c p1
179.38 88.68 1.42 c p1
197.21 102.48 1.42 c p1
270.47 174.38 1.42 c p1
269.35 92.89 1.42 c p1
199.65 145.39 1.42 c p1
222.57 76.43 1.42 c p1
256.25 168.30 1.42 c p1
147.66 79.44 1.42 c p1
179.38 81.03 1.42 c p1
243.06 140.04 1.42 c p1
184.84 111.33 1.42 c p1
225.33 138.19 1.42 c p1
213.99 140.56 1.42 c p1
178.11 96.93 1.42 c p1
202.93 108.57 1.42 c p1
253.52 119.47 1.42 c p1
256.92 170.44 1.42 c p1
211.58 145.09 1.42 c p1
298.98 193.25 1.42 c p1
203.84 96.82 1.42 c p1
213.20 117.99 1.42 c p1
170.00 108.44 1.42 c p1
167.82 87.65 1.42 c p1
177.47 125.20 1.42 c p1
206.95 119.44 1.42 c p1
208.67 101.89 1.42 c p1
224.99 149.37 1.42 c p1
237.80 140.46 1.42 c p1
293.08 227.68 1.42 c p1
236.64 130.30 1.42 c p1
295.10 215.84 1.42 c p1
230.89 124.59 1.42 c p1
227.34 143.95 1.42 c p1
231.20 130.23 1.42 c p1
180.63 105.09 1.42 c p1
353.63 262.82 1.42 c p1
202.01 107.83 1.42 c p1
217.47 117.96 1.42 c p1
193.14 122.17 1.42 c p1
191.55 122.37 1.42 c p1
196.21 148.03 1.42 c p1
204.29 132.68 1.42 c p1
238.66 83.84 1.42 c p1
157.58 78.03 1.42 c p1
181.86 103.63 1.42 c p1
333.04 253.50 1.42 c p1
195.20 117.26 1.42 c p1
268.98 151.84 1.42 c p1
193.66 129.52 1.42 c p1
200.13 109.11 1.42 c p1
239.22 153.72 1.42 c p1
248.97 172.37 1.42 c p1
196.71 107.45 1.42 c p1
240.62 157.68 1.42 c p1
224.31 119.92 1.42 c p1
193.66 127.58 1.42 c p1
136.20 115.98 1.42 c p1
191.55 100.93 1.42 c p1
253.75 176.29 1.42 c p1
200.13 106.36 1.42 c p1
333.99 256.26 1.42 c p1
266.29 184.32 1.42 c p1
142.67 109.84 1.42 c p1
208.24 100.53 1.42 c p1
340.39 253.28 1.42 c p1
285.33 211.01 1.42 c p1
173.49 66.71 1.42 c p1
155.87 91.63 1.42 c p1
219.70 151.40 1.42 c p1
215.17 116.45 1.42 c p1
378.58 291.54 1.42 c p1
193.66 103.14 1.42 c p1
206.07 127.18 1.42 c p1
236.93 161.66 1.42 c p1
233.67 126.90 1.42 c p1
152.33 111.57 1.42 c p1
217.84 112.19 1.42 c p1
174.16 83.13 1.42 c p1
171.41 69.56 1.42 c p1
215.94 142.01 1.42 c p1
171.41 101.22 1.42 c p1
202.93 89.71 1.42 c p1
198.68 100.00 1.42 c p1
245.17 186.85 1.42 c p1
223.96 144.53 1.42 c p1
181.25 91.41 1.42 c p1
234.27 149.60 1.42 c p1
186.00 82.83 1.42 c p1
149.56 118.60 1.42 c p1
251.87 152.18 1.42 c p1
180.01 99.68 1.42 c p1
258.89 182.81 1.42 c p1
220.06 120.30 1.42 c p1
181.25 125.33 1.42 c p1
155.87 79.23 1.42 c p1
238.09 170.69 1.42 c p1
169.28 78.35 1.42 c p1
233.06 156.83 1.42 c p1
273.90 187.57 1.42 c p1
153.23 77.57 1.42 c p1
187.15 75.29 1.42 c p1
220.06 126.54 1.42 c p1
223.62 152.99 1.42 c p1
146.69 100.49 1.42 c p1
184.84 87.84 1.42 c p1
397.52 306.00 1.42 c p1
186.00 109.72 1.42 c p1
277.69 167.48 1.42 c p1
135.07 138.68 1.42 c p1
297.58 224.31 1.42 c p1
220.79 128.83 1.42 c p1
158.42 119.80 1.42 c p1
206.95 128.10 1.42 c p1
202.01 124.00 1.42 c p1
220.06 117.29 1.42 c p1
172.80 103.99 1.42 c p1
186.58 106.30 1.42 c p1
345.68 268.60 1.42 c p1
161.69 66.37 1.42 c p1
167.08 103.87 1.42 c p1
144.71 75.56 1.42 c p1
342.38 257.63 1.42 c p1
154.12 106.42 1.42 c p1
148.62 94.68 1.42 c p1
169.28 103.16 1.42 c p1
220.06 122.25 1.42 c p1
227.01 151.06 1.42 c p1
164.05 93.50 1.42 c p1
213.99 106.25 1.42 c p1
141.63 90.47 1.42 c p1
221.50 153.44 1.42 c p1
206.95 109.38 1.42 c p1
233.06 158.07 1.42 c p1
186.58 88.45 1.42 c p1
290.16 220.62 1.42 c p1
142.67 102.05 1.42 c p1
147.66 67.24 1.42 c p1
237.22 147.08 1.42 c p1
207.38 124.01 1.42 c p1
285.18 201.50 1.42 c p1
228.33 145.87 1.42 c p1
170.00 94.11 1.42 c p1
164.82 70.18 1.42 c p1
279.18 204.93 1.42 c p1
167.82 96.18 1.42 c p1
245.69 181.41 1.42 c p1
130.35 83.97 1.42 c p1
133.92 103.80 1.42 c p1
271.93 165.07 1.42 c p1
146.69 66.27 1.42 c p1
195.71 98.30 1.42 c p1
273.37 173.41 1.42 c p1
144.71 58.73 1.42 c p1
202.47 113.89 1.42 c p1
230.89 144.30 1.42 c p1
221.15 131.05 1.42 c p1
261.65 175.65 1.42 c p1
241.98 165.02 1.42 c p1
219.33 158.37 1.42 c p1
230.89 122.29 1.42 c p1
269.35 199.34 1.42 c p1
148.62 113.93 1.42 c p1
198.68 89.94 1.42 c p1
136.20 58.54 1.42 c p1
261.02 178.34 1.42 c p1
174.84 91.94 1.42 c p1
234.87 138.75 1.42 c p1
379.05 293.93 1.42 c p1
167.08 93.79 1.42 c p1
201.07 130.35 1.42 c p1
283.96 207.86 1.42 c p1
136.20 86.83 1.42 c p1
214.78 109.85 1.42 c p1
149.56 105.76 1.42 c p1
210.76 118.17 1.42 c p1
206.07 133.31 1.42 c p1
140.58 102.73 1.42 c p1
194.69 142.64 1.42 c p1
253.05 170.46 1.42 c p1
206.51 126.07 1.42 c p1
209.51 112.78 1.42 c p1
245.69 160.14 1.42 c p1
209.93 141.25 1.42 c p1
225.33 117.19 1.42 c p1
233.67 133.99 1.42 c p1
147.66 64.19 1.42 c p1
162.48 101.34 1.42 c p1
182.46 80.10 1.42 c p1
200.60 113.93 1.42 c p1
192.08 111.04 1.42 c p1
136.20 64.93 1.42 c p1
220.79 144.07 1.42 c p1
328.86 252.63 1.42 c p1
333.99 249.76 1.42 c p1
270.28 202.55 1.42 c p1
174.84 126.44 1.42 c p1
194.18 120.39 1.42 c p1
156.73 73.34 1.42 c p1
152.33 91.56 1.42 c p1
220.06 140.92 1.42 c p1
199.17 122.93 1.42 c p1
190.48 109.43 1.42 c p1
210.76 129.99 1.42 c p1
327.07 241.43 1.42 c p1
152.33 72.14 1.42 c p1
275.13 203.30 1.42 c p1
262.68 189.51 1.42 c p1
317.70 225.54 1.42 c p1
320.20 238.28 1.42 c p1
200.60 108.42 1.42 c p1
293.36 221.93 1.42 c p1
227.01 153.66 1.42 c p1
202.01 90.49 1.42 c p1
247.22 189.71 1.42 c p1
248.22 130.70 1.42 c p1
161.69 89.09 1.42 c p1
187.71 123.44 1.42 c p1
163.27 108.46 1.42 c p1
265.89 160.79 1.42 c p1
196.71 145.99 1.42 c p1
222.92 112.03 1.42 c p1
244.65 171.74 1.42 c p1
156.73 93.49 1.42 c p1
133.92 71.27 1.42 c p1
256.48 170.36 1.42 c p1
295.63 221.22 1.42 c p1
224.31 139.99 1.42 c p1
184.84 106.48 1.42 c p1
189.38 84.00 1.42 c p1
197.71 115.47 1.42 c p1
242.52 151.39 1.42 c p1
283.18 203.81 1.42 c p1
266.29 185.48 1.42 c p1
382.40 290.86 1.42 c p1
296.94 215.49 1.42 c p1
231.83 143.49 1.42 c p1
260.39 178.96 1.42 c p1
256.70 180.97 1.42 c p1
190.48 126.09 1.42 c p1
159.25 82.08 1.42 c p1
256.03 167.93 1.42 c p1
180.63 111.12 1.42 c p1
265.89 186.40 1.42 c p1
180.63 88.18 1.42 c p1
192.08 122.32 1.42 c p1
207.81 115.42 1.42 c p1
172.11 98.39 1.42 c p1
168.55 101.16 1.42 c p1
186.00 109.54 1.42 c p1
273.19 193.71 1.42 c p1
217.09 157.22 1.42 c p1
285.18 200.37 1.42 c p1
191.55 117.40 1.42 c p1
254.21 171.45 1.42 c p1
223.96 133.01 1.42 c p1
236.35 166.71 1.42 c p1
294.17 212.68 1.42 c p1
261.86 155.94 1.42 c p1
253.75 178.78 1.42 c p1
186.00 113.27 1.42 c p1
203.39 125.19 1.42 c p1
261.86 191.43 1.42 c p1
260.60 195.33 1.42 c p1
273.72 187.24 1.42 c p1
286.68 188.02 1.42 c p1
220.42 151.33 1.42 c p1
204.29 141.52 1.42 c p1
159.25 81.84 1.42 c p1
176.82 82.85 1.42 c p1
180.01 97.87 1.42 c p1
162.48 110.92 1.42 c p1
227.34 143.73 1.42 c p1
185.43 113.51 1.42 c p1
225.33 145.74 1.42 c p1
340.96 261.19 1.42 c p1
158.42 111.04 1.42 c p1
347.01 265.50 1.42 c p1
216.71 93.02 1.42 c p1
226.35 148.10 1.42 c p1
296.81 220.97 1.42 c p1
155.87 87.34 1.42 c p1
192.08 106.38 1.42 c p1
198.20 104.03 1.42 c p1
273.37 175.55 1.42 c p1
194.18 108.55 1.42 c p1
246.97 179.56 1.42 c p1
181.86 105.36 1.42 c p1
174.84 110.46 1.42 c p1
194.69 99.51 1.42 c p1
246.97 172.31 1.42 c p1
165.58 111.33 1.42 c p1
152.33 71.11 1.42 c p1
261.23 187.98 1.42 c p1
210.35 132.18 1.42 c p1
304.44 221.54 1.42 c p1
169.28 123.50 1.42 c p1
187.71 96.32 1.42 c p1
173.49 108.28 1.42 c p1
170.00 69.09 1.42 c p1
202.01 106.04 1.42 c p1
141.63 71.54 1.42 c p1
222.22 114.72 1.42 c p1
296.68 207.99 1.42 c p1
160.07 106.00 1.42 c p1
238.37 161.15 1.42 c p1
164.05 78.96 1.42 c p1
216.33 127.36 1.42 c p1
214.78 128.10 1.42 c p1
227.34 129.90 1.42 c p1
323.35 240.02 1.42 c p1
316.91 223.00 1.42 c p1
216.71 113.78 1.42 c p1
202.01 103.23 1.42 c p1
288.01 202.95 1.42 c p1
194.69 106.10 1.42 c p1
163.27 87.11 1.42 c p1
343.63 273.63 1.42 c p1
148.62 96.37 1.42 c p1
166.33 88.94 1.42 c p1
279.51 192.46 1.42 c p1
233.06 128.19 1.42 c p1
228.00 123.16 1.42 c p1
286.23 203.73 1.42 c p1
170.00 86.52 1.42 c p1
163.27 111.46 1.42 c p1
286.83 203.16 1.42 c p1
175.50 96.54 1.42 c p1
233.97 133.00 1.42 c p1
211.17 137.45 1.42 c p1
186.58 97.07 1.42 c p1
174.84 114.41 1.42 c p1
189.38 114.66 1.42 c p1
234.58 135.81 1.42 c p1
160.07 89.84 1.42 c p1
173.49 102.27 1.42 c p1
212.80 112.53 1.42 c p1
249.95 168.60 1.42 c p1
161.69 70.80 1.42 c p1
130.35 75.34 1.42 c p1
324.52 248.20 1.42 c p1
193.14 132.26 1.42 c p1
148.62 91.66 1.42 c p1
268.22 191.50 1.42 c p1
195.71 78.35 1.42 c p1
342.31 252.35 1.42 c p1
194.69 130.67 1.42 c p1
245.43 145.01 1.42 c p1
340.17 251.40 1.42 c p1
195.20 98.84 1.42 c p1
189.93 120.27 1.42 c p1
166.33 105.50 1.42 c p1
226.68 134.25 1.42 c p1
225.67 149.14 1.42 c p1
158.42 93.95 1.42 c p1
461.60 366.16 1.42 c p1
504.13 431.83 1.42 c p1
249.70 122.81 1.42 c p1
290.16 198.69 1.42 c p1
298.47 170.17 1.42 c p1
331.26 247.20 1.42 c p1
224.65 153.25 1.42 c p1
202.47 164.68 1.42 c p1
267.84 165.23 1.42 c p1
244.39 196.23 1.42 c p1
200.60 191.84 1.42 c p1
271.57 197.41 1.42 c p1
273.19 168.44 1.42 c p1
261.02 176.79 1.42 c p1
313.78 223.61 1.42 c p1
312.32 220.55 1.42 c p1
149.56 86.15 1.42 c p1
321.51 207.49 1.42 c p1
206.07 133.40 1.42 c p1
360.27 268.61 1.42 c p1
233.97 148.15 1.42 c p1
165.58 97.10 1.42 c p1
229.30 127.37 1.42 c p1
179.38 85.77 1.42 c p1
228.33 136.19 1.42 c p1
370.23 314.27 1.42 c p1
297.97 207.29 1.42 c p1
232.76 123.75 1.42 c p1
262.27 166.70 1.42 c p1
164.82 120.86 1.42 c p1
280.48 220.33 1.42 c p1
264.10 138.44 1.42 c p1
284.11 241.50 1.42 c p1
229.30 142.73 1.42 c p1
410.02 310.75 1.42 c p1
240.06 115.53 1.42 c p1
203.39 90.97 1.42 c p1
160.07 120.94 1.42 c p1
316.71 250.14 1.42 c p1
268.60 179.80 1.42 c p1
230.26 161.06 1.42 c p1
229.30 144.97 1.42 c p1
201.54 144.93 1.42 c p1
220.06 103.50 1.42 c p1
291.01 210.38 1.42 c p1
279.67 219.35 1.42 c p1
254.21 165.37 1.42 c p1
189.38 84.31 1.42 c p1
178.11 65.65 1.42 c p1
380.70 303.13 1.42 c p1
200.60 110.08 1.42 c p1
137.32 108.51 1.42 c p1
183.07 140.78 1.42 c p1
273.55 182.80 1.42 c p1
363.67 287.33 1.42 c p1
276.33 194.48 1.42 c p1
296.94 215.93 1.42 c p1
229.94 149.30 1.42 c p1
282.56 211.78 1.42 c p1
346.41 250.63 1.42 c p1
281.13 205.10 1.42 c p1
335.77 238.85 1.42 c p1
271.20 184.50 1.42 c p1
169.28 106.97 1.42 c p1
206.07 156.13 1.42 c p1
434.44 331.96 1.42 c p1
160.89 60.64 1.42 c p1
222.22 140.79 1.42 c p1
340.67 238.30 1.42 c p1
212.80 130.75 1.42 c p1
303.26 219.10 1.42 c p1
215.94 130.17 1.42 c p1
238.37 152.10 1.42 c p1
268.22 186.55 1.42 c p1
349.60 271.02 1.42 c p1
300.23 225.58 1.42 c p1
255.58 184.10 1.42 c p1
132.75 105.60 1.42 c p1
168.55 74.19 1.42 c p1
343.43 264.25 1.42 c p1
133.92 82.18 1.42 c p1
307.31 230.37 1.42 c p1
286.38 196.90 1.42 c p1
326.81 246.56 1.42 c p1
231.83 145.10 1.42 c p1
262.48 192.77 1.42 c p1
165.58 116.23 1.42 c p1
259.54 165.82 1.42 c p1
215.56 111.20 1.42 c p1
429.41 338.28 1.42 c p1
400.79 310.43 1.42 c p1
213.99 94.13 1.42 c p1
234.58 146.23 1.42 c p1
249.70 172.02 1.42 c p1
172.80 124.20 1.42 c p1
471.56 378.63 1.42 c p1
291.43 204.24 1.42 c p1
166.33 108.00 1.42 c p1
295.89 200.88 1.42 c p1
318.38 234.50 1.42 c p1
304.44 210.60 1.42 c p1
295.23 181.29 1.42 c p1
209.93 143.36 1.42 c p1
326.02 232.00 1.42 c p1
351.80 261.03 1.42 c p1
198.20 139.63 1.42 c p1
344.11 261.16 1.42 c p1
200.13 87.02 1.42 c p1
269.91 174.00 1.42 c p1
384.38 298.35 1.42 c p1
213.99 102.33 1.42 c p1
255.80 166.97 1.42 c p1
293.90 203.21 1.42 c p1
211.58 132.48 1.42 c p1
247.22 142.45 1.42 c p1
259.11 181.91 1.42 c p1
223.62 115.72 1.42 c p1
202.47 103.10 1.42 c p1
396.54 307.41 1.42 c p1
263.09 173.88 1.42 c p1
239.22 159.02 1.42 c p1
230.57 146.24 1.42 c p1
139.51 69.58 1.42 c p1
220.79 141.95 1.42 c p1
258.67 178.58 1.42 c p1
231.20 125.43 1.42 c p1
278.35 189.10 1.42 c p1
363.14 273.26 1.42 c p1
182.46 93.88 1.42 c p1
234.87 151.38 1.42 c p1
211.58 109.35 1.42 c p1
185.43 98.53 1.42 c p1
243.59 175.83 1.42 c p1
190.48 93.37 1.42 c p1
176.82 82.97 1.42 c p1
167.08 89.86 1.42 c p1
231.52 140.39 1.42 c p1
169.28 92.43 1.42 c p1
194.18 94.56 1.42 c p1
275.47 195.18 1.42 c p1
213.60 128.06 1.42 c p1
192.61 96.32 1.42 c p1
209.93 98.58 1.42 c p1
209.09 139.81 1.42 c p1
211.99 117.82 1.42 c p1
270.47 170.41 1.42 c p1
229.30 164.00 1.42 c p1
140.58 122.36 1.42 c p1
263.50 189.95 1.42 c p1
249.95 166.36 1.42 c p1
181.86 90.14 1.42 c p1
207.81 147.40 1.42 c p1
305.72 214.65 1.42 c p1
280.65 207.95 1.42 c p1
210.35 119.32 1.42 c p1
167.82 133.87 1.42 c p1
198.20 87.78 1.42 c p1
254.67 176.09 1.42 c p1
206.95 152.02 1.42 c p1
181.25 62.20 1.42 c p1
183.07 134.84 1.42 c p1
173.49 81.31 1.42 c p1
203.84 128.14 1.42 c p1
276.16 178.93 1.42 c p1
305.95 228.99 1.42 c p1
238.37 147.11 1.42 c p1
282.87 207.37 1.42 c p1
245.69 166.71 1.42 c p1
321.23 240.10 1.42 c p1
254.67 176.32 1.42 c p1
205.19 135.19 1.42 c p1
153.23 100.58 1.42 c p1
365.39 285.40 1.42 c p1
176.82 147.81 1.42 c p1
309.42 226.86 1.42 c p1
201.54 127.98 1.42 c p1
156.73 89.18 1.42 c p1
202.47 142.78 1.42 c p1
289.17 219.25 1.42 c p1
222.92 134.77 1.42 c p1
208.24 129.37 1.42 c p1
154.12 113.01 1.42 c p1
199.17 126.27 1.42 c p1
246.46 144.75 1.42 c p1
184.26 115.29 1.42 c p1
174.16 68.63 1.42 c p1
172.11 83.08 1.42 c p1
252.82 183.53 1.42 c p1
256.48 200.14 1.42 c p1
225.33 151.27 1.42 c p1
370.18 289.94 1.42 c p1
194.18 109.15 1.42 c p1
364.35 283.93 1.42 c p1
303.85 210.96 1.42 c p1
151.42 104.85 1.42 c p1
187.71 133.24 1.42 c p1
239.50 154.10 1.42 c p1
155.00 118.81 1.42 c p1
187.15 126.87 1.42 c p1
273.37 168.66 1.42 c p1
176.16 86.94 1.42 c p1
274.25 177.20 1.42 c p1
306.75 217.27 1.42 c p1
313.57 237.65 1.42 c p1
192.08 95.93 1.42 c p1
184.26 136.16 1.42 c p1
310.94 230.44 1.42 c p1
289.17 209.22 1.42 c p1
224.65 102.09 1.42 c p1
446.63 360.79 1.42 c p1
155.87 93.10 1.42 c p1
180.01 116.54 1.42 c p1
269.73 179.88 1.42 c p1
252.58 166.31 1.42 c p1
295.10 219.78 1.42 c p1
259.75 169.69 1.42 c p1
190.48 102.54 1.42 c p1
165.58 121.55 1.42 c p1
208.67 104.96 1.42 c p1
215.94 153.61 1.42 c p1
197.21 69.41 1.42 c p1
262.68 146.97 1.42 c p1
311.37 215.57 1.42 c p1
260.39 176.96 1.42 c p1
290.87 197.64 1.42 c p1
183.07 97.84 1.42 c p1
212.39 159.27 1.42 c p1
308.32 215.99 1.42 c p1
258.89 151.96 1.42 c p1
250.19 147.83 1.42 c p1
270.10 178.53 1.42 c p1
200.60 142.43 1.42 c p1
180.01 90.67 1.42 c p1
181.25 95.86 1.42 c p1
287.71 219.36 1.42 c p1
202.93 122.34 1.42 c p1
233.06 142.89 1.42 c p1
339.73 258.71 1.42 c p1
269.35 201.33 1.42 c p1
313.88 250.17 1.42 c p1
204.29 110.40 1.42 c p1
250.43 158.33 1.42 c p1
239.50 167.10 1.42 c p1
170.71 108.90 1.42 c p1
339.37 257.96 1.42 c p1
188.27 85.72 1.42 c p1
148.62 73.33 1.42 c p1
246.46 155.85 1.42 c p1
233.37 124.71 1.42 c p1
275.47 182.13 1.42 c p1
210.76 98.60 1.42 c p1
283.80 200.20 1.42 c p1
202.47 116.35 1.42 c p1
167.08 111.19 1.42 c p1
182.46 126.48 1.42 c p1
201.07 134.47 1.42 c p1
231.52 160.33 1.42 c p1
246.97 154.40 1.42 c p1
265.70 137.63 1.42 c p1
375.04 281.86 1.42 c p1
148.62 55.60 1.42 c p1
203.84 119.96 1.42 c p1
161.69 91.98 1.42 c p1
228.98 134.36 1.42 c p1
198.20 136.42 1.42 c p1
198.68 108.88 1.42 c p1
238.37 154.06 1.42 c p1
197.21 107.60 1.42 c p1
194.69 98.04 1.42 c p1
224.99 154.50 1.42 c p1
213.20 139.65 1.42 c p1
158.42 101.17 1.42 c p1
209.09 134.72 1.42 c p1
202.47 121.21 1.42 c p1
229.94 151.73 1.42 c p1
208.24 115.90 1.42 c p1
236.06 151.27 1.42 c p1
192.08 72.51 1.42 c p1
232.14 118.05 1.42 c p1
291.71 194.40 1.42 c p1
186.58 89.12 1.42 c p1
213.20 108.31 1.42 c p1
378.88 290.89 1.42 c p1
372.74 289.03 1.42 c p1
395.79 328.52 1.42 c p1
208.67 146.27 1.42 c p1
345.27 271.80 1.42 c p1
155.00 98.63 1.42 c p1
228.98 142.67 1.42 c p1
242.52 171.00 1.42 c p1
176.16 82.34 1.42 c p1
165.58 107.18 1.42 c p1
185.43 111.55 1.42 c p1
224.31 147.44 1.42 c p1
157.58 108.08 1.42 c p1
149.56 110.67 1.42 c p1
224.99 163.33 1.42 c p1
194.18 107.31 1.42 c p1
173.49 75.78 1.42 c p1
236.35 153.69 1.42 c p1
177.47 110.18 1.42 c p1
209.93 105.03 1.42 c p1
170.71 133.74 1.42 c p1
259.75 184.59 1.42 c p1
226.01 157.64 1.42 c p1
250.92 168.48 1.42 c p1
174.16 78.45 1.42 c p1
241.44 157.78 1.42 c p1
177.47 89.96 1.42 c p1
273.37 190.82 1.42 c p1
180.01 96.44 1.42 c p1
205.63 143.72 1.42 c p1
195.20 102.48 1.42 c p1
310.51 228.26 1.42 c p1
229.94 133.99 1.42 c p1
265.70 180.95 1.42 c p1
228.65 152.44 1.42 c p1
245.69 163.83 1.42 c p1
332.07 258.58 1.42 c p1
167.08 105.93 1.42 c p1
332.48 251.76 1.42 c p1
200.13 119.73 1.42 c p1
215.94 111.48 1.42 c p1
163.27 105.17 1.42 c p1
304.21 226.82 1.42 c p1
213.99 110.18 1.42 c p1
198.68 101.31 1.42 c p1
317.60 237.97 1.42 c p1
275.30 188.52 1.42 c p1
184.84 103.88 1.42 c p1
351.61 267.06 1.42 c p1
275.30 201.01 1.42 c p1
256.70 177.53 1.42 c p1
371.14 289.63 1.42 c p1
203.39 72.53 1.42 c p1
360.44 272.71 1.42 c p1
244.39 158.95 1.42 c p1
174.16 108.13 1.42 c p1
289.60 208.48 1.42 c p1
228.00 148.12 1.42 c p1
303.74 224.98 1.42 c p1
270.47 183.33 1.42 c p1
232.76 160.26 1.42 c p1
298.85 221.18 1.42 c p1
183.07 85.51 1.42 c p1
272.11 187.18 1.42 c p1
261.86 195.27 1.42 c p1
249.46 157.71 1.42 c p1
240.06 160.52 1.42 c p1
203.39 106.32 1.42 c p1
234.27 142.58 1.42 c p1
203.39 104.15 1.42 c p1
251.87 160.56 1.42 c p1
277.01 194.14 1.42 c p1
248.72 188.54 1.42 c p1
317.01 233.73 1.42 c p1
258.46 186.73 1.42 c p1
163.27 86.10 1.42 c p1
227.67 131.40 1.42 c p1
230.26 150.65 1.42 c p1
206.51 98.52 1.42 c p1
244.12 172.57 1.42 c p1
289.74 216.23 1.42 c p1
198.20 140.07 1.42 c p1
278.19 207.76 1.42 c p1
199.65 97.04 1.42 c p1
249.46 152.61 1.42 c p1
480.27 374.47 1.42 c p1
276.67 161.27 1.42 c p1
155.00 91.04 1.42 c p1
359.49 262.16 1.42 c p1
236.06 154.53 1.42 c p1
195.71 73.98 1.42 c p1
321.51 215.14 1.42 c p1
174.84 67.69 1.42 c p1
343.98 298.56 1.42 c p1
244.39 153.24 1.42 c p1
219.70 106.81 1.42 c p1
251.40 177.46 1.42 c p1
413.58 352.45 1.42 c p1
306.52 197.22 1.42 c p1
150.50 174.75 1.42 c p1
259.75 173.22 1.42 c p1
186.00 109.18 1.42 c p1
262.68 210.32 1.42 c p1
258.89 174.31 1.42 c p1
258.67 178.04 1.42 c p1
129.12 99.08 1.42 c p1
228.00 153.50 1.42 c p1
321.98 214.10 1.42 c p1
343.49 274.90 1.42 c p1
227.01 192.45 1.42 c p1
270.10 170.41 1.42 c p1
231.83 129.78 1.42 c p1
282.24 182.23 1.42 c p1
254.67 216.18 1.42 c p1
174.16 89.45 1.42 c p1
299.23 219.59 1.42 c p1
157.58 110.73 1.42 c p1
362.02 275.00 1.42 c p1
289.60 207.63 1.42 c p1
271.20 178.14 1.42 c p1
191.02 117.92 1.42 c p1
301.82 224.44 1.42 c p1
222.57 140.42 1.42 c p1
280.16 184.84 1.42 c p1
233.97 154.87 1.42 c p1
154.12 92.07 1.42 c p1
186.00 129.20 1.42 c p1
226.35 135.75 1.42 c p1
255.12 183.38 1.42 c p1
223.62 194.16 1.42 c p1
291.01 190.98 1.42 c p1
258.02 161.81 1.42 c p1
153.23 92.63 1.42 c p1
256.03 186.86 1.42 c p1
176.16 107.33 1.42 c p1
167.08 83.96 1.42 c p1
217.84 129.63 1.42 c p1
289.60 218.87 1.42 c p1
247.72 183.56 1.42 c p1
202.93 98.10 1.42 c p1
199.65 111.19 1.42 c p1
198.20 128.07 1.42 c p1
202.01 110.23 1.42 c p1
468.84 361.73 1.42 c p1
553.39 443.18 1.42 c p1
1 0 0 srgb
2.13 setlinewidth
[] 0 setdash
0 setlinecap
np
69.30 0.00 m
6.79 6.32 l
8.01 7.47 l
8.01 7.46 l
8.02 7.46 l
8.01 7.47 l
8.01 7.46 l
8.01 7.46 l
8.01 7.46 l
8.01 7.47 l
8.02 7.46 l
8.01 7.46 l
8.01 7.47 l
8.01 7.46 l
8.01 7.46 l
8.01 7.46 l
8.02 7.47 l
8.01 7.46 l
8.01 7.46 l
8.01 7.46 l
8.01 7.47 l
8.01 7.46 l
8.02 7.46 l
8.01 7.47 l
8.01 7.46 l
8.01 7.46 l
8.01 7.46 l
8.01 7.47 l
8.02 7.46 l
8.01 7.46 l
8.01 7.47 l
8.01 7.46 l
8.01 7.46 l
8.01 7.46 l
8.02 7.47 l
8.01 7.46 l
8.01 7.46 l
8.01 7.47 l
8.01 7.46 l
8.01 7.46 l
8.02 7.46 l
8.01 7.47 l
8.01 7.46 l
8.01 7.46 l
8.01 7.46 l
8.01 7.47 l
8.02 7.46 l
8.01 7.46 l
8.01 7.47 l
8.01 7.46 l
8.01 7.46 l
8.01 7.46 l
8.02 7.47 l
8.01 7.46 l
8.01 7.46 l
8.01 7.47 l
8.01 7.46 l
8.01 7.46 l
8.02 7.46 l
8.01 7.47 l
8.01 7.46 l
7.42 6.91 l
o
0 0 0 srgb
2.13 setlinewidth
[ 8.54 8.54] 0 setdash
np
76.97 43.35 m
484.48 404.71 l
o
/Font1 findfont 24 s
101.19 412.99 (B\)) 0 0 t
76.97 43.35 561.45 448.06 cl
0 0 0 srgb
1.07 setlinewidth
[] 0 setdash
1 setlinecap
1 setlinejoin
10.00 setmiterlimit
np
47.48 43.35 m
0 2.83 l
o
np
77.61 43.35 m
0 2.83 l
o
np
98.99 43.35 m
0 2.83 l
o
np
115.57 43.35 m
0 5.67 l
o
np
129.12 43.35 m
0 2.83 l
o
np
140.58 43.35 m
0 2.83 l
o
np
150.50 43.35 m
0 2.83 l
o
np
159.25 43.35 m
0 2.83 l
o
np
167.08 43.35 m
0 8.50 l
o
np
218.59 43.35 m
0 2.83 l
o
np
248.72 43.35 m
0 2.83 l
o
np
270.10 43.35 m
0 2.83 l
o
np
286.68 43.35 m
0 5.67 l
o
np
300.23 43.35 m
0 2.83 l
o
np
311.68 43.35 m
0 2.83 l
o
np
321.61 43.35 m
0 2.83 l
o
np
330.36 43.35 m
0 2.83 l
o
np
338.19 43.35 m
0 8.50 l
o
np
389.70 43.35 m
0 2.83 l
o
np
419.83 43.35 m
0 2.83 l
o
np
441.21 43.35 m
0 2.83 l
o
np
457.79 43.35 m
0 5.67 l
o
np
471.34 43.35 m
0 2.83 l
o
np
482.79 43.35 m
0 2.83 l
o
np
492.72 43.35 m
0 2.83 l
o
np
501.47 43.35 m
0 2.83 l
o
np
509.30 43.35 m
0 8.50 l
o
np
560.81 43.35 m
0 2.83 l
o
np
47.48 448.06 m
0 -2.83 l
o
np
77.61 448.06 m
0 -2.83 l
o
np
98.99 448.06 m
0 -2.83 l
o
np
115.57 448.06 m
0 -5.67 l
o
np
129.12 448.06 m
0 -2.83 l
o
np
140.58 448.06 m
0 -2.83 l
o
np
150.50 448.06 m
0 -2.83 l
o
np
159.25 448.06 m
0 -2.83 l
o
np
167.08 448.06 m
0 -8.50 l
o
np
218.59 448.06 m
0 -2.83 l
o
np
248.72 448.06 m
0 -2.83 l
o
np
270.10 448.06 m
0 -2.83 l
o
np
286.68 448.06 m
0 -5.67 l
o
np
300.23 448.06 m
0 -2.83 l
o
np
311.68 448.06 m
0 -2.83 l
o
np
321.61 448.06 m
0 -2.83 l
o
np
330.36 448.06 m
0 -2.83 l
o
np
338.19 448.06 m
0 -8.50 l
o
np
389.70 448.06 m
0 -2.83 l
o
np
419.83 448.06 m
0 -2.83 l
o
np
441.21 448.06 m
0 -2.83 l
o
np
457.79 448.06 m
0 -5.67 l
o
np
471.34 448.06 m
0 -2.83 l
o
np
482.79 448.06 m
0 -2.83 l
o
np
492.72 448.06 m
0 -2.83 l
o
np
501.47 448.06 m
0 -2.83 l
o
np
509.30 448.06 m
0 -8.50 l
o
np
560.81 448.06 m
0 -2.83 l
o
np
76.97 18.72 m
2.83 0 l
o
np
76.97 43.89 m
2.83 0 l
o
np
76.97 61.74 m
2.83 0 l
o
np
76.97 75.60 m
5.67 0 l
o
np
76.97 86.91 m
2.83 0 l
o
np
76.97 96.48 m
2.83 0 l
o
np
76.97 104.77 m
2.83 0 l
o
np
76.97 112.08 m
2.83 0 l
o
np
76.97 118.62 m
8.50 0 l
o
np
76.97 161.65 m
2.83 0 l
o
np
76.97 186.82 m
2.83 0 l
o
np
76.97 204.68 m
2.83 0 l
o
np
76.97 218.53 m
5.67 0 l
o
np
76.97 229.85 m
2.83 0 l
o
np
76.97 239.42 m
2.83 0 l
o
np
76.97 247.71 m
2.83 0 l
o
np
76.97 255.02 m
2.83 0 l
o
np
76.97 261.56 m
8.50 0 l
o
np
76.97 304.59 m
2.83 0 l
o
np
76.97 329.76 m
2.83 0 l
o
np
76.97 347.62 m
2.83 0 l
o
np
76.97 361.47 m
5.67 0 l
o
np
76.97 372.79 m
2.83 0 l
o
np
76.97 382.36 m
2.83 0 l
o
np
76.97 390.65 m
2.83 0 l
o
np
76.97 397.96 m
2.83 0 l
o
np
76.97 404.50 m
8.50 0 l
o
np
76.97 447.53 m
2.83 0 l
o
np
561.45 18.72 m
-2.83 0 l
o
np
561.45 43.89 m
-2.83 0 l
o
np
561.45 61.74 m
-2.83 0 l
o
np
561.45 75.60 m
-5.67 0 l
o
np
561.45 86.91 m
-2.83 0 l
o
np
561.45 96.48 m
-2.83 0 l
o
np
561.45 104.77 m
-2.83 0 l
o
np
561.45 112.08 m
-2.83 0 l
o
np
561.45 118.62 m
-8.50 0 l
o
np
561.45 161.65 m
-2.83 0 l
o
np
561.45 186.82 m
-2.83 0 l
o
np
561.45 204.68 m
-2.83 0 l
o
np
561.45 218.53 m
-5.67 0 l
o
np
561.45 229.85 m
-2.83 0 l
o
np
561.45 239.42 m
-2.83 0 l
o
np
561.45 247.71 m
-2.83 0 l
o
np
561.45 255.02 m
-2.83 0 l
o
np
561.45 261.56 m
-8.50 0 l
o
np
561.45 304.59 m
-2.83 0 l
o
np
561.45 329.76 m
-2.83 0 l
o
np
561.45 347.62 m
-2.83 0 l
o
np
561.45 361.47 m
-5.67 0 l
o
np
561.45 372.79 m
-2.83 0 l
o
np
561.45 382.36 m
-2.83 0 l
o
np
561.45 390.65 m
-2.83 0 l
o
np
561.45 397.96 m
-2.83 0 l
o
np
561.45 404.50 m
-8.50 0 l
o
np
561.45 447.53 m
-2.83 0 l
o
0.2000 0.2000 0.2000 srgb
76.97 43.35 484.48 404.72 r p1
0.00 0.00 566.93 453.54 cl
0.00 0.00 566.93 453.54 cl
0.00 0.00 566.93 453.54 cl
0.00 0.00 566.93 453.54 cl
0.00 0.00 566.93 453.54 cl
0.00 0.00 566.93 453.54 cl
0.00 0.00 566.93 453.54 cl
0.00 0.00 566.93 453.54 cl
0.00 0.00 566.93 453.54 cl
0.00 0.00 566.93 453.54 cl
0.00 0.00 566.93 453.54 cl
0.00 0.00 566.93 453.54 cl
0.00 0.00 566.93 453.54 cl
0.00 0.00 566.93 453.54 cl
0.00 0.00 566.93 453.54 cl
0.00 0.00 566.93 453.54 cl
/Font1 findfont 20 s
0.3020 0.3020 0.3020 srgb
72.04 113.00 (0.01) 1 0 t
72.04 255.94 (0.10) 1 0 t
72.04 398.88 (1.00) 1 0 t
0.00 0.00 566.93 453.54 cl
0.00 0.00 566.93 453.54 cl
0.2000 0.2000 0.2000 srgb
1.07 setlinewidth
[] 0 setdash
0 setlinecap
1 setlinejoin
10.00 setmiterlimit
np
74.23 118.62 m
2.74 0 l
o
np
74.23 261.56 m
2.74 0 l
o
np
74.23 404.50 m
2.74 0 l
o
0.00 0.00 566.93 453.54 cl
0.00 0.00 566.93 453.54 cl
0.00 0.00 566.93 453.54 cl
0.00 0.00 566.93 453.54 cl
0.00 0.00 566.93 453.54 cl
0.00 0.00 566.93 453.54 cl
0.00 0.00 566.93 453.54 cl
0.00 0.00 566.93 453.54 cl
0.00 0.00 566.93 453.54 cl
0.00 0.00 566.93 453.54 cl
0.2000 0.2000 0.2000 srgb
1.07 setlinewidth
[] 0 setdash
0 setlinecap
1 setlinejoin
10.00 setmiterlimit
np
167.08 40.61 m
0 2.74 l
o
np
338.19 40.61 m
0 2.74 l
o
np
509.30 40.61 m
0 2.74 l
o
0.00 0.00 566.93 453.54 cl
0.00 0.00 566.93 453.54 cl
/Font1 findfont 20 s
0.3020 0.3020 0.3020 srgb
167.08 27.18 (0.01) .5 0 t
338.19 27.18 (0.10) .5 0 t
509.30 27.18 (1.00) .5 0 t
0.00 0.00 566.93 453.54 cl
0.00 0.00 566.93 453.54 cl
0.00 0.00 566.93 453.54 cl
0.00 0.00 566.93 453.54 cl
0.00 0.00 566.93 453.54 cl
0.00 0.00 566.93 453.54 cl
/Font1 findfont 22 s
0 0 0 srgb
319.21 8.93 (SUMSS Integrated Flux \(Jy\)) .5 0 t
0.00 0.00 566.93 453.54 cl
0.00 0.00 566.93 453.54 cl
/Font1 findfont 22 s
0 0 0 srgb
17.84 245.71 (ASKAP Beta Integrated Flux \(Jy\)) .5 90 t
0.00 0.00 566.93 453.54 cl
0.00 0.00 566.93 453.54 cl
0.00 0.00 566.93 453.54 cl
0.00 0.00 566.93 453.54 cl
0.00 0.00 566.93 453.54 cl
0.00 0.00 566.93 453.54 cl
0.00 0.00 566.93 453.54 cl
0.00 0.00 566.93 453.54 cl
0.00 0.00 566.93 453.54 cl
0.00 0.00 566.93 453.54 cl
0.00 0.00 566.93 453.54 cl
0.00 0.00 566.93 453.54 cl
ep
%%Trailer
%%Pages: 1
%%EOF
